﻿SpeciesCode,ScientificName,CommonName,StationNumber,PrimeStation,GearDescription,ProcessCode,Validity,DeploymentDateTime,DeploymentDepth,DeploymentLatitude,DeploymentLongitude
ANE,ENGRAULIS ENCRASICOLUS,European anchovy,9,HA,Solent Bass Trawl  Star,MO,Valid,28/11/2007 09:00:13,8.8,51.409,0.649
ANE,ENGRAULIS ENCRASICOLUS,European anchovy,10,W,Solent Bass Trawl  Star,MO,Valid,28/11/2007 09:58:13,12.7,51.422,0.649
ANE,ENGRAULIS ENCRASICOLUS,European anchovy,16,F,Solent Bass Trawl  Port,MO,Valid,29/11/2007 09:00:13,20.0,51.461,0.300
BBY,BLENNIUS OCELLARIS,Butterfly blenny,2,O,Solent Bass Trawl  Port,MO,Valid,27/11/2007 08:12:13,21.0,51.478,0.821
BIB,TRISOPTERUS LUSCUS,Whiting-pout (bib),1,L,Solent Bass Trawl  Port,MO,Valid,27/11/2007 07:20:13,22.5,51.507,0.855
BIB,TRISOPTERUS LUSCUS,Whiting-pout (bib),1,L,Solent Bass Trawl  Star,MO,Valid,27/11/2007 07:20:13,22.5,51.507,0.855
BIB,TRISOPTERUS LUSCUS,Whiting-pout (bib),2,O,Solent Bass Trawl  Port,MO,Valid,27/11/2007 08:12:13,21.0,51.478,0.821
BIB,TRISOPTERUS LUSCUS,Whiting-pout (bib),2,O,Solent Bass Trawl  Star,MO,Valid,27/11/2007 08:12:13,21.0,51.478,0.821
BIB,TRISOPTERUS LUSCUS,Whiting-pout (bib),3,K,Solent Bass Trawl  Port,MO,Valid,27/11/2007 09:46:13,22.5,51.506,0.754
BIB,TRISOPTERUS LUSCUS,Whiting-pout (bib),4,P,Solent Bass Trawl  Port,MO,Valid,27/11/2007 10:44:13,14.0,51.516,0.695
BIB,TRISOPTERUS LUSCUS,Whiting-pout (bib),16,F,Solent Bass Trawl  Port,MO,Valid,29/11/2007 09:00:13,20.0,51.461,0.300
BIB,TRISOPTERUS LUSCUS,Whiting-pout (bib),16,F,Solent Bass Trawl  Star,MO,Valid,29/11/2007 09:00:13,20.0,51.461,0.300
BIB,TRISOPTERUS LUSCUS,Whiting-pout (bib),13,N,Solent Bass Trawl  Port,MO,Valid,28/11/2007 13:26:13,14.2,51.451,0.735
BIB,TRISOPTERUS LUSCUS,Whiting-pout (bib),13,N,Solent Bass Trawl  Star,MO,Valid,28/11/2007 13:26:13,14.2,51.451,0.735
BIB,TRISOPTERUS LUSCUS,Whiting-pout (bib),14,J1,Solent Bass Trawl  Port,MO,Valid,28/11/2007 14:35:13,31.8,51.513,0.667
BIB,TRISOPTERUS LUSCUS,Whiting-pout (bib),14,J1,Solent Bass Trawl  Star,MO,Valid,28/11/2007 14:35:13,31.8,51.513,0.667
BIB,TRISOPTERUS LUSCUS,Whiting-pout (bib),15,E1,Solent Bass Trawl  Port,MO,Valid,29/11/2007 08:18:13,15.6,51.470,0.320
BIB,TRISOPTERUS LUSCUS,Whiting-pout (bib),15,E1,Solent Bass Trawl  Star,MO,Valid,29/11/2007 08:18:13,15.6,51.470,0.320
BIB,TRISOPTERUS LUSCUS,Whiting-pout (bib),7,J,Solent Bass Trawl  Star,MO,Valid,27/11/2007 14:23:13,26.0,51.515,0.660
BIB,TRISOPTERUS LUSCUS,Whiting-pout (bib),8,MA,Solent Bass Trawl  Port,MO,Valid,28/11/2007 07:26:13,20.4,51.408,0.692
BIB,TRISOPTERUS LUSCUS,Whiting-pout (bib),8,MA,Solent Bass Trawl  Star,MO,Valid,28/11/2007 07:26:13,20.4,51.408,0.692
BIB,TRISOPTERUS LUSCUS,Whiting-pout (bib),9,HA,Solent Bass Trawl  Port,MO,Valid,28/11/2007 09:00:13,8.8,51.409,0.649
BIB,TRISOPTERUS LUSCUS,Whiting-pout (bib),9,HA,Solent Bass Trawl  Star,MO,Valid,28/11/2007 09:00:13,8.8,51.409,0.649
BIB,TRISOPTERUS LUSCUS,Whiting-pout (bib),12,X,Solent Bass Trawl  Star,MO,Valid,28/11/2007 12:31:13,4.9,51.436,0.718
BIB,TRISOPTERUS LUSCUS,Whiting-pout (bib),4,P,Solent Bass Trawl  Star,MO,Valid,27/11/2007 10:44:13,14.0,51.516,0.695
BIB,TRISOPTERUS LUSCUS,Whiting-pout (bib),5,M,Solent Bass Trawl  Port,MO,Valid,27/11/2007 12:27:13,16.8,51.488,0.682
BIB,TRISOPTERUS LUSCUS,Whiting-pout (bib),5,M,Solent Bass Trawl  Star,MO,Valid,27/11/2007 12:27:13,16.8,51.488,0.682
BIB,TRISOPTERUS LUSCUS,Whiting-pout (bib),6,A,Solent Bass Trawl  Port,MO,Valid,27/11/2007 13:28:13,14.5,51.497,0.571
BIB,TRISOPTERUS LUSCUS,Whiting-pout (bib),6,A,Solent Bass Trawl  Star,MO,Valid,27/11/2007 13:28:13,14.5,51.497,0.571
BIB,TRISOPTERUS LUSCUS,Whiting-pout (bib),7,J,Solent Bass Trawl  Port,MO,Valid,27/11/2007 14:23:13,26.0,51.515,0.660
BLG,GOBIUS NIGER,Black goby,8,MA,Solent Bass Trawl  Port,MO,Valid,28/11/2007 07:26:13,20.4,51.408,0.692
BLG,GOBIUS NIGER,Black goby,8,MA,Solent Bass Trawl  Star,MO,Valid,28/11/2007 07:26:13,20.4,51.408,0.692
BLG,GOBIUS NIGER,Black goby,9,HA,Solent Bass Trawl  Port,MO,Valid,28/11/2007 09:00:13,8.8,51.409,0.649
BLL,SCOPHTHALMUS RHOMBUS,Brill,13,N,Solent Bass Trawl  Port,MO,Valid,28/11/2007 13:26:13,14.2,51.451,0.735
BRT,MYOXOCEPHALUS SCORPIUS,Bullrout,2,O,Solent Bass Trawl  Star,MO,Valid,27/11/2007 08:12:13,21.0,51.478,0.821
CDT,CALLIONYMUS LYRA,Common dragonet,1,L,Solent Bass Trawl  Port,MO,Valid,27/11/2007 07:20:13,22.5,51.507,0.855
CDT,CALLIONYMUS LYRA,Common dragonet,3,K,Solent Bass Trawl  Port,MO,Valid,27/11/2007 09:46:13,22.5,51.506,0.754
CDT,CALLIONYMUS LYRA,Common dragonet,4,P,Solent Bass Trawl  Port,MO,Valid,27/11/2007 10:44:13,14.0,51.516,0.695
CDT,CALLIONYMUS LYRA,Common dragonet,8,MA,Solent Bass Trawl  Port,MO,Valid,28/11/2007 07:26:13,20.4,51.408,0.692
CDT,CALLIONYMUS LYRA,Common dragonet,8,MA,Solent Bass Trawl  Star,MO,Valid,28/11/2007 07:26:13,20.4,51.408,0.692
CDT,CALLIONYMUS LYRA,Common dragonet,9,HA,Solent Bass Trawl  Port,MO,Valid,28/11/2007 09:00:13,8.8,51.409,0.649
CDT,CALLIONYMUS LYRA,Common dragonet,14,J1,Solent Bass Trawl  Port,MO,Valid,28/11/2007 14:35:13,31.8,51.513,0.667
CDT,CALLIONYMUS LYRA,Common dragonet,16,F,Solent Bass Trawl  Star,MO,Valid,29/11/2007 09:00:13,20.0,51.461,0.300
COD,GADUS MORHUA,Atlantic cod,1,L,Solent Bass Trawl  Port,MO,Valid,27/11/2007 07:20:13,22.5,51.507,0.855
COD,GADUS MORHUA,Atlantic cod,1,L,Solent Bass Trawl  Star,MO,Valid,27/11/2007 07:20:13,22.5,51.507,0.855
COD,GADUS MORHUA,Atlantic cod,2,O,Solent Bass Trawl  Star,MO,Valid,27/11/2007 08:12:13,21.0,51.478,0.821
COD,GADUS MORHUA,Atlantic cod,3,K,Solent Bass Trawl  Port,MO,Valid,27/11/2007 09:46:13,22.5,51.506,0.754
COD,GADUS MORHUA,Atlantic cod,3,K,Solent Bass Trawl  Star,MO,Valid,27/11/2007 09:46:13,22.5,51.506,0.754
COD,GADUS MORHUA,Atlantic cod,4,P,Solent Bass Trawl  Port,MO,Valid,27/11/2007 10:44:13,14.0,51.516,0.695
COD,GADUS MORHUA,Atlantic cod,16,F,Solent Bass Trawl  Star,MO,Valid,29/11/2007 09:00:13,20.0,51.461,0.300
COD,GADUS MORHUA,Atlantic cod,13,N,Solent Bass Trawl  Port,MO,Valid,28/11/2007 13:26:13,14.2,51.451,0.735
COD,GADUS MORHUA,Atlantic cod,13,N,Solent Bass Trawl  Star,MO,Valid,28/11/2007 13:26:13,14.2,51.451,0.735
COD,GADUS MORHUA,Atlantic cod,14,J1,Solent Bass Trawl  Port,MO,Valid,28/11/2007 14:35:13,31.8,51.513,0.667
COD,GADUS MORHUA,Atlantic cod,15,E1,Solent Bass Trawl  Port,MO,Valid,29/11/2007 08:18:13,15.6,51.470,0.320
COD,GADUS MORHUA,Atlantic cod,15,E1,Solent Bass Trawl  Star,MO,Valid,29/11/2007 08:18:13,15.6,51.470,0.320
COD,GADUS MORHUA,Atlantic cod,16,F,Solent Bass Trawl  Port,MO,Valid,29/11/2007 09:00:13,20.0,51.461,0.300
COD,GADUS MORHUA,Atlantic cod,4,P,Solent Bass Trawl  Star,MO,Valid,27/11/2007 10:44:13,14.0,51.516,0.695
COD,GADUS MORHUA,Atlantic cod,5,M,Solent Bass Trawl  Port,MO,Valid,27/11/2007 12:27:13,16.8,51.488,0.682
COD,GADUS MORHUA,Atlantic cod,5,M,Solent Bass Trawl  Star,MO,Valid,27/11/2007 12:27:13,16.8,51.488,0.682
COD,GADUS MORHUA,Atlantic cod,6,A,Solent Bass Trawl  Port,MO,Valid,27/11/2007 13:28:13,14.5,51.497,0.571
COD,GADUS MORHUA,Atlantic cod,7,J,Solent Bass Trawl  Port,MO,Valid,27/11/2007 14:23:13,26.0,51.515,0.660
COD,GADUS MORHUA,Atlantic cod,7,J,Solent Bass Trawl  Star,MO,Valid,27/11/2007 14:23:13,26.0,51.515,0.660
DAB,LIMANDA LIMANDA,Dab,1,L,Solent Bass Trawl  Port,MO,Valid,27/11/2007 07:20:13,22.5,51.507,0.855
DAB,LIMANDA LIMANDA,Dab,1,L,Solent Bass Trawl  Star,MO,Valid,27/11/2007 07:20:13,22.5,51.507,0.855
DAB,LIMANDA LIMANDA,Dab,2,O,Solent Bass Trawl  Port,MO,Valid,27/11/2007 08:12:13,21.0,51.478,0.821
DAB,LIMANDA LIMANDA,Dab,2,O,Solent Bass Trawl  Star,MO,Valid,27/11/2007 08:12:13,21.0,51.478,0.821
DAB,LIMANDA LIMANDA,Dab,3,K,Solent Bass Trawl  Port,MO,Valid,27/11/2007 09:46:13,22.5,51.506,0.754
DAB,LIMANDA LIMANDA,Dab,3,K,Solent Bass Trawl  Star,MO,Valid,27/11/2007 09:46:13,22.5,51.506,0.754
DAB,LIMANDA LIMANDA,Dab,13,N,Solent Bass Trawl  Port,MO,Valid,28/11/2007 13:26:13,14.2,51.451,0.735
DAB,LIMANDA LIMANDA,Dab,13,N,Solent Bass Trawl  Star,MO,Valid,28/11/2007 13:26:13,14.2,51.451,0.735
DAB,LIMANDA LIMANDA,Dab,14,J1,Solent Bass Trawl  Port,MO,Valid,28/11/2007 14:35:13,31.8,51.513,0.667
DAB,LIMANDA LIMANDA,Dab,14,J1,Solent Bass Trawl  Star,MO,Valid,28/11/2007 14:35:13,31.8,51.513,0.667
DAB,LIMANDA LIMANDA,Dab,15,E1,Solent Bass Trawl  Star,MO,Valid,29/11/2007 08:18:13,15.6,51.470,0.320
DAB,LIMANDA LIMANDA,Dab,16,F,Solent Bass Trawl  Star,MO,Valid,29/11/2007 09:00:13,20.0,51.461,0.300
DAB,LIMANDA LIMANDA,Dab,7,J,Solent Bass Trawl  Port,MO,Valid,27/11/2007 14:23:13,26.0,51.515,0.660
DAB,LIMANDA LIMANDA,Dab,7,J,Solent Bass Trawl  Star,MO,Valid,27/11/2007 14:23:13,26.0,51.515,0.660
DAB,LIMANDA LIMANDA,Dab,8,MA,Solent Bass Trawl  Port,MO,Valid,28/11/2007 07:26:13,20.4,51.408,0.692
DAB,LIMANDA LIMANDA,Dab,9,HA,Solent Bass Trawl  Port,MO,Valid,28/11/2007 09:00:13,8.8,51.409,0.649
DAB,LIMANDA LIMANDA,Dab,12,X,Solent Bass Trawl  Port,MO,Valid,28/11/2007 12:31:13,4.9,51.436,0.718
DAB,LIMANDA LIMANDA,Dab,12,X,Solent Bass Trawl  Star,MO,Valid,28/11/2007 12:31:13,4.9,51.436,0.718
DAB,LIMANDA LIMANDA,Dab,4,P,Solent Bass Trawl  Port,MO,Valid,27/11/2007 10:44:13,14.0,51.516,0.695
DAB,LIMANDA LIMANDA,Dab,4,P,Solent Bass Trawl  Star,MO,Valid,27/11/2007 10:44:13,14.0,51.516,0.695
DAB,LIMANDA LIMANDA,Dab,5,M,Solent Bass Trawl  Port,MO,Valid,27/11/2007 12:27:13,16.8,51.488,0.682
DAB,LIMANDA LIMANDA,Dab,5,M,Solent Bass Trawl  Star,MO,Valid,27/11/2007 12:27:13,16.8,51.488,0.682
DAB,LIMANDA LIMANDA,Dab,6,A,Solent Bass Trawl  Port,MO,Valid,27/11/2007 13:28:13,14.5,51.497,0.571
DAB,LIMANDA LIMANDA,Dab,6,A,Solent Bass Trawl  Star,MO,Valid,27/11/2007 13:28:13,14.5,51.497,0.571
ELE,ANGUILLA ANGUILLA,European eel,17,G,Solent Bass Trawl  Port,MO,Valid,29/11/2007 10:41:13,17.8,51.512,0.148
ELE,ANGUILLA ANGUILLA,European eel,17,G,Solent Bass Trawl  Star,MO,Valid,29/11/2007 10:41:13,17.8,51.512,0.148
ELE,ANGUILLA ANGUILLA,European eel,15,E1,Solent Bass Trawl  Port,MO,Valid,29/11/2007 08:18:13,15.6,51.470,0.320
ELE,ANGUILLA ANGUILLA,European eel,15,E1,Solent Bass Trawl  Star,MO,Valid,29/11/2007 08:18:13,15.6,51.470,0.320
ELE,ANGUILLA ANGUILLA,European eel,16,F,Solent Bass Trawl  Port,MO,Valid,29/11/2007 09:00:13,20.0,51.461,0.300
ELE,ANGUILLA ANGUILLA,European eel,16,F,Solent Bass Trawl  Star,MO,Valid,29/11/2007 09:00:13,20.0,51.461,0.300
ERS,ERIOCHEIR SINENSIS,Mitten crab,17,G,Solent Bass Trawl  Port,CO,Valid,29/11/2007 10:41:13,17.8,51.512,0.148
ERS,ERIOCHEIR SINENSIS,Mitten crab,17,G,Solent Bass Trawl  Star,CO,Valid,29/11/2007 10:41:13,17.8,51.512,0.148
ERS,ERIOCHEIR SINENSIS,Mitten crab,18,G1,Solent Bass Trawl  Port,CO,Valid,29/11/2007 11:21:13,15.0,51.510,0.143
ERS,ERIOCHEIR SINENSIS,Mitten crab,18,G1,Solent Bass Trawl  Star,CO,Valid,29/11/2007 11:21:13,15.0,51.510,0.143
ESB,DICENTRARCHUS LABRAX,European seabass,1,L,Solent Bass Trawl  Port,MO,Valid,27/11/2007 07:20:13,22.5,51.507,0.855
ESB,DICENTRARCHUS LABRAX,European seabass,1,L,Solent Bass Trawl  Star,MO,Valid,27/11/2007 07:20:13,22.5,51.507,0.855
ESB,DICENTRARCHUS LABRAX,European seabass,2,O,Solent Bass Trawl  Port,MO,Valid,27/11/2007 08:12:13,21.0,51.478,0.821
ESB,DICENTRARCHUS LABRAX,European seabass,2,O,Solent Bass Trawl  Star,MO,Valid,27/11/2007 08:12:13,21.0,51.478,0.821
ESB,DICENTRARCHUS LABRAX,European seabass,3,K,Solent Bass Trawl  Port,MO,Valid,27/11/2007 09:46:13,22.5,51.506,0.754
ESB,DICENTRARCHUS LABRAX,European seabass,3,K,Solent Bass Trawl  Star,MO,Valid,27/11/2007 09:46:13,22.5,51.506,0.754
ESB,DICENTRARCHUS LABRAX,European seabass,16,F,Solent Bass Trawl  Port,MO,Valid,29/11/2007 09:00:13,20.0,51.461,0.300
ESB,DICENTRARCHUS LABRAX,European seabass,16,F,Solent Bass Trawl  Star,MO,Valid,29/11/2007 09:00:13,20.0,51.461,0.300
ESB,DICENTRARCHUS LABRAX,European seabass,17,G,Solent Bass Trawl  Port,MO,Valid,29/11/2007 10:41:13,17.8,51.512,0.148
ESB,DICENTRARCHUS LABRAX,European seabass,17,G,Solent Bass Trawl  Star,MO,Valid,29/11/2007 10:41:13,17.8,51.512,0.148
ESB,DICENTRARCHUS LABRAX,European seabass,18,G1,Solent Bass Trawl  Port,MO,Valid,29/11/2007 11:21:13,15.0,51.510,0.143
ESB,DICENTRARCHUS LABRAX,European seabass,18,G1,Solent Bass Trawl  Star,MO,Valid,29/11/2007 11:21:13,15.0,51.510,0.143
ESB,DICENTRARCHUS LABRAX,European seabass,13,N,Solent Bass Trawl  Port,MO,Valid,28/11/2007 13:26:13,14.2,51.451,0.735
ESB,DICENTRARCHUS LABRAX,European seabass,13,N,Solent Bass Trawl  Star,MO,Valid,28/11/2007 13:26:13,14.2,51.451,0.735
ESB,DICENTRARCHUS LABRAX,European seabass,14,J1,Solent Bass Trawl  Port,MO,Valid,28/11/2007 14:35:13,31.8,51.513,0.667
ESB,DICENTRARCHUS LABRAX,European seabass,14,J1,Solent Bass Trawl  Star,MO,Valid,28/11/2007 14:35:13,31.8,51.513,0.667
ESB,DICENTRARCHUS LABRAX,European seabass,15,E1,Solent Bass Trawl  Port,MO,Valid,29/11/2007 08:18:13,15.6,51.470,0.320
ESB,DICENTRARCHUS LABRAX,European seabass,15,E1,Solent Bass Trawl  Star,MO,Valid,29/11/2007 08:18:13,15.6,51.470,0.320
ESB,DICENTRARCHUS LABRAX,European seabass,10,W,Solent Bass Trawl  Port,MO,Valid,28/11/2007 09:58:13,12.7,51.422,0.649
ESB,DICENTRARCHUS LABRAX,European seabass,10,W,Solent Bass Trawl  Star,MO,Valid,28/11/2007 09:58:13,12.7,51.422,0.649
ESB,DICENTRARCHUS LABRAX,European seabass,11,V,Solent Bass Trawl  Port,MO,Valid,28/11/2007 11:00:13,11.0,51.428,0.624
ESB,DICENTRARCHUS LABRAX,European seabass,11,V,Solent Bass Trawl  Star,MO,Valid,28/11/2007 11:00:13,11.0,51.428,0.624
ESB,DICENTRARCHUS LABRAX,European seabass,12,X,Solent Bass Trawl  Port,MO,Valid,28/11/2007 12:31:13,4.9,51.436,0.718
ESB,DICENTRARCHUS LABRAX,European seabass,12,X,Solent Bass Trawl  Star,MO,Valid,28/11/2007 12:31:13,4.9,51.436,0.718
ESB,DICENTRARCHUS LABRAX,European seabass,7,J,Solent Bass Trawl  Port,MO,Valid,27/11/2007 14:23:13,26.0,51.515,0.660
ESB,DICENTRARCHUS LABRAX,European seabass,7,J,Solent Bass Trawl  Star,MO,Valid,27/11/2007 14:23:13,26.0,51.515,0.660
ESB,DICENTRARCHUS LABRAX,European seabass,8,MA,Solent Bass Trawl  Port,MO,Valid,28/11/2007 07:26:13,20.4,51.408,0.692
ESB,DICENTRARCHUS LABRAX,European seabass,8,MA,Solent Bass Trawl  Star,MO,Valid,28/11/2007 07:26:13,20.4,51.408,0.692
ESB,DICENTRARCHUS LABRAX,European seabass,9,HA,Solent Bass Trawl  Port,MO,Valid,28/11/2007 09:00:13,8.8,51.409,0.649
ESB,DICENTRARCHUS LABRAX,European seabass,9,HA,Solent Bass Trawl  Star,MO,Valid,28/11/2007 09:00:13,8.8,51.409,0.649
ESB,DICENTRARCHUS LABRAX,European seabass,4,P,Solent Bass Trawl  Port,MO,Valid,27/11/2007 10:44:13,14.0,51.516,0.695
ESB,DICENTRARCHUS LABRAX,European seabass,4,P,Solent Bass Trawl  Star,MO,Valid,27/11/2007 10:44:13,14.0,51.516,0.695
ESB,DICENTRARCHUS LABRAX,European seabass,5,M,Solent Bass Trawl  Port,MO,Valid,27/11/2007 12:27:13,16.8,51.488,0.682
ESB,DICENTRARCHUS LABRAX,European seabass,5,M,Solent Bass Trawl  Star,MO,Valid,27/11/2007 12:27:13,16.8,51.488,0.682
ESB,DICENTRARCHUS LABRAX,European seabass,6,A,Solent Bass Trawl  Port,MO,Valid,27/11/2007 13:28:13,14.5,51.497,0.571
ESB,DICENTRARCHUS LABRAX,European seabass,6,A,Solent Bass Trawl  Star,MO,Valid,27/11/2007 13:28:13,14.5,51.497,0.571
FLE,PLATICHTHYS FLESUS,Flounder (european),1,L,Solent Bass Trawl  Port,MO,Valid,27/11/2007 07:20:13,22.5,51.507,0.855
FLE,PLATICHTHYS FLESUS,Flounder (european),1,L,Solent Bass Trawl  Star,MO,Valid,27/11/2007 07:20:13,22.5,51.507,0.855
FLE,PLATICHTHYS FLESUS,Flounder (european),3,K,Solent Bass Trawl  Port,MO,Valid,27/11/2007 09:46:13,22.5,51.506,0.754
FLE,PLATICHTHYS FLESUS,Flounder (european),3,K,Solent Bass Trawl  Star,MO,Valid,27/11/2007 09:46:13,22.5,51.506,0.754
FLE,PLATICHTHYS FLESUS,Flounder (european),4,P,Solent Bass Trawl  Port,MO,Valid,27/11/2007 10:44:13,14.0,51.516,0.695
FLE,PLATICHTHYS FLESUS,Flounder (european),4,P,Solent Bass Trawl  Star,MO,Valid,27/11/2007 10:44:13,14.0,51.516,0.695
FLE,PLATICHTHYS FLESUS,Flounder (european),16,F,Solent Bass Trawl  Port,MO,Valid,29/11/2007 09:00:13,20.0,51.461,0.300
FLE,PLATICHTHYS FLESUS,Flounder (european),16,F,Solent Bass Trawl  Star,MO,Valid,29/11/2007 09:00:13,20.0,51.461,0.300
FLE,PLATICHTHYS FLESUS,Flounder (european),17,G,Solent Bass Trawl  Port,MO,Valid,29/11/2007 10:41:13,17.8,51.512,0.148
FLE,PLATICHTHYS FLESUS,Flounder (european),17,G,Solent Bass Trawl  Star,MO,Valid,29/11/2007 10:41:13,17.8,51.512,0.148
FLE,PLATICHTHYS FLESUS,Flounder (european),18,G1,Solent Bass Trawl  Port,MO,Valid,29/11/2007 11:21:13,15.0,51.510,0.143
FLE,PLATICHTHYS FLESUS,Flounder (european),18,G1,Solent Bass Trawl  Star,MO,Valid,29/11/2007 11:21:13,15.0,51.510,0.143
FLE,PLATICHTHYS FLESUS,Flounder (european),12,X,Solent Bass Trawl  Star,MO,Valid,28/11/2007 12:31:13,4.9,51.436,0.718
FLE,PLATICHTHYS FLESUS,Flounder (european),13,N,Solent Bass Trawl  Port,MO,Valid,28/11/2007 13:26:13,14.2,51.451,0.735
FLE,PLATICHTHYS FLESUS,Flounder (european),14,J1,Solent Bass Trawl  Port,MO,Valid,28/11/2007 14:35:13,31.8,51.513,0.667
FLE,PLATICHTHYS FLESUS,Flounder (european),14,J1,Solent Bass Trawl  Star,MO,Valid,28/11/2007 14:35:13,31.8,51.513,0.667
FLE,PLATICHTHYS FLESUS,Flounder (european),15,E1,Solent Bass Trawl  Port,MO,Valid,29/11/2007 08:18:13,15.6,51.470,0.320
FLE,PLATICHTHYS FLESUS,Flounder (european),15,E1,Solent Bass Trawl  Star,MO,Valid,29/11/2007 08:18:13,15.6,51.470,0.320
FLE,PLATICHTHYS FLESUS,Flounder (european),9,HA,Solent Bass Trawl  Port,MO,Valid,28/11/2007 09:00:13,8.8,51.409,0.649
FLE,PLATICHTHYS FLESUS,Flounder (european),9,HA,Solent Bass Trawl  Star,MO,Valid,28/11/2007 09:00:13,8.8,51.409,0.649
FLE,PLATICHTHYS FLESUS,Flounder (european),10,W,Solent Bass Trawl  Port,MO,Valid,28/11/2007 09:58:13,12.7,51.422,0.649
FLE,PLATICHTHYS FLESUS,Flounder (european),11,V,Solent Bass Trawl  Port,MO,Valid,28/11/2007 11:00:13,11.0,51.428,0.624
FLE,PLATICHTHYS FLESUS,Flounder (european),11,V,Solent Bass Trawl  Star,MO,Valid,28/11/2007 11:00:13,11.0,51.428,0.624
FLE,PLATICHTHYS FLESUS,Flounder (european),12,X,Solent Bass Trawl  Port,MO,Valid,28/11/2007 12:31:13,4.9,51.436,0.718
FLE,PLATICHTHYS FLESUS,Flounder (european),5,M,Solent Bass Trawl  Star,MO,Valid,27/11/2007 12:27:13,16.8,51.488,0.682
FLE,PLATICHTHYS FLESUS,Flounder (european),6,A,Solent Bass Trawl  Port,MO,Valid,27/11/2007 13:28:13,14.5,51.497,0.571
FLE,PLATICHTHYS FLESUS,Flounder (european),6,A,Solent Bass Trawl  Star,MO,Valid,27/11/2007 13:28:13,14.5,51.497,0.571
FLE,PLATICHTHYS FLESUS,Flounder (european),7,J,Solent Bass Trawl  Port,MO,Valid,27/11/2007 14:23:13,26.0,51.515,0.660
FLE,PLATICHTHYS FLESUS,Flounder (european),7,J,Solent Bass Trawl  Star,MO,Valid,27/11/2007 14:23:13,26.0,51.515,0.660
FLE,PLATICHTHYS FLESUS,Flounder (european),8,MA,Solent Bass Trawl  Port,MO,Valid,28/11/2007 07:26:13,20.4,51.408,0.692
FVR,CILIATA MUSTELA,Five-bearded rockling,1,L,Solent Bass Trawl  Port,MO,Valid,27/11/2007 07:20:13,22.5,51.507,0.855
FVR,CILIATA MUSTELA,Five-bearded rockling,1,L,Solent Bass Trawl  Star,MO,Valid,27/11/2007 07:20:13,22.5,51.507,0.855
FVR,CILIATA MUSTELA,Five-bearded rockling,3,K,Solent Bass Trawl  Port,MO,Valid,27/11/2007 09:46:13,22.5,51.506,0.754
FVR,CILIATA MUSTELA,Five-bearded rockling,6,A,Solent Bass Trawl  Star,MO,Valid,27/11/2007 13:28:13,14.5,51.497,0.571
FVR,CILIATA MUSTELA,Five-bearded rockling,7,J,Solent Bass Trawl  Port,MO,Valid,27/11/2007 14:23:13,26.0,51.515,0.660
FVR,CILIATA MUSTELA,Five-bearded rockling,16,F,Solent Bass Trawl  Port,MO,Valid,29/11/2007 09:00:13,20.0,51.461,0.300
FVR,CILIATA MUSTELA,Five-bearded rockling,16,F,Solent Bass Trawl  Star,MO,Valid,29/11/2007 09:00:13,20.0,51.461,0.300
FVR,CILIATA MUSTELA,Five-bearded rockling,7,J,Solent Bass Trawl  Star,MO,Valid,27/11/2007 14:23:13,26.0,51.515,0.660
FVR,CILIATA MUSTELA,Five-bearded rockling,8,MA,Solent Bass Trawl  Port,MO,Valid,28/11/2007 07:26:13,20.4,51.408,0.692
FVR,CILIATA MUSTELA,Five-bearded rockling,9,HA,Solent Bass Trawl  Port,MO,Valid,28/11/2007 09:00:13,8.8,51.409,0.649
FVR,CILIATA MUSTELA,Five-bearded rockling,13,N,Solent Bass Trawl  Port,MO,Valid,28/11/2007 13:26:13,14.2,51.451,0.735
FVR,CILIATA MUSTELA,Five-bearded rockling,15,E1,Solent Bass Trawl  Port,MO,Valid,29/11/2007 08:18:13,15.6,51.470,0.320
FVR,CILIATA MUSTELA,Five-bearded rockling,15,E1,Solent Bass Trawl  Star,MO,Valid,29/11/2007 08:18:13,15.6,51.470,0.320
GPF,SYNGNATHUS ACUS,Great pipefish,1,L,Solent Bass Trawl  Port,MO,Valid,27/11/2007 07:20:13,22.5,51.507,0.855
GPF,SYNGNATHUS ACUS,Great pipefish,3,K,Solent Bass Trawl  Port,MO,Valid,27/11/2007 09:46:13,22.5,51.506,0.754
GPF,SYNGNATHUS ACUS,Great pipefish,6,A,Solent Bass Trawl  Port,MO,Valid,27/11/2007 13:28:13,14.5,51.497,0.571
GPF,SYNGNATHUS ACUS,Great pipefish,6,A,Solent Bass Trawl  Star,MO,Valid,27/11/2007 13:28:13,14.5,51.497,0.571
GPF,SYNGNATHUS ACUS,Great pipefish,7,J,Solent Bass Trawl  Port,MO,Valid,27/11/2007 14:23:13,26.0,51.515,0.660
GPF,SYNGNATHUS ACUS,Great pipefish,14,J1,Solent Bass Trawl  Star,MO,Valid,28/11/2007 14:35:13,31.8,51.513,0.667
GUG,EUTRIGLA (CHELIDONICTHYS) GURNARDUS,Grey gurnard,5,M,Solent Bass Trawl  Port,MO,Valid,27/11/2007 12:27:13,16.8,51.488,0.682
HER,CLUPEA HARENGUS,Herring,1,L,Solent Bass Trawl  Port,MO,Valid,27/11/2007 07:20:13,22.5,51.507,0.855
HER,CLUPEA HARENGUS,Herring,1,L,Solent Bass Trawl  Star,MO,Valid,27/11/2007 07:20:13,22.5,51.507,0.855
HER,CLUPEA HARENGUS,Herring,3,K,Solent Bass Trawl  Port,MO,Valid,27/11/2007 09:46:13,22.5,51.506,0.754
HER,CLUPEA HARENGUS,Herring,3,K,Solent Bass Trawl  Star,MO,Valid,27/11/2007 09:46:13,22.5,51.506,0.754
HER,CLUPEA HARENGUS,Herring,4,P,Solent Bass Trawl  Star,MO,Valid,27/11/2007 10:44:13,14.0,51.516,0.695
HER,CLUPEA HARENGUS,Herring,5,M,Solent Bass Trawl  Port,MO,Valid,27/11/2007 12:27:13,16.8,51.488,0.682
HER,CLUPEA HARENGUS,Herring,14,J1,Solent Bass Trawl  Star,MO,Valid,28/11/2007 14:35:13,31.8,51.513,0.667
HER,CLUPEA HARENGUS,Herring,15,E1,Solent Bass Trawl  Port,MO,Valid,29/11/2007 08:18:13,15.6,51.470,0.320
HER,CLUPEA HARENGUS,Herring,16,F,Solent Bass Trawl  Port,MO,Valid,29/11/2007 09:00:13,20.0,51.461,0.300
HER,CLUPEA HARENGUS,Herring,16,F,Solent Bass Trawl  Star,MO,Valid,29/11/2007 09:00:13,20.0,51.461,0.300
HER,CLUPEA HARENGUS,Herring,18,G1,Solent Bass Trawl  Star,MO,Valid,29/11/2007 11:21:13,15.0,51.510,0.143
HER,CLUPEA HARENGUS,Herring,10,W,Solent Bass Trawl  Port,MO,Valid,28/11/2007 09:58:13,12.7,51.422,0.649
HER,CLUPEA HARENGUS,Herring,10,W,Solent Bass Trawl  Star,MO,Valid,28/11/2007 09:58:13,12.7,51.422,0.649
HER,CLUPEA HARENGUS,Herring,11,V,Solent Bass Trawl  Port,MO,Valid,28/11/2007 11:00:13,11.0,51.428,0.624
HER,CLUPEA HARENGUS,Herring,12,X,Solent Bass Trawl  Port,MO,Valid,28/11/2007 12:31:13,4.9,51.436,0.718
HER,CLUPEA HARENGUS,Herring,12,X,Solent Bass Trawl  Star,MO,Valid,28/11/2007 12:31:13,4.9,51.436,0.718
HER,CLUPEA HARENGUS,Herring,13,N,Solent Bass Trawl  Star,MO,Valid,28/11/2007 13:26:13,14.2,51.451,0.735
HER,CLUPEA HARENGUS,Herring,6,A,Solent Bass Trawl  Port,MO,Valid,27/11/2007 13:28:13,14.5,51.497,0.571
HER,CLUPEA HARENGUS,Herring,7,J,Solent Bass Trawl  Star,MO,Valid,27/11/2007 14:23:13,26.0,51.515,0.660
HER,CLUPEA HARENGUS,Herring,8,MA,Solent Bass Trawl  Port,MO,Valid,28/11/2007 07:26:13,20.4,51.408,0.692
HER,CLUPEA HARENGUS,Herring,8,MA,Solent Bass Trawl  Star,MO,Valid,28/11/2007 07:26:13,20.4,51.408,0.692
HER,CLUPEA HARENGUS,Herring,9,HA,Solent Bass Trawl  Port,MO,Valid,28/11/2007 09:00:13,8.8,51.409,0.649
HER,CLUPEA HARENGUS,Herring,9,HA,Solent Bass Trawl  Star,MO,Valid,28/11/2007 09:00:13,8.8,51.409,0.649
MGN,LIZA AURATA,Golden mullet,11,V,Solent Bass Trawl  Port,MO,Valid,28/11/2007 11:00:13,11.0,51.428,0.624
MTN,LIZA RAMADA,Thin lipped mullet,17,G,Solent Bass Trawl  Star,MO,Valid,29/11/2007 10:41:13,17.8,51.512,0.148
MTN,LIZA RAMADA,Thin lipped mullet,18,G1,Solent Bass Trawl  Star,MO,Valid,29/11/2007 11:21:13,15.0,51.510,0.143
MUR,MULLUS SURMULETUS,Red mullet,16,F,Solent Bass Trawl  Star,MO,Valid,29/11/2007 09:00:13,20.0,51.461,0.300
PLE,PLEURONECTES PLATESSA,European plaice,1,L,Solent Bass Trawl  Port,MO,Valid,27/11/2007 07:20:13,22.5,51.507,0.855
PLE,PLEURONECTES PLATESSA,European plaice,1,L,Solent Bass Trawl  Star,MO,Valid,27/11/2007 07:20:13,22.5,51.507,0.855
PLE,PLEURONECTES PLATESSA,European plaice,3,K,Solent Bass Trawl  Port,MO,Valid,27/11/2007 09:46:13,22.5,51.506,0.754
PLE,PLEURONECTES PLATESSA,European plaice,3,K,Solent Bass Trawl  Star,MO,Valid,27/11/2007 09:46:13,22.5,51.506,0.754
PLE,PLEURONECTES PLATESSA,European plaice,4,P,Solent Bass Trawl  Port,MO,Valid,27/11/2007 10:44:13,14.0,51.516,0.695
PLE,PLEURONECTES PLATESSA,European plaice,4,P,Solent Bass Trawl  Star,MO,Valid,27/11/2007 10:44:13,14.0,51.516,0.695
PLE,PLEURONECTES PLATESSA,European plaice,12,X,Solent Bass Trawl  Star,MO,Valid,28/11/2007 12:31:13,4.9,51.436,0.718
PLE,PLEURONECTES PLATESSA,European plaice,13,N,Solent Bass Trawl  Port,MO,Valid,28/11/2007 13:26:13,14.2,51.451,0.735
PLE,PLEURONECTES PLATESSA,European plaice,13,N,Solent Bass Trawl  Star,MO,Valid,28/11/2007 13:26:13,14.2,51.451,0.735
PLE,PLEURONECTES PLATESSA,European plaice,14,J1,Solent Bass Trawl  Port,MO,Valid,28/11/2007 14:35:13,31.8,51.513,0.667
PLE,PLEURONECTES PLATESSA,European plaice,14,J1,Solent Bass Trawl  Star,MO,Valid,28/11/2007 14:35:13,31.8,51.513,0.667
PLE,PLEURONECTES PLATESSA,European plaice,5,M,Solent Bass Trawl  Port,MO,Valid,27/11/2007 12:27:13,16.8,51.488,0.682
PLE,PLEURONECTES PLATESSA,European plaice,5,M,Solent Bass Trawl  Star,MO,Valid,27/11/2007 12:27:13,16.8,51.488,0.682
PLE,PLEURONECTES PLATESSA,European plaice,6,A,Solent Bass Trawl  Port,MO,Valid,27/11/2007 13:28:13,14.5,51.497,0.571
PLE,PLEURONECTES PLATESSA,European plaice,6,A,Solent Bass Trawl  Star,MO,Valid,27/11/2007 13:28:13,14.5,51.497,0.571
PLE,PLEURONECTES PLATESSA,European plaice,7,J,Solent Bass Trawl  Star,MO,Valid,27/11/2007 14:23:13,26.0,51.515,0.660
PLE,PLEURONECTES PLATESSA,European plaice,12,X,Solent Bass Trawl  Port,MO,Valid,28/11/2007 12:31:13,4.9,51.436,0.718
POD,TRISOPTERUS MINUTUS,Poor cod,15,E1,Solent Bass Trawl  Star,MO,Valid,29/11/2007 08:18:13,15.6,51.470,0.320
POG,AGONUS CATAPHRACTUS,Pogge (armed bullhead),1,L,Solent Bass Trawl  Port,MO,Valid,27/11/2007 07:20:13,22.5,51.507,0.855
POG,AGONUS CATAPHRACTUS,Pogge (armed bullhead),2,O,Solent Bass Trawl  Port,MO,Valid,27/11/2007 08:12:13,21.0,51.478,0.821
POG,AGONUS CATAPHRACTUS,Pogge (armed bullhead),2,O,Solent Bass Trawl  Star,MO,Valid,27/11/2007 08:12:13,21.0,51.478,0.821
POG,AGONUS CATAPHRACTUS,Pogge (armed bullhead),3,K,Solent Bass Trawl  Port,MO,Valid,27/11/2007 09:46:13,22.5,51.506,0.754
POG,AGONUS CATAPHRACTUS,Pogge (armed bullhead),4,P,Solent Bass Trawl  Port,MO,Valid,27/11/2007 10:44:13,14.0,51.516,0.695
POG,AGONUS CATAPHRACTUS,Pogge (armed bullhead),4,P,Solent Bass Trawl  Star,MO,Valid,27/11/2007 10:44:13,14.0,51.516,0.695
POG,AGONUS CATAPHRACTUS,Pogge (armed bullhead),16,F,Solent Bass Trawl  Port,MO,Valid,29/11/2007 09:00:13,20.0,51.461,0.300
POG,AGONUS CATAPHRACTUS,Pogge (armed bullhead),16,F,Solent Bass Trawl  Star,MO,Valid,29/11/2007 09:00:13,20.0,51.461,0.300
POG,AGONUS CATAPHRACTUS,Pogge (armed bullhead),9,HA,Solent Bass Trawl  Port,MO,Valid,28/11/2007 09:00:13,8.8,51.409,0.649
POG,AGONUS CATAPHRACTUS,Pogge (armed bullhead),13,N,Solent Bass Trawl  Port,MO,Valid,28/11/2007 13:26:13,14.2,51.451,0.735
POG,AGONUS CATAPHRACTUS,Pogge (armed bullhead),14,J1,Solent Bass Trawl  Port,MO,Valid,28/11/2007 14:35:13,31.8,51.513,0.667
POG,AGONUS CATAPHRACTUS,Pogge (armed bullhead),14,J1,Solent Bass Trawl  Star,MO,Valid,28/11/2007 14:35:13,31.8,51.513,0.667
POG,AGONUS CATAPHRACTUS,Pogge (armed bullhead),15,E1,Solent Bass Trawl  Port,MO,Valid,29/11/2007 08:18:13,15.6,51.470,0.320
POG,AGONUS CATAPHRACTUS,Pogge (armed bullhead),15,E1,Solent Bass Trawl  Star,MO,Valid,29/11/2007 08:18:13,15.6,51.470,0.320
POG,AGONUS CATAPHRACTUS,Pogge (armed bullhead),5,M,Solent Bass Trawl  Port,MO,Valid,27/11/2007 12:27:13,16.8,51.488,0.682
POG,AGONUS CATAPHRACTUS,Pogge (armed bullhead),5,M,Solent Bass Trawl  Star,MO,Valid,27/11/2007 12:27:13,16.8,51.488,0.682
POG,AGONUS CATAPHRACTUS,Pogge (armed bullhead),6,A,Solent Bass Trawl  Port,MO,Valid,27/11/2007 13:28:13,14.5,51.497,0.571
POG,AGONUS CATAPHRACTUS,Pogge (armed bullhead),6,A,Solent Bass Trawl  Star,MO,Valid,27/11/2007 13:28:13,14.5,51.497,0.571
POG,AGONUS CATAPHRACTUS,Pogge (armed bullhead),7,J,Solent Bass Trawl  Port,MO,Valid,27/11/2007 14:23:13,26.0,51.515,0.660
POG,AGONUS CATAPHRACTUS,Pogge (armed bullhead),8,MA,Solent Bass Trawl  Star,MO,Valid,28/11/2007 07:26:13,20.4,51.408,0.692
POM,POMATOSCHISTUS SPP,Gobies,3,K,Solent Bass Trawl  Port,OB,Valid,27/11/2007 09:46:13,22.5,51.506,0.754
POM,POMATOSCHISTUS SPP,Gobies,3,K,Solent Bass Trawl  Star,OB,Valid,27/11/2007 09:46:13,22.5,51.506,0.754
POM,POMATOSCHISTUS SPP,Gobies,6,A,Solent Bass Trawl  Port,OB,Valid,27/11/2007 13:28:13,14.5,51.497,0.571
POM,POMATOSCHISTUS SPP,Gobies,7,J,Solent Bass Trawl  Star,OB,Valid,27/11/2007 14:23:13,26.0,51.515,0.660
POM,POMATOSCHISTUS SPP,Gobies,17,G,Solent Bass Trawl  Star,OB,Valid,29/11/2007 10:41:13,17.8,51.512,0.148
POM,POMATOSCHISTUS SPP,Gobies,18,G1,Solent Bass Trawl  Port,OB,Valid,29/11/2007 11:21:13,15.0,51.510,0.143
POM,POMATOSCHISTUS SPP,Gobies,18,G1,Solent Bass Trawl  Star,OB,Valid,29/11/2007 11:21:13,15.0,51.510,0.143
POM,POMATOSCHISTUS SPP,Gobies,12,X,Solent Bass Trawl  Star,OB,Valid,28/11/2007 12:31:13,4.9,51.436,0.718
POM,POMATOSCHISTUS SPP,Gobies,14,J1,Solent Bass Trawl  Port,OB,Valid,28/11/2007 14:35:13,31.8,51.513,0.667
POM,POMATOSCHISTUS SPP,Gobies,15,E1,Solent Bass Trawl  Star,OB,Valid,29/11/2007 08:18:13,15.6,51.470,0.320
POM,POMATOSCHISTUS SPP,Gobies,16,F,Solent Bass Trawl  Port,OB,Valid,29/11/2007 09:00:13,20.0,51.461,0.300
POM,POMATOSCHISTUS SPP,Gobies,16,F,Solent Bass Trawl  Star,OB,Valid,29/11/2007 09:00:13,20.0,51.461,0.300
POM,POMATOSCHISTUS SPP,Gobies,17,G,Solent Bass Trawl  Port,OB,Valid,29/11/2007 10:41:13,17.8,51.512,0.148
POM,POMATOSCHISTUS SPP,Gobies,8,MA,Solent Bass Trawl  Port,MO,Valid,28/11/2007 07:26:13,20.4,51.408,0.692
POM,POMATOSCHISTUS SPP,Gobies,9,HA,Solent Bass Trawl  Star,MO,Valid,28/11/2007 09:00:13,8.8,51.409,0.649
POM,POMATOSCHISTUS SPP,Gobies,10,W,Solent Bass Trawl  Port,OB,Valid,28/11/2007 09:58:13,12.7,51.422,0.649
POM,POMATOSCHISTUS SPP,Gobies,10,W,Solent Bass Trawl  Star,OB,Valid,28/11/2007 09:58:13,12.7,51.422,0.649
POM,POMATOSCHISTUS SPP,Gobies,12,X,Solent Bass Trawl  Port,OB,Valid,28/11/2007 12:31:13,4.9,51.436,0.718
RKG,GOBIUS PAGANELLUS,Rock goby,8,MA,Solent Bass Trawl  Port,MO,Valid,28/11/2007 07:26:13,20.4,51.408,0.692
SBG,SPARUS AURATUS,Gilt-head seabream,1,L,Solent Bass Trawl  Port,MO,Valid,27/11/2007 07:20:13,22.5,51.507,0.855
SIL,ATHERINIDAE,Sand-smelts,2,O,Solent Bass Trawl  Port,MO,Valid,27/11/2007 08:12:13,21.0,51.478,0.821
SIL,ATHERINIDAE,Sand-smelts,2,O,Solent Bass Trawl  Star,MO,Valid,27/11/2007 08:12:13,21.0,51.478,0.821
SIL,ATHERINIDAE,Sand-smelts,4,P,Solent Bass Trawl  Star,MO,Valid,27/11/2007 10:44:13,14.0,51.516,0.695
SIL,ATHERINIDAE,Sand-smelts,5,M,Solent Bass Trawl  Port,MO,Valid,27/11/2007 12:27:13,16.8,51.488,0.682
SIL,ATHERINIDAE,Sand-smelts,5,M,Solent Bass Trawl  Star,MO,Valid,27/11/2007 12:27:13,16.8,51.488,0.682
SIL,ATHERINIDAE,Sand-smelts,6,A,Solent Bass Trawl  Port,MO,Valid,27/11/2007 13:28:13,14.5,51.497,0.571
SIL,ATHERINIDAE,Sand-smelts,18,G1,Solent Bass Trawl  Port,MO,Valid,29/11/2007 11:21:13,15.0,51.510,0.143
SIL,ATHERINIDAE,Sand-smelts,18,G1,Solent Bass Trawl  Star,MO,Valid,29/11/2007 11:21:13,15.0,51.510,0.143
SIL,ATHERINIDAE,Sand-smelts,12,X,Solent Bass Trawl  Star,MO,Valid,28/11/2007 12:31:13,4.9,51.436,0.718
SIL,ATHERINIDAE,Sand-smelts,15,E1,Solent Bass Trawl  Port,MO,Valid,29/11/2007 08:18:13,15.6,51.470,0.320
SIL,ATHERINIDAE,Sand-smelts,15,E1,Solent Bass Trawl  Star,MO,Valid,29/11/2007 08:18:13,15.6,51.470,0.320
SIL,ATHERINIDAE,Sand-smelts,16,F,Solent Bass Trawl  Port,MO,Valid,29/11/2007 09:00:13,20.0,51.461,0.300
SIL,ATHERINIDAE,Sand-smelts,17,G,Solent Bass Trawl  Port,MO,Valid,29/11/2007 10:41:13,17.8,51.512,0.148
SIL,ATHERINIDAE,Sand-smelts,17,G,Solent Bass Trawl  Star,MO,Valid,29/11/2007 10:41:13,17.8,51.512,0.148
SIL,ATHERINIDAE,Sand-smelts,6,A,Solent Bass Trawl  Star,MO,Valid,27/11/2007 13:28:13,14.5,51.497,0.571
SIL,ATHERINIDAE,Sand-smelts,7,J,Solent Bass Trawl  Star,MO,Valid,27/11/2007 14:23:13,26.0,51.515,0.660
SIL,ATHERINIDAE,Sand-smelts,8,MA,Solent Bass Trawl  Star,MO,Valid,28/11/2007 07:26:13,20.4,51.408,0.692
SIL,ATHERINIDAE,Sand-smelts,9,HA,Solent Bass Trawl  Port,MO,Valid,28/11/2007 09:00:13,8.8,51.409,0.649
SIL,ATHERINIDAE,Sand-smelts,9,HA,Solent Bass Trawl  Star,MO,Valid,28/11/2007 09:00:13,8.8,51.409,0.649
SIL,ATHERINIDAE,Sand-smelts,12,X,Solent Bass Trawl  Port,MO,Valid,28/11/2007 12:31:13,4.9,51.436,0.718
SKP,ENTELURUS AEQUOREUS,Snake pipefish,1,L,Solent Bass Trawl  Star,MO,Valid,27/11/2007 07:20:13,22.5,51.507,0.855
SKP,ENTELURUS AEQUOREUS,Snake pipefish,2,O,Solent Bass Trawl  Port,MO,Valid,27/11/2007 08:12:13,21.0,51.478,0.821
SKP,ENTELURUS AEQUOREUS,Snake pipefish,2,O,Solent Bass Trawl  Star,MO,Valid,27/11/2007 08:12:13,21.0,51.478,0.821
SKP,ENTELURUS AEQUOREUS,Snake pipefish,3,K,Solent Bass Trawl  Port,MO,Valid,27/11/2007 09:46:13,22.5,51.506,0.754
SKP,ENTELURUS AEQUOREUS,Snake pipefish,5,M,Solent Bass Trawl  Port,MO,Valid,27/11/2007 12:27:13,16.8,51.488,0.682
SOL,SOLEA SOLEA ,Sole (dover sole),1,L,Solent Bass Trawl  Port,MO,Valid,27/11/2007 07:20:13,22.5,51.507,0.855
SOL,SOLEA SOLEA ,Sole (dover sole),2,O,Solent Bass Trawl  Port,MO,Valid,27/11/2007 08:12:13,21.0,51.478,0.821
SOL,SOLEA SOLEA ,Sole (dover sole),3,K,Solent Bass Trawl  Port,MO,Valid,27/11/2007 09:46:13,22.5,51.506,0.754
SOL,SOLEA SOLEA ,Sole (dover sole),4,P,Solent Bass Trawl  Port,MO,Valid,27/11/2007 10:44:13,14.0,51.516,0.695
SOL,SOLEA SOLEA ,Sole (dover sole),4,P,Solent Bass Trawl  Star,MO,Valid,27/11/2007 10:44:13,14.0,51.516,0.695
SOL,SOLEA SOLEA ,Sole (dover sole),5,M,Solent Bass Trawl  Port,MO,Valid,27/11/2007 12:27:13,16.8,51.488,0.682
SOL,SOLEA SOLEA ,Sole (dover sole),16,F,Solent Bass Trawl  Port,MO,Valid,29/11/2007 09:00:13,20.0,51.461,0.300
SOL,SOLEA SOLEA ,Sole (dover sole),16,F,Solent Bass Trawl  Star,MO,Valid,29/11/2007 09:00:13,20.0,51.461,0.300
SOL,SOLEA SOLEA ,Sole (dover sole),17,G,Solent Bass Trawl  Port,MO,Valid,29/11/2007 10:41:13,17.8,51.512,0.148
SOL,SOLEA SOLEA ,Sole (dover sole),17,G,Solent Bass Trawl  Star,MO,Valid,29/11/2007 10:41:13,17.8,51.512,0.148
SOL,SOLEA SOLEA ,Sole (dover sole),13,N,Solent Bass Trawl  Port,MO,Valid,28/11/2007 13:26:13,14.2,51.451,0.735
SOL,SOLEA SOLEA ,Sole (dover sole),13,N,Solent Bass Trawl  Star,MO,Valid,28/11/2007 13:26:13,14.2,51.451,0.735
SOL,SOLEA SOLEA ,Sole (dover sole),14,J1,Solent Bass Trawl  Port,MO,Valid,28/11/2007 14:35:13,31.8,51.513,0.667
SOL,SOLEA SOLEA ,Sole (dover sole),14,J1,Solent Bass Trawl  Star,MO,Valid,28/11/2007 14:35:13,31.8,51.513,0.667
SOL,SOLEA SOLEA ,Sole (dover sole),15,E1,Solent Bass Trawl  Port,MO,Valid,29/11/2007 08:18:13,15.6,51.470,0.320
SOL,SOLEA SOLEA ,Sole (dover sole),15,E1,Solent Bass Trawl  Star,MO,Valid,29/11/2007 08:18:13,15.6,51.470,0.320
SOL,SOLEA SOLEA ,Sole (dover sole),6,A,Solent Bass Trawl  Port,MO,Valid,27/11/2007 13:28:13,14.5,51.497,0.571
SOL,SOLEA SOLEA ,Sole (dover sole),6,A,Solent Bass Trawl  Star,MO,Valid,27/11/2007 13:28:13,14.5,51.497,0.571
SOL,SOLEA SOLEA ,Sole (dover sole),7,J,Solent Bass Trawl  Port,MO,Valid,27/11/2007 14:23:13,26.0,51.515,0.660
SOL,SOLEA SOLEA ,Sole (dover sole),7,J,Solent Bass Trawl  Star,MO,Valid,27/11/2007 14:23:13,26.0,51.515,0.660
SOL,SOLEA SOLEA ,Sole (dover sole),8,MA,Solent Bass Trawl  Port,MO,Valid,28/11/2007 07:26:13,20.4,51.408,0.692
SOL,SOLEA SOLEA ,Sole (dover sole),12,X,Solent Bass Trawl  Port,MO,Valid,28/11/2007 12:31:13,4.9,51.436,0.718
SOT,BUGLOSSIDIUM LUTEUM,Solenette,2,O,Solent Bass Trawl  Port,MO,Valid,27/11/2007 08:12:13,21.0,51.478,0.821
SPA,SEPIOLA ATLANTICA,Little cuttlefish,1,L,Solent Bass Trawl  Star,CO,Valid,27/11/2007 07:20:13,22.5,51.507,0.855
SPA,SEPIOLA ATLANTICA,Little cuttlefish,3,K,Solent Bass Trawl  Star,CO,Valid,27/11/2007 09:46:13,22.5,51.506,0.754
SPA,SEPIOLA ATLANTICA,Little cuttlefish,5,M,Solent Bass Trawl  Star,CO,Valid,27/11/2007 12:27:13,16.8,51.488,0.682
SPR,SPRATTUS SPRATTUS,Sprat,1,L,Solent Bass Trawl  Star,MO,Valid,27/11/2007 07:20:13,22.5,51.507,0.855
SPR,SPRATTUS SPRATTUS,Sprat,2,O,Solent Bass Trawl  Port,MO,Valid,27/11/2007 08:12:13,21.0,51.478,0.821
SPR,SPRATTUS SPRATTUS,Sprat,2,O,Solent Bass Trawl  Star,MO,Valid,27/11/2007 08:12:13,21.0,51.478,0.821
SPR,SPRATTUS SPRATTUS,Sprat,3,K,Solent Bass Trawl  Port,MO,Valid,27/11/2007 09:46:13,22.5,51.506,0.754
SPR,SPRATTUS SPRATTUS,Sprat,3,K,Solent Bass Trawl  Star,MO,Valid,27/11/2007 09:46:13,22.5,51.506,0.754
SPR,SPRATTUS SPRATTUS,Sprat,5,M,Solent Bass Trawl  Star,MO,Valid,27/11/2007 12:27:13,16.8,51.488,0.682
SPR,SPRATTUS SPRATTUS,Sprat,16,F,Solent Bass Trawl  Star,MO,Valid,29/11/2007 09:00:13,20.0,51.461,0.300
SPR,SPRATTUS SPRATTUS,Sprat,17,G,Solent Bass Trawl  Port,MO,Valid,29/11/2007 10:41:13,17.8,51.512,0.148
SPR,SPRATTUS SPRATTUS,Sprat,17,G,Solent Bass Trawl  Star,MO,Valid,29/11/2007 10:41:13,17.8,51.512,0.148
SPR,SPRATTUS SPRATTUS,Sprat,13,N,Solent Bass Trawl  Star,MO,Valid,28/11/2007 13:26:13,14.2,51.451,0.735
SPR,SPRATTUS SPRATTUS,Sprat,14,J1,Solent Bass Trawl  Port,MO,Valid,28/11/2007 14:35:13,31.8,51.513,0.667
SPR,SPRATTUS SPRATTUS,Sprat,14,J1,Solent Bass Trawl  Star,MO,Valid,28/11/2007 14:35:13,31.8,51.513,0.667
SPR,SPRATTUS SPRATTUS,Sprat,15,E1,Solent Bass Trawl  Port,MO,Valid,29/11/2007 08:18:13,15.6,51.470,0.320
SPR,SPRATTUS SPRATTUS,Sprat,15,E1,Solent Bass Trawl  Star,MO,Valid,29/11/2007 08:18:13,15.6,51.470,0.320
SPR,SPRATTUS SPRATTUS,Sprat,16,F,Solent Bass Trawl  Port,MO,Valid,29/11/2007 09:00:13,20.0,51.461,0.300
SPR,SPRATTUS SPRATTUS,Sprat,9,HA,Solent Bass Trawl  Star,MO,Valid,28/11/2007 09:00:13,8.8,51.409,0.649
SPR,SPRATTUS SPRATTUS,Sprat,10,W,Solent Bass Trawl  Port,MO,Valid,28/11/2007 09:58:13,12.7,51.422,0.649
SPR,SPRATTUS SPRATTUS,Sprat,10,W,Solent Bass Trawl  Star,MO,Valid,28/11/2007 09:58:13,12.7,51.422,0.649
SPR,SPRATTUS SPRATTUS,Sprat,11,V,Solent Bass Trawl  Port,MO,Valid,28/11/2007 11:00:13,11.0,51.428,0.624
SPR,SPRATTUS SPRATTUS,Sprat,12,X,Solent Bass Trawl  Port,MO,Valid,28/11/2007 12:31:13,4.9,51.436,0.718
SPR,SPRATTUS SPRATTUS,Sprat,12,X,Solent Bass Trawl  Star,MO,Valid,28/11/2007 12:31:13,4.9,51.436,0.718
SPR,SPRATTUS SPRATTUS,Sprat,6,A,Solent Bass Trawl  Port,MO,Valid,27/11/2007 13:28:13,14.5,51.497,0.571
SPR,SPRATTUS SPRATTUS,Sprat,6,A,Solent Bass Trawl  Star,MO,Valid,27/11/2007 13:28:13,14.5,51.497,0.571
SPR,SPRATTUS SPRATTUS,Sprat,7,J,Solent Bass Trawl  Port,MO,Valid,27/11/2007 14:23:13,26.0,51.515,0.660
SPR,SPRATTUS SPRATTUS,Sprat,7,J,Solent Bass Trawl  Star,MO,Valid,27/11/2007 14:23:13,26.0,51.515,0.660
SPR,SPRATTUS SPRATTUS,Sprat,8,MA,Solent Bass Trawl  Port,MO,Valid,28/11/2007 07:26:13,20.4,51.408,0.692
SPR,SPRATTUS SPRATTUS,Sprat,9,HA,Solent Bass Trawl  Port,MO,Valid,28/11/2007 09:00:13,8.8,51.409,0.649
SSN,TAURULUS BUBALIS,Sea scorpion,3,K,Solent Bass Trawl  Port,MO,Valid,27/11/2007 09:46:13,22.5,51.506,0.754
THR,RAJA CLAVATA,Thornback ray (roker),5,M,Solent Bass Trawl  Port,MO,Valid,27/11/2007 12:27:13,16.8,51.488,0.682
THR,RAJA CLAVATA,Thornback ray (roker),5,M,Solent Bass Trawl  Star,MO,Valid,27/11/2007 12:27:13,16.8,51.488,0.682
THR,RAJA CLAVATA,Thornback ray (roker),13,N,Solent Bass Trawl  Star,MO,Valid,28/11/2007 13:26:13,14.2,51.451,0.735
TSE,AMMODYTES TOBIANUS,Sandeel,3,K,Solent Bass Trawl  Port,MO,Valid,27/11/2007 09:46:13,22.5,51.506,0.754
TSE,AMMODYTES TOBIANUS,Sandeel,7,J,Solent Bass Trawl  Port,MO,Valid,27/11/2007 14:23:13,26.0,51.515,0.660
TUB,TRIGLA (CHELIDONICHTHYS) LUCERNA,Tub gurnard,6,A,Solent Bass Trawl  Port,MO,Valid,27/11/2007 13:28:13,14.5,51.497,0.571
TUB,TRIGLA (CHELIDONICHTHYS) LUCERNA,Tub gurnard,8,MA,Solent Bass Trawl  Port,MO,Valid,28/11/2007 07:26:13,20.4,51.408,0.692
TUB,TRIGLA (CHELIDONICHTHYS) LUCERNA,Tub gurnard,14,J1,Solent Bass Trawl  Port,MO,Valid,28/11/2007 14:35:13,31.8,51.513,0.667
WHG,MERLANGIUS MERLANGUS,Whiting,1,L,Solent Bass Trawl  Port,MO,Valid,27/11/2007 07:20:13,22.5,51.507,0.855
WHG,MERLANGIUS MERLANGUS,Whiting,1,L,Solent Bass Trawl  Star,MO,Valid,27/11/2007 07:20:13,22.5,51.507,0.855
WHG,MERLANGIUS MERLANGUS,Whiting,2,O,Solent Bass Trawl  Port,MO,Valid,27/11/2007 08:12:13,21.0,51.478,0.821
WHG,MERLANGIUS MERLANGUS,Whiting,2,O,Solent Bass Trawl  Star,MO,Valid,27/11/2007 08:12:13,21.0,51.478,0.821
WHG,MERLANGIUS MERLANGUS,Whiting,3,K,Solent Bass Trawl  Port,MO,Valid,27/11/2007 09:46:13,22.5,51.506,0.754
WHG,MERLANGIUS MERLANGUS,Whiting,3,K,Solent Bass Trawl  Star,MO,Valid,27/11/2007 09:46:13,22.5,51.506,0.754
WHG,MERLANGIUS MERLANGUS,Whiting,16,F,Solent Bass Trawl  Star,MO,Valid,29/11/2007 09:00:13,20.0,51.461,0.300
WHG,MERLANGIUS MERLANGUS,Whiting,13,N,Solent Bass Trawl  Port,MO,Valid,28/11/2007 13:26:13,14.2,51.451,0.735
WHG,MERLANGIUS MERLANGUS,Whiting,13,N,Solent Bass Trawl  Star,MO,Valid,28/11/2007 13:26:13,14.2,51.451,0.735
WHG,MERLANGIUS MERLANGUS,Whiting,14,J1,Solent Bass Trawl  Port,MO,Valid,28/11/2007 14:35:13,31.8,51.513,0.667
WHG,MERLANGIUS MERLANGUS,Whiting,14,J1,Solent Bass Trawl  Star,MO,Valid,28/11/2007 14:35:13,31.8,51.513,0.667
WHG,MERLANGIUS MERLANGUS,Whiting,15,E1,Solent Bass Trawl  Port,MO,Valid,29/11/2007 08:18:13,15.6,51.470,0.320
WHG,MERLANGIUS MERLANGUS,Whiting,15,E1,Solent Bass Trawl  Star,MO,Valid,29/11/2007 08:18:13,15.6,51.470,0.320
WHG,MERLANGIUS MERLANGUS,Whiting,7,J,Solent Bass Trawl  Port,MO,Valid,27/11/2007 14:23:13,26.0,51.515,0.660
WHG,MERLANGIUS MERLANGUS,Whiting,7,J,Solent Bass Trawl  Star,MO,Valid,27/11/2007 14:23:13,26.0,51.515,0.660
WHG,MERLANGIUS MERLANGUS,Whiting,8,MA,Solent Bass Trawl  Port,MO,Valid,28/11/2007 07:26:13,20.4,51.408,0.692
WHG,MERLANGIUS MERLANGUS,Whiting,8,MA,Solent Bass Trawl  Star,MO,Valid,28/11/2007 07:26:13,20.4,51.408,0.692
WHG,MERLANGIUS MERLANGUS,Whiting,9,HA,Solent Bass Trawl  Port,MO,Valid,28/11/2007 09:00:13,8.8,51.409,0.649
WHG,MERLANGIUS MERLANGUS,Whiting,9,HA,Solent Bass Trawl  Star,MO,Valid,28/11/2007 09:00:13,8.8,51.409,0.649
WHG,MERLANGIUS MERLANGUS,Whiting,4,P,Solent Bass Trawl  Port,MO,Valid,27/11/2007 10:44:13,14.0,51.516,0.695
WHG,MERLANGIUS MERLANGUS,Whiting,4,P,Solent Bass Trawl  Star,MO,Valid,27/11/2007 10:44:13,14.0,51.516,0.695
WHG,MERLANGIUS MERLANGUS,Whiting,5,M,Solent Bass Trawl  Port,MO,Valid,27/11/2007 12:27:13,16.8,51.488,0.682
WHG,MERLANGIUS MERLANGUS,Whiting,5,M,Solent Bass Trawl  Star,MO,Valid,27/11/2007 12:27:13,16.8,51.488,0.682
WHG,MERLANGIUS MERLANGUS,Whiting,6,A,Solent Bass Trawl  Port,MO,Valid,27/11/2007 13:28:13,14.5,51.497,0.571
WHG,MERLANGIUS MERLANGUS,Whiting,6,A,Solent Bass Trawl  Star,MO,Valid,27/11/2007 13:28:13,14.5,51.497,0.571
