﻿SpeciesCode,ScientificName,CommonName,StationNumber,PrimeStation,GearDescription,ProcessCode,Validity,DeploymentDateTime,DeploymentDepth,DeploymentLatitude,DeploymentLongitude
HER,CLUPEA HARENGUS,Herring,1,,Larson Sprat Trawl  ,WM,Valid,11/11/1995 07:20:16,,51.650,1.253
SPR,SPRATTUS SPRATTUS,Sprat,1,,Larson Sprat Trawl  ,MO,Valid,11/11/1995 07:20:16,,51.650,1.253
HER,CLUPEA HARENGUS,Herring,2,,Larson Sprat Trawl  ,WM,Valid,11/11/1995 09:45:16,,51.535,1.138
SPR,SPRATTUS SPRATTUS,Sprat,2,,Larson Sprat Trawl  ,MO,Valid,11/11/1995 09:45:16,,51.535,1.138
HER,CLUPEA HARENGUS,Herring,3,,Larson Sprat Trawl  ,WM,Valid,11/11/1995 11:35:16,,51.501,0.999
HER,CLUPEA HARENGUS,Herring,4,,Larson Sprat Trawl  ,WM,Valid,12/11/1995 07:39:16,,51.633,1.117
SPR,SPRATTUS SPRATTUS,Sprat,4,,Larson Sprat Trawl  ,MO,Valid,12/11/1995 07:39:16,,51.633,1.117
HER,CLUPEA HARENGUS,Herring,5,,Larson Sprat Trawl  ,WM,Valid,12/11/1995 09:35:16,,51.673,1.205
SPR,SPRATTUS SPRATTUS,Sprat,5,,Larson Sprat Trawl  ,MO,Valid,12/11/1995 09:35:16,,51.673,1.205
HER,CLUPEA HARENGUS,Herring,6,,Larson Sprat Trawl  ,WM,Valid,12/11/1995 12:00:16,,51.566,1.051
HER,CLUPEA HARENGUS,Herring,7,,Larson Sprat Trawl  ,WM,Valid,13/11/1995 13:30:16,,51.520,0.935
HER,CLUPEA HARENGUS,Herring,8,,Larson Sprat Trawl  ,WM,Valid,13/11/1995 12:54:16,,51.516,0.988
SPR,SPRATTUS SPRATTUS,Sprat,8,,Larson Sprat Trawl  ,MO,Valid,13/11/1995 12:54:16,,51.516,0.988
HER,CLUPEA HARENGUS,Herring,9,,Larson Sprat Trawl  ,MO,Valid,14/11/1995 09:13:16,,51.516,0.988
SPR,SPRATTUS SPRATTUS,Sprat,9,,Larson Sprat Trawl  ,MO,Valid,14/11/1995 09:13:16,,51.516,0.988
HER,CLUPEA HARENGUS,Herring,10,,Larson Sprat Trawl  ,MO,Valid,14/11/1995 12:00:16,,51.645,1.250
HER,CLUPEA HARENGUS,Herring,11,,Larson Sprat Trawl  ,WM,Valid,15/11/1995 07:57:16,,51.395,1.015
HER,CLUPEA HARENGUS,Herring,12,,Larson Sprat Trawl  ,WM,Valid,15/11/1995 10:13:16,,51.425,1.201
SPR,SPRATTUS SPRATTUS,Sprat,12,,Larson Sprat Trawl  ,MO,Valid,15/11/1995 10:13:16,,51.425,1.201
HER,CLUPEA HARENGUS,Herring,13,,Larson Sprat Trawl  ,WM,Valid,15/11/1995 13:09:16,,51.496,1.100
SPR,SPRATTUS SPRATTUS,Sprat,13,,Larson Sprat Trawl  ,MO,Valid,15/11/1995 13:09:16,,51.496,1.100
HER,CLUPEA HARENGUS,Herring,14,,Larson Sprat Trawl  ,WM,Valid,16/11/1995 09:08:16,,51.481,0.881
SPR,SPRATTUS SPRATTUS,Sprat,14,,Larson Sprat Trawl  ,MO,Valid,16/11/1995 09:08:16,,51.481,0.881
HER,CLUPEA HARENGUS,Herring,15,,Larson Sprat Trawl  ,WM,Valid,16/11/1995 09:08:16,,51.648,1.118
ESB,DICENTRARCHUS LABRAX,European seabass,16,,Larson Sprat Trawl  ,MO,Valid,16/11/1995 10:50:16,,51.706,1.063
HER,CLUPEA HARENGUS,Herring,16,,Larson Sprat Trawl  ,WM,Valid,16/11/1995 10:50:16,,51.706,1.063
MTL,CHELON (CRENIMUGIL) LABROSUS,Thick lipped mullet,16,,Larson Sprat Trawl  ,MO,Valid,16/11/1995 10:50:16,,51.706,1.063
SPR,SPRATTUS SPRATTUS,Sprat,16,,Larson Sprat Trawl  ,MO,Valid,16/11/1995 10:50:16,,51.706,1.063
ESB,DICENTRARCHUS LABRAX,European seabass,17,,Larson Sprat Trawl  ,MO,Valid,16/11/1995 13:30:16,,51.666,1.073
HER,CLUPEA HARENGUS,Herring,17,,Larson Sprat Trawl  ,WM,Valid,16/11/1995 13:30:16,,51.666,1.073
ESB,DICENTRARCHUS LABRAX,European seabass,18,,Larson Sprat Trawl  ,MO,Valid,16/11/1995 15:35:16,,51.618,0.890
HER,CLUPEA HARENGUS,Herring,18,,Larson Sprat Trawl  ,WM,Valid,16/11/1995 15:35:16,,51.618,0.890
HER,CLUPEA HARENGUS,Herring,19,,Larson Sprat Trawl  ,MO,Valid,17/11/1995 09:52:16,,51.730,0.848
ESB,DICENTRARCHUS LABRAX,European seabass,20,,Larson Sprat Trawl  ,MO,Valid,17/11/1995 12:05:16,,51.753,0.985
HER,CLUPEA HARENGUS,Herring,20,,Larson Sprat Trawl  ,WM,Valid,17/11/1995 12:05:16,,51.753,0.985
SPR,SPRATTUS SPRATTUS,Sprat,20,,Larson Sprat Trawl  ,MO,Valid,17/11/1995 12:05:16,,51.753,0.985
ANE,ENGRAULIS ENCRASICOLUS,European anchovy,21,,Larson Sprat Trawl  ,MO,Valid,18/11/1995 08:19:16,,51.636,0.761
HER,CLUPEA HARENGUS,Herring,21,,Larson Sprat Trawl  ,WM,Valid,18/11/1995 08:19:16,,51.636,0.761
ESB,DICENTRARCHUS LABRAX,European seabass,22,,Larson Sprat Trawl  ,MO,Valid,18/11/1995 13:03:16,,51.661,1.206
HER,CLUPEA HARENGUS,Herring,22,,Larson Sprat Trawl  ,MO,Valid,18/11/1995 13:03:16,,51.661,1.206
ESB,DICENTRARCHUS LABRAX,European seabass,23,,Larson Sprat Trawl  ,MO,Valid,19/11/1995 08:40:16,,51.596,0.826
HER,CLUPEA HARENGUS,Herring,23,,Larson Sprat Trawl  ,WM,Valid,19/11/1995 08:40:16,,51.596,0.826
ESB,DICENTRARCHUS LABRAX,European seabass,24,,Larson Sprat Trawl  ,MO,Valid,19/11/1995 13:00:16,,51.570,1.051
HER,CLUPEA HARENGUS,Herring,24,,Larson Sprat Trawl  ,WM,Valid,19/11/1995 13:00:16,,51.570,1.051
HER,CLUPEA HARENGUS,Herring,25,,Larson Sprat Trawl  ,WM,Valid,19/11/1995 15:22:16,,51.493,0.988
SPR,SPRATTUS SPRATTUS,Sprat,25,,Larson Sprat Trawl  ,MO,Valid,19/11/1995 15:22:16,,51.493,0.988
ESB,DICENTRARCHUS LABRAX,European seabass,26,,Larson Sprat Trawl  ,MO,Valid,20/11/1995 11:48:16,,51.411,0.693
HER,CLUPEA HARENGUS,Herring,26,,Larson Sprat Trawl  ,WM,Valid,20/11/1995 11:48:16,,51.411,0.693
HER,CLUPEA HARENGUS,Herring,27,,Larson Sprat Trawl  ,WM,Valid,20/11/1995 14:20:16,,51.513,0.911
HER,CLUPEA HARENGUS,Herring,28,,Larson Sprat Trawl  ,WM,Valid,20/11/1995 15:33:16,,51.488,0.895
SPR,SPRATTUS SPRATTUS,Sprat,28,,Larson Sprat Trawl  ,MO,Valid,20/11/1995 15:33:16,,51.488,0.895
ESB,DICENTRARCHUS LABRAX,European seabass,29,,Larson Sprat Trawl  ,MO,Valid,20/11/1995 17:15:16,,51.500,0.808
HER,CLUPEA HARENGUS,Herring,29,,Larson Sprat Trawl  ,WM,Valid,20/11/1995 17:15:16,,51.500,0.808
ESB,DICENTRARCHUS LABRAX,European seabass,30,,Larson Sprat Trawl  ,MO,Valid,21/11/1995 10:58:16,,51.513,0.140
HER,CLUPEA HARENGUS,Herring,30,,Larson Sprat Trawl  ,WM,Valid,21/11/1995 10:58:16,,51.513,0.140
HER,CLUPEA HARENGUS,Herring,31,,Larson Sprat Trawl  ,MO,Valid,21/11/1995 12:54:16,,51.458,0.290
ESB,DICENTRARCHUS LABRAX,European seabass,32,,Larson Sprat Trawl  ,MO,Valid,22/11/1995 08:43:16,,51.496,0.613
HER,CLUPEA HARENGUS,Herring,32,,Larson Sprat Trawl  ,WM,Valid,22/11/1995 08:43:16,,51.496,0.613
HER,CLUPEA HARENGUS,Herring,33,,Larson Sprat Trawl  ,WM,Valid,21/11/1995 11:27:16,,51.503,0.818
ESB,DICENTRARCHUS LABRAX,European seabass,34,,Larson Sprat Trawl  ,MO,Valid,22/11/1995 13:10:16,,51.513,0.715
HER,CLUPEA HARENGUS,Herring,34,,Larson Sprat Trawl  ,WM,Valid,22/11/1995 13:10:16,,51.513,0.715
