﻿StationNumber,PrimeStation,GearCode,Validity,DeploymentDateTime,DeploymentDepthM,DeploymentLatitude,DeploymentLongitude,GearDescription
1,JJ,111060101,V,14/11/1992 08:05:39,,51.420,1.415,Larson Sprat Trawl  
2,II,111060101,V,14/11/1992 10:20:39,,51.452,1.363,Larson Sprat Trawl  
3,GG,111060101,V,14/11/1992 12:05:39,,51.478,1.232,Larson Sprat Trawl  
4,HH,111060101,V,16/11/1992 07:49:39,,51.407,1.116,Larson Sprat Trawl  
5,HH,111060101,V,16/11/1992 09:18:39,,51.432,1.234,Larson Sprat Trawl  
6,T,111060101,V,16/11/1992 10:58:39,,51.486,1.086,Larson Sprat Trawl  
7,T,111060101,V,16/11/1992 12:25:39,,51.518,1.084,Larson Sprat Trawl  
8,O,111060101,V,16/11/1992 13:55:39,,51.515,1.036,Larson Sprat Trawl  
9,CC,111060101,V,17/11/1992 08:12:39,,51.650,1.166,Larson Sprat Trawl  
10,V,111060101,V,17/11/1992 10:50:39,,51.565,1.045,Larson Sprat Trawl  
11,FF,111060101,V,18/11/1992 09:30:39,,51.622,1.253,Larson Sprat Trawl  
12,V,111060101,V,18/11/1992 11:35:39,,51.586,1.133,Larson Sprat Trawl  
13,K,111060101,V,18/11/1992 14:10:39,,51.509,0.913,Larson Sprat Trawl  
14,K,111060101,V,19/11/1992 08:40:39,,51.516,0.909,Larson Sprat Trawl  
15,BB,111060101,V,19/11/1992 11:40:39,,51.709,1.076,Larson Sprat Trawl  
16,Z,111060101,V,19/11/1992 13:20:39,,51.741,1.014,Larson Sprat Trawl  
17,EE,111060101,V,20/11/1992 11:45:39,,51.677,1.256,Larson Sprat Trawl  
18,EE,111060101,V,20/11/1992 13:00:39,,51.667,1.269,Larson Sprat Trawl  
19,EE,111060101,V,20/11/1992 14:25:39,,51.672,1.342,Larson Sprat Trawl  
20,L,111060101,V,21/11/1992 10:05:39,,51.477,0.901,Larson Sprat Trawl  
21,T,111060101,V,21/11/1992 11:50:39,,51.491,1.036,Larson Sprat Trawl  
22,U,111060101,V,21/11/1992 13:35:39,,51.523,1.111,Larson Sprat Trawl  
23,A,111060101,V,22/11/1992 09:50:39,,51.497,0.586,Larson Sprat Trawl  
24,C,111060101,V,22/11/1992 11:40:39,,51.513,0.712,Larson Sprat Trawl  
25,K,111060101,V,22/11/1992 13:45:39,,51.532,0.971,Larson Sprat Trawl  
