﻿SpeciesCode,ScientificName,CommonName,StationNumber,PrimeStation,GearDescription,ProcessCode,Validity,DeploymentDateTime,DeploymentDepth,DeploymentLatitude,DeploymentLongitude
HER,CLUPEA HARENGUS,Herring,1,JJ,Larson Sprat Trawl  ,WM,Valid,14/11/1992 08:05:39,,51.420,1.415
HER,CLUPEA HARENGUS,Herring,2,II,Larson Sprat Trawl  ,WM,Valid,14/11/1992 10:20:39,,51.452,1.363
HER,CLUPEA HARENGUS,Herring,3,GG,Larson Sprat Trawl  ,WM,Valid,14/11/1992 12:05:39,,51.478,1.232
HER,CLUPEA HARENGUS,Herring,4,HH,Larson Sprat Trawl  ,WM,Valid,16/11/1992 07:49:39,,51.407,1.116
HER,CLUPEA HARENGUS,Herring,5,HH,Larson Sprat Trawl  ,WM,Valid,16/11/1992 09:18:39,,51.432,1.234
HER,CLUPEA HARENGUS,Herring,6,T,Larson Sprat Trawl  ,WM,Valid,16/11/1992 10:58:39,,51.486,1.086
HER,CLUPEA HARENGUS,Herring,7,T,Larson Sprat Trawl  ,WM,Valid,16/11/1992 12:25:39,,51.518,1.084
HER,CLUPEA HARENGUS,Herring,8,O,Larson Sprat Trawl  ,WM,Valid,16/11/1992 13:55:39,,51.515,1.036
HER,CLUPEA HARENGUS,Herring,9,CC,Larson Sprat Trawl  ,WM,Valid,17/11/1992 08:12:39,,51.650,1.166
HER,CLUPEA HARENGUS,Herring,10,V,Larson Sprat Trawl  ,WM,Valid,17/11/1992 10:50:39,,51.565,1.045
HER,CLUPEA HARENGUS,Herring,11,FF,Larson Sprat Trawl  ,WM,Valid,18/11/1992 09:30:39,,51.622,1.253
HER,CLUPEA HARENGUS,Herring,12,V,Larson Sprat Trawl  ,WM,Valid,18/11/1992 11:35:39,,51.586,1.133
HER,CLUPEA HARENGUS,Herring,13,K,Larson Sprat Trawl  ,WM,Valid,18/11/1992 14:10:39,,51.509,0.913
HER,CLUPEA HARENGUS,Herring,14,K,Larson Sprat Trawl  ,WM,Valid,19/11/1992 08:40:39,,51.516,0.909
HER,CLUPEA HARENGUS,Herring,15,BB,Larson Sprat Trawl  ,WM,Valid,19/11/1992 11:40:39,,51.709,1.076
HER,CLUPEA HARENGUS,Herring,16,Z,Larson Sprat Trawl  ,WM,Valid,19/11/1992 13:20:39,,51.741,1.014
HER,CLUPEA HARENGUS,Herring,17,EE,Larson Sprat Trawl  ,WM,Valid,20/11/1992 11:45:39,,51.677,1.256
HER,CLUPEA HARENGUS,Herring,18,EE,Larson Sprat Trawl  ,WM,Valid,20/11/1992 13:00:39,,51.667,1.269
HER,CLUPEA HARENGUS,Herring,19,EE,Larson Sprat Trawl  ,WM,Valid,20/11/1992 14:25:39,,51.672,1.342
HER,CLUPEA HARENGUS,Herring,20,L,Larson Sprat Trawl  ,WM,Valid,21/11/1992 10:05:39,,51.477,0.901
HER,CLUPEA HARENGUS,Herring,21,T,Larson Sprat Trawl  ,WM,Valid,21/11/1992 11:50:39,,51.491,1.036
HER,CLUPEA HARENGUS,Herring,22,U,Larson Sprat Trawl  ,WM,Valid,21/11/1992 13:35:39,,51.523,1.111
HER,CLUPEA HARENGUS,Herring,23,A,Larson Sprat Trawl  ,WM,Valid,22/11/1992 09:50:39,,51.497,0.586
HER,CLUPEA HARENGUS,Herring,24,C,Larson Sprat Trawl  ,WM,Valid,22/11/1992 11:40:39,,51.513,0.712
HER,CLUPEA HARENGUS,Herring,25,K,Larson Sprat Trawl  ,WM,Valid,22/11/1992 13:45:39,,51.532,0.971
