﻿SpeciesCode,ScientificName,CommonName,StationNumber,PrimeStation,GearDescription,ProcessCode,Validity,DeploymentDateTime,DeploymentDepth,DeploymentLatitude,DeploymentLongitude
HER,CLUPEA HARENGUS,Herring,1,DD,Larson Sprat Trawl  ,WM,Valid,11/11/1991 07:34:58,,51.672,1.252
HER,CLUPEA HARENGUS,Herring,2,,Larson Sprat Trawl  ,WM,Valid,11/11/1991 09:20:58,,51.630,1.133
HER,CLUPEA HARENGUS,Herring,3,,Larson Sprat Trawl  ,WM,Valid,11/11/1991 10:50:58,,51.589,1.108
HER,CLUPEA HARENGUS,Herring,4,,Larson Sprat Trawl  ,WM,Valid,11/11/1991 14:00:58,,51.512,0.699
HER,CLUPEA HARENGUS,Herring,5,,Larson Sprat Trawl  ,WM,Valid,12/11/1991 06:20:58,,51.478,0.980
HER,CLUPEA HARENGUS,Herring,6,,Larson Sprat Trawl  ,WM,Valid,12/11/1991 06:20:58,,51.430,1.056
HER,CLUPEA HARENGUS,Herring,7,,Larson Sprat Trawl  ,WM,Valid,12/11/1991 09:30:58,,51.406,1.135
SPR,SPRATTUS SPRATTUS,Sprat,7,,Larson Sprat Trawl  ,WM,Valid,12/11/1991 09:30:58,,51.406,1.135
HER,CLUPEA HARENGUS,Herring,8,,Larson Sprat Trawl  ,WM,Valid,12/11/1991 10:40:58,,51.426,1.180
SPR,SPRATTUS SPRATTUS,Sprat,8,,Larson Sprat Trawl  ,WM,Valid,12/11/1991 10:40:58,,51.426,1.180
HER,CLUPEA HARENGUS,Herring,9,,Larson Sprat Trawl  ,WM,Valid,12/11/1991 11:40:58,,51.421,1.176
SPR,SPRATTUS SPRATTUS,Sprat,9,,Larson Sprat Trawl  ,WM,Valid,12/11/1991 11:40:58,,51.421,1.176
HER,CLUPEA HARENGUS,Herring,10,,Larson Sprat Trawl  ,WM,Valid,13/11/1991 06:27:58,,51.491,0.655
SPR,SPRATTUS SPRATTUS,Sprat,10,,Larson Sprat Trawl  ,WM,Valid,13/11/1991 06:27:58,,51.491,0.655
HER,CLUPEA HARENGUS,Herring,11,,Larson Sprat Trawl  ,WM,Valid,13/11/1991 09:22:58,,51.473,0.935
SPR,SPRATTUS SPRATTUS,Sprat,11,,Larson Sprat Trawl  ,WM,Valid,13/11/1991 09:22:58,,51.473,0.935
HER,CLUPEA HARENGUS,Herring,12,,Larson Sprat Trawl  ,WM,Valid,13/11/1991 10:50:58,,51.455,0.898
SPR,SPRATTUS SPRATTUS,Sprat,12,,Larson Sprat Trawl  ,WM,Valid,13/11/1991 10:50:58,,51.455,0.898
HER,CLUPEA HARENGUS,Herring,13,,Larson Sprat Trawl  ,WM,Valid,13/11/1991 12:05:58,,51.456,0.940
HER,CLUPEA HARENGUS,Herring,14,,Larson Sprat Trawl  ,WM,Valid,14/11/1991 08:48:58,,51.708,1.075
SPR,SPRATTUS SPRATTUS,Sprat,14,,Larson Sprat Trawl  ,WM,Valid,14/11/1991 08:48:58,,51.708,1.075
HER,CLUPEA HARENGUS,Herring,15,,Larson Sprat Trawl  ,WM,Valid,14/11/1991 10:50:58,,51.663,1.216
SPR,SPRATTUS SPRATTUS,Sprat,15,,Larson Sprat Trawl  ,WM,Valid,14/11/1991 10:50:58,,51.663,1.216
HER,CLUPEA HARENGUS,Herring,16,,Larson Sprat Trawl  ,WM,Valid,14/11/1991 12:15:58,,51.641,1.241
HER,CLUPEA HARENGUS,Herring,17,,Larson Sprat Trawl  ,WM,Valid,15/11/1991 09:15:58,,51.451,1.316
HER,CLUPEA HARENGUS,Herring,18,,Larson Sprat Trawl  ,WM,Valid,16/11/1991 08:37:58,,51.506,1.035
SPR,SPRATTUS SPRATTUS,Sprat,18,,Larson Sprat Trawl  ,WM,Valid,16/11/1991 08:37:58,,51.506,1.035
HER,CLUPEA HARENGUS,Herring,19,,Larson Sprat Trawl  ,WM,Valid,16/11/1991 10:10:58,,51.488,1.086
HER,CLUPEA HARENGUS,Herring,20,,Larson Sprat Trawl  ,WM,Valid,16/11/1991 11:33:58,,51.506,1.131
SPR,SPRATTUS SPRATTUS,Sprat,20,,Larson Sprat Trawl  ,WM,Valid,16/11/1991 11:33:58,,51.506,1.131
HER,CLUPEA HARENGUS,Herring,21,,Larson Sprat Trawl  ,WM,Valid,16/11/1991 13:50:58,,51.480,1.248
SPR,SPRATTUS SPRATTUS,Sprat,21,,Larson Sprat Trawl  ,WM,Valid,16/11/1991 13:50:58,,51.480,1.248
HER,CLUPEA HARENGUS,Herring,22,,Larson Sprat Trawl  ,WM,Valid,17/11/1991 10:10:58,,51.535,1.138
SPR,SPRATTUS SPRATTUS,Sprat,22,,Larson Sprat Trawl  ,WM,Valid,17/11/1991 10:10:58,,51.535,1.138
ANE,ENGRAULIS ENCRASICOLUS,European anchovy,23,,Larson Sprat Trawl  ,WM,Valid,17/11/1991 11:45:58,,51.523,1.068
HER,CLUPEA HARENGUS,Herring,23,,Larson Sprat Trawl  ,WM,Valid,17/11/1991 11:45:58,,51.523,1.068
SPR,SPRATTUS SPRATTUS,Sprat,23,,Larson Sprat Trawl  ,WM,Valid,17/11/1991 11:45:58,,51.523,1.068
HER,CLUPEA HARENGUS,Herring,24,,Larson Sprat Trawl  ,WM,Valid,17/11/1991 13:28:58,,51.561,1.123
SPR,SPRATTUS SPRATTUS,Sprat,24,,Larson Sprat Trawl  ,WM,Valid,17/11/1991 13:28:58,,51.561,1.123
HER,CLUPEA HARENGUS,Herring,25,,Larson Sprat Trawl  ,WM,Valid,17/11/1991 15:26:58,,51.540,1.001
SPR,SPRATTUS SPRATTUS,Sprat,25,,Larson Sprat Trawl  ,WM,Valid,17/11/1991 15:26:58,,51.540,1.001
HER,CLUPEA HARENGUS,Herring,26,,Larson Sprat Trawl  ,WM,Valid,18/11/1991 09:40:58,,51.513,0.906
SPR,SPRATTUS SPRATTUS,Sprat,26,,Larson Sprat Trawl  ,WM,Valid,18/11/1991 09:40:58,,51.513,0.906
HER,CLUPEA HARENGUS,Herring,27,,Larson Sprat Trawl  ,WM,Valid,18/11/1991 11:35:58,,51.561,1.025
SPR,SPRATTUS SPRATTUS,Sprat,27,,Larson Sprat Trawl  ,WM,Valid,18/11/1991 11:35:58,,51.561,1.025
HER,CLUPEA HARENGUS,Herring,28,,Larson Sprat Trawl  ,WM,Valid,18/11/1991 13:15:58,,51.581,1.071
SPR,SPRATTUS SPRATTUS,Sprat,28,,Larson Sprat Trawl  ,WM,Valid,18/11/1991 13:15:58,,51.581,1.071
HER,CLUPEA HARENGUS,Herring,29,,Larson Sprat Trawl  ,WM,Valid,18/11/1991 15:45:58,,51.591,1.116
SPR,SPRATTUS SPRATTUS,Sprat,29,,Larson Sprat Trawl  ,WM,Valid,18/11/1991 15:45:58,,51.591,1.116
HER,CLUPEA HARENGUS,Herring,30,,Larson Sprat Trawl  ,WM,Valid,19/11/1991 10:08:58,,51.498,1.065
SPR,SPRATTUS SPRATTUS,Sprat,30,,Larson Sprat Trawl  ,WM,Valid,19/11/1991 10:08:58,,51.498,1.065
HER,CLUPEA HARENGUS,Herring,31,,Larson Sprat Trawl  ,WM,Valid,20/11/1991 09:38:58,,51.496,0.571
SPR,SPRATTUS SPRATTUS,Sprat,31,,Larson Sprat Trawl  ,WM,Valid,20/11/1991 09:38:58,,51.496,0.571
HER,CLUPEA HARENGUS,Herring,32,,Larson Sprat Trawl  ,WM,Valid,20/11/1991 13:10:58,,51.495,0.761
SPR,SPRATTUS SPRATTUS,Sprat,32,,Larson Sprat Trawl  ,WM,Valid,20/11/1991 13:10:58,,51.495,0.761
