﻿StationNumber,PrimeStation,GearCode,Validity,DeploymentDateTime,DeploymentDepthM,DeploymentLatitude,DeploymentLongitude,GearDescription
1,A,107111101,V,23/11/1999 10:07:00,2.0,51.495,0.575,"Otter Trawl Solent Bass Trawl 5 fm Headline, 6 & 8 metre bridles, 40mm Liner"
2,A1,107111101,V,23/11/1999 11:00:00,6.0,51.498,0.518,"Otter Trawl Solent Bass Trawl 5 fm Headline, 6 & 8 metre bridles, 40mm Liner"
3,M,107111101,V,23/11/1999 12:39:00,3.0,51.481,0.680,"Otter Trawl Solent Bass Trawl 5 fm Headline, 6 & 8 metre bridles, 40mm Liner"
4,N,107111101,V,23/11/1999 13:45:00,3.0,51.465,0.745,"Otter Trawl Solent Bass Trawl 5 fm Headline, 6 & 8 metre bridles, 40mm Liner"
5,O,107111101,V,23/11/1999 14:47:00,10.0,51.478,0.833,"Otter Trawl Solent Bass Trawl 5 fm Headline, 6 & 8 metre bridles, 40mm Liner"
6,MA,107111101,V,23/11/1999 15:39:00,8.0,51.483,0.823,"Otter Trawl Solent Bass Trawl 5 fm Headline, 6 & 8 metre bridles, 40mm Liner"
7,p,107111101,V,23/11/1999 17:15:00,13.0,51.511,0.723,"Otter Trawl Solent Bass Trawl 5 fm Headline, 6 & 8 metre bridles, 40mm Liner"
8,J,107111101,V,24/11/1999 09:40:00,3.0,51.516,0.663,"Otter Trawl Solent Bass Trawl 5 fm Headline, 6 & 8 metre bridles, 40mm Liner"
9,K,107111101,V,24/11/1999 10:58:00,7.0,51.505,0.766,"Otter Trawl Solent Bass Trawl 5 fm Headline, 6 & 8 metre bridles, 40mm Liner"
10,L,107111101,V,24/11/1999 12:00:00,8.0,51.525,0.861,"Otter Trawl Solent Bass Trawl 5 fm Headline, 6 & 8 metre bridles, 40mm Liner"
11,Q,107111101,V,24/11/1999 13:00:00,11.0,51.471,0.913,"Otter Trawl Solent Bass Trawl 5 fm Headline, 6 & 8 metre bridles, 40mm Liner"
12,J,107111101,V,24/11/1999 14:50:00,7.0,51.513,0.695,"Otter Trawl Solent Bass Trawl 5 fm Headline, 6 & 8 metre bridles, 40mm Liner"
13,R,107111101,V,25/11/1999 06:55:00,2.0,51.393,0.996,"Otter Trawl Solent Bass Trawl 5 fm Headline, 6 & 8 metre bridles, 40mm Liner"
14,S,107111101,V,25/11/1999 07:35:00,4.0,51.380,0.970,"Otter Trawl Solent Bass Trawl 5 fm Headline, 6 & 8 metre bridles, 40mm Liner"
15,T,107111101,V,25/11/1999 08:33:00,3.0,51.346,0.908,"Otter Trawl Solent Bass Trawl 5 fm Headline, 6 & 8 metre bridles, 40mm Liner"
16,U,107111101,V,25/11/1999 09:44:00,3.0,51.360,0.851,"Otter Trawl Solent Bass Trawl 5 fm Headline, 6 & 8 metre bridles, 40mm Liner"
17,V,107111101,V,25/11/1999 12:33:00,6.0,51.428,0.625,"Otter Trawl Solent Bass Trawl 5 fm Headline, 6 & 8 metre bridles, 40mm Liner"
18,W,107111101,V,25/11/1999 13:00:00,2.0,51.426,0.650,"Otter Trawl Solent Bass Trawl 5 fm Headline, 6 & 8 metre bridles, 40mm Liner"
19,X,107111101,V,25/11/1999 13:50:00,2.0,51.443,0.728,"Otter Trawl Solent Bass Trawl 5 fm Headline, 6 & 8 metre bridles, 40mm Liner"
20,X,107111101,V,25/11/1999 14:20:00,4.0,51.445,0.730,"Otter Trawl Solent Bass Trawl 5 fm Headline, 6 & 8 metre bridles, 40mm Liner"
21,D,107111101,V,26/11/1999 06:40:00,4.0,51.496,0.501,"Otter Trawl Solent Bass Trawl 5 fm Headline, 6 & 8 metre bridles, 40mm Liner"
22,E,107111101,V,26/11/1999 08:48:00,4.0,51.470,0.323,"Otter Trawl Solent Bass Trawl 5 fm Headline, 6 & 8 metre bridles, 40mm Liner"
23,F,107111101,V,26/11/1999 09:19:00,6.0,51.460,0.300,"Otter Trawl Solent Bass Trawl 5 fm Headline, 6 & 8 metre bridles, 40mm Liner"
24,G,107111101,V,26/11/1999 10:46:00,1.0,51.513,0.153,"Otter Trawl Solent Bass Trawl 5 fm Headline, 6 & 8 metre bridles, 40mm Liner"
25,G1,107111101,V,26/11/1999 11:08:00,9.0,51.511,0.145,"Otter Trawl Solent Bass Trawl 5 fm Headline, 6 & 8 metre bridles, 40mm Liner"
26,F,107111101,V,26/11/1999 12:45:00,12.0,51.455,0.285,"Otter Trawl Solent Bass Trawl 5 fm Headline, 6 & 8 metre bridles, 40mm Liner"
27,E1,107111101,V,26/11/1999 13:10:00,4.0,51.471,0.311,"Otter Trawl Solent Bass Trawl 5 fm Headline, 6 & 8 metre bridles, 40mm Liner"
