﻿StationNumber,PrimeStation,GearCode,Validity,DeploymentDateTime,DeploymentDepthM,DeploymentLatitude,DeploymentLongitude,GearDescription
1,S,107111102,V,24/11/2006 07:41:42,5.2,51.378,0.968,Solent Bass Trawl  Port
1,S,107111103,V,24/11/2006 07:41:42,5.2,51.378,0.968,Solent Bass Trawl  Star
2,T,107111102,V,24/11/2006 08:34:42,5.6,51.349,0.920,Solent Bass Trawl  Port
2,T,107111103,V,24/11/2006 08:34:42,5.6,51.349,0.920,Solent Bass Trawl  Star
3,U,107111102,V,24/11/2006 10:10:42,1.5,51.359,0.853,Solent Bass Trawl  Port
3,U,107111103,V,24/11/2006 10:10:42,1.5,51.359,0.853,Solent Bass Trawl  Star
4,SA,107111102,V,24/11/2006 11:15:42,2.2,51.364,0.812,Solent Bass Trawl  Port
4,SA,107111103,V,24/11/2006 11:15:42,2.2,51.364,0.812,Solent Bass Trawl  Star
5,CD,107111102,V,25/11/2006 07:28:42,4.0,51.627,0.956,Solent Bass Trawl  Port
5,CD,107111103,V,25/11/2006 07:28:42,4.0,51.627,0.956,Solent Bass Trawl  Star
6,CA,107111102,V,25/11/2006 08:15:42,8.0,51.619,0.896,Solent Bass Trawl  Port
6,CA,107111103,V,25/11/2006 08:15:42,8.0,51.619,0.896,Solent Bass Trawl  Star
7,RA,107111102,V,25/11/2006 09:22:42,6.2,51.597,0.828,Solent Bass Trawl  Port
7,RA,107111103,V,25/11/2006 09:22:42,6.2,51.597,0.828,Solent Bass Trawl  Star
8,RB,107111102,V,25/11/2006 11:04:42,6.9,51.594,0.850,Solent Bass Trawl  Port
8,RB,107111103,V,25/11/2006 11:04:42,6.9,51.594,0.850,Solent Bass Trawl  Star
9,CB,107111102,V,25/11/2006 12:37:42,7.9,51.634,0.732,Solent Bass Trawl  Port
9,CB,107111103,V,25/11/2006 12:37:42,7.9,51.634,0.732,Solent Bass Trawl  Star
10,CC,107111102,V,25/11/2006 13:28:42,11.1,51.637,0.767,Solent Bass Trawl  Port
10,CC,107111103,V,25/11/2006 13:28:42,11.1,51.637,0.767,Solent Bass Trawl  Star
11,BA,107111102,V,26/11/2006 07:32:42,9.9,51.746,0.997,Solent Bass Trawl  Port
11,BA,107111103,V,26/11/2006 07:32:42,9.9,51.746,0.997,Solent Bass Trawl  Star
12,BB,107111102,V,26/11/2006 08:31:42,13.2,51.755,0.919,Solent Bass Trawl  Port
12,BB,107111103,V,26/11/2006 08:31:42,13.2,51.755,0.919,Solent Bass Trawl  Star
13,BC,107111102,V,26/11/2006 09:25:42,10.1,51.749,0.894,Solent Bass Trawl  Port
13,BC,107111103,V,26/11/2006 09:25:42,10.1,51.749,0.894,Solent Bass Trawl  Star
14,MHS,107111102,V,26/11/2006 10:22:42,4.8,51.723,0.814,Solent Bass Trawl  Port
14,MHS,107111103,V,26/11/2006 10:22:42,4.8,51.723,0.814,Solent Bass Trawl  Star
15,BD,107111102,V,26/11/2006 11:00:42,5.6,51.727,0.844,Solent Bass Trawl  Port
15,BD,107111103,V,26/11/2006 11:00:42,5.6,51.727,0.844,Solent Bass Trawl  Star
16,L,107111102,V,27/11/2006 07:26:42,4.6,51.508,0.867,Solent Bass Trawl  Port
16,L,107111103,V,27/11/2006 07:26:42,4.6,51.508,0.867,Solent Bass Trawl  Star
17,O,107111102,V,27/11/2006 08:25:42,6.2,51.470,0.823,Solent Bass Trawl  Port
17,O,107111103,V,27/11/2006 08:25:42,6.2,51.470,0.823,Solent Bass Trawl  Star
18,K,107111102,V,27/11/2006 08:26:42,5.6,51.503,0.775,Solent Bass Trawl  Port
18,K,107111103,V,27/11/2006 08:26:42,5.6,51.503,0.775,Solent Bass Trawl  Star
19,P,107111102,V,27/11/2006 10:14:42,5.2,51.510,0.717,Solent Bass Trawl  Port
19,P,107111103,V,27/11/2006 10:14:42,5.2,51.510,0.717,Solent Bass Trawl  Star
20,M,107111102,V,27/11/2006 11:05:42,3.1,51.489,0.683,Solent Bass Trawl  Port
20,M,107111103,V,27/11/2006 11:05:42,3.1,51.489,0.683,Solent Bass Trawl  Star
21,J1,107111102,V,27/11/2006 12:02:42,7.7,51.512,0.670,Solent Bass Trawl  Port
21,J1,107111103,V,27/11/2006 12:02:42,7.7,51.512,0.670,Solent Bass Trawl  Star
22,A,107111102,V,27/11/2006 13:20:42,,51.483,0.556,Solent Bass Trawl  Port
22,A,107111103,V,27/11/2006 13:20:42,,51.483,0.556,Solent Bass Trawl  Star
23,A1,107111102,V,27/11/2006 14:18:42,4.0,51.497,0.512,Solent Bass Trawl  Port
23,A1,107111103,V,27/11/2006 14:18:42,4.0,51.497,0.512,Solent Bass Trawl  Star
24,J,107111102,V,27/11/2006 15:40:42,5.5,51.515,0.664,Solent Bass Trawl  Port
24,J,107111103,V,27/11/2006 15:40:42,5.5,51.515,0.664,Solent Bass Trawl  Star
25,W,107111102,V,28/11/2006 08:03:42,13.1,51.459,0.750,Solent Bass Trawl  Port
25,W,107111103,V,28/11/2006 08:03:42,13.1,51.459,0.750,Solent Bass Trawl  Star
26,MA,107111102,V,28/11/2006 09:02:42,7.3,51.410,0.694,Solent Bass Trawl  Port
26,MA,107111103,V,28/11/2006 09:02:42,7.3,51.410,0.694,Solent Bass Trawl  Star
27,HA,107111102,V,28/11/2006 10:55:42,,51.408,0.649,Solent Bass Trawl  Port
27,HA,107111103,V,28/11/2006 10:55:42,,51.408,0.649,Solent Bass Trawl  Star
28,W,107111102,V,28/11/2006 12:57:42,4.0,51.423,0.651,Solent Bass Trawl  Port
28,W,107111103,V,28/11/2006 12:57:42,4.0,51.423,0.651,Solent Bass Trawl  Star
29,V,107111102,V,28/11/2006 14:17:42,1.6,51.429,0.621,Solent Bass Trawl  Port
29,V,107111103,V,28/11/2006 14:17:42,1.6,51.429,0.621,Solent Bass Trawl  Star
30,X,107111102,V,28/11/2006 15:58:42,5.5,51.435,0.720,Solent Bass Trawl  Port
30,X,107111103,V,28/11/2006 15:58:42,5.5,51.435,0.720,Solent Bass Trawl  Star
31,A1,107111102,V,29/11/2006 08:12:42,4.4,51.497,0.534,Solent Bass Trawl  Port
31,A1,107111103,V,29/11/2006 08:12:42,4.4,51.497,0.534,Solent Bass Trawl  Star
32,D,107111102,V,29/11/2006 08:57:42,5.5,51.495,0.494,Solent Bass Trawl  Port
32,D,107111103,V,29/11/2006 08:57:42,5.5,51.495,0.494,Solent Bass Trawl  Star
33,E1,107111102,V,29/11/2006 10:55:42,4.5,51.469,0.322,Solent Bass Trawl  Port
33,E1,107111103,V,29/11/2006 10:55:42,4.5,51.469,0.322,Solent Bass Trawl  Star
34,F,107111102,V,29/11/2006 11:26:42,,51.462,0.315,Solent Bass Trawl  Port
34,F,107111103,V,29/11/2006 11:26:42,,51.462,0.315,Solent Bass Trawl  Star
35,G,107111102,V,29/11/2006 12:58:42,7.7,51.511,0.150,Solent Bass Trawl  Port
35,G,107111103,V,29/11/2006 12:58:42,7.7,51.511,0.150,Solent Bass Trawl  Star
36,G1,107111102,V,29/11/2006 13:31:42,4.4,51.510,0.144,Solent Bass Trawl  Port
36,G1,107111103,V,29/11/2006 13:31:42,4.4,51.510,0.144,Solent Bass Trawl  Star
