﻿SpeciesCode,ScientificName,CommonName,StationNumber,PrimeStation,GearDescription,ProcessCode,Validity,DeploymentDateTime,DeploymentDepth,DeploymentLatitude,DeploymentLongitude
BIB,TRISOPTERUS LUSCUS,Whiting-pout (bib),1,L,Solent Bass Trawl  Port,MO,Valid,02/11/2004 07:10:02,7.0,51.506,0.857
BIB,TRISOPTERUS LUSCUS,Whiting-pout (bib),1,L,Solent Bass Trawl  Star,MO,Valid,02/11/2004 07:10:02,7.0,51.506,0.857
BIB,TRISOPTERUS LUSCUS,Whiting-pout (bib),2,O,Solent Bass Trawl  Port,MO,Valid,02/11/2004 08:02:02,6.1,51.478,0.825
BIB,TRISOPTERUS LUSCUS,Whiting-pout (bib),2,O,Solent Bass Trawl  Star,MO,Valid,02/11/2004 08:02:02,6.1,51.478,0.825
BIB,TRISOPTERUS LUSCUS,Whiting-pout (bib),3,K,Solent Bass Trawl  Port,MO,Valid,02/11/2004 09:06:02,5.1,51.506,0.757
BIB,TRISOPTERUS LUSCUS,Whiting-pout (bib),3,K,Solent Bass Trawl  Star,MO,Valid,02/11/2004 09:06:02,5.1,51.506,0.757
BIB,TRISOPTERUS LUSCUS,Whiting-pout (bib),35,G1,Solent Bass Trawl  Port,MO,Valid,07/11/2004 14:47:02,4.2,51.510,0.144
BIB,TRISOPTERUS LUSCUS,Whiting-pout (bib),31,D,Solent Bass Trawl  Star,MO,Valid,07/11/2004 09:07:02,5.1,51.494,0.493
BIB,TRISOPTERUS LUSCUS,Whiting-pout (bib),32,E1,Solent Bass Trawl  Port,MO,Valid,07/11/2004 10:59:02,4.5,51.470,0.321
BIB,TRISOPTERUS LUSCUS,Whiting-pout (bib),32,E1,Solent Bass Trawl  Star,MO,Valid,07/11/2004 10:59:02,4.5,51.470,0.321
BIB,TRISOPTERUS LUSCUS,Whiting-pout (bib),33,F,Solent Bass Trawl  Port,MO,Valid,07/11/2004 11:31:02,6.4,51.460,0.301
BIB,TRISOPTERUS LUSCUS,Whiting-pout (bib),33,F,Solent Bass Trawl  Star,MO,Valid,07/11/2004 11:31:02,6.4,51.460,0.301
BIB,TRISOPTERUS LUSCUS,Whiting-pout (bib),34,G,Solent Bass Trawl  Star,MO,Valid,07/11/2004 13:48:02,6.7,51.513,0.146
BIB,TRISOPTERUS LUSCUS,Whiting-pout (bib),29,S,Solent Bass Trawl  Port,MO,Valid,06/11/2004 11:38:02,5.1,51.378,0.967
BIB,TRISOPTERUS LUSCUS,Whiting-pout (bib),29,S,Solent Bass Trawl  Star,CO,Valid,06/11/2004 11:38:02,5.1,51.378,0.967
BIB,TRISOPTERUS LUSCUS,Whiting-pout (bib),30,A1,Solent Bass Trawl  Port,MO,Valid,07/11/2004 08:23:02,5.7,51.497,0.526
BIB,TRISOPTERUS LUSCUS,Whiting-pout (bib),30,A1,Solent Bass Trawl  Star,MO,Valid,07/11/2004 08:23:02,5.7,51.497,0.526
BIB,TRISOPTERUS LUSCUS,Whiting-pout (bib),31,D,Solent Bass Trawl  Port,MO,Valid,07/11/2004 09:07:02,5.1,51.494,0.493
BIB,TRISOPTERUS LUSCUS,Whiting-pout (bib),22,BB,Solent Bass Trawl  Port,MO,Valid,05/11/2004 09:31:02,10.9,51.754,0.927
BIB,TRISOPTERUS LUSCUS,Whiting-pout (bib),22,BB,Solent Bass Trawl  Star,CO,Valid,05/11/2004 09:31:02,10.9,51.754,0.927
BIB,TRISOPTERUS LUSCUS,Whiting-pout (bib),23,BC,Solent Bass Trawl  Port,MO,Valid,05/11/2004 10:22:02,11.2,51.749,0.893
BIB,TRISOPTERUS LUSCUS,Whiting-pout (bib),23,BC,Solent Bass Trawl  Star,MO,Valid,05/11/2004 10:22:02,11.2,51.749,0.893
BIB,TRISOPTERUS LUSCUS,Whiting-pout (bib),28,T,Solent Bass Trawl  Port,MO,Valid,06/11/2004 10:42:02,4.2,51.353,0.927
BIB,TRISOPTERUS LUSCUS,Whiting-pout (bib),28,T,Solent Bass Trawl  Star,MO,Valid,06/11/2004 10:42:02,4.2,51.353,0.927
BIB,TRISOPTERUS LUSCUS,Whiting-pout (bib),18,RA,Solent Bass Trawl  Star,MO,Valid,04/11/2004 10:05:02,5.1,51.595,0.844
BIB,TRISOPTERUS LUSCUS,Whiting-pout (bib),19,CB,Solent Bass Trawl  Port,MO,Valid,04/11/2004 11:52:02,4.2,51.633,0.735
BIB,TRISOPTERUS LUSCUS,Whiting-pout (bib),20,CC,Solent Bass Trawl  Port,MO,Valid,04/11/2004 12:33:02,7.6,51.636,0.771
BIB,TRISOPTERUS LUSCUS,Whiting-pout (bib),20,CC,Solent Bass Trawl  Star,MO,Valid,04/11/2004 12:33:02,7.6,51.636,0.771
BIB,TRISOPTERUS LUSCUS,Whiting-pout (bib),21,BA,Solent Bass Trawl  Port,MO,Valid,05/11/2004 08:31:02,10.9,51.745,0.999
BIB,TRISOPTERUS LUSCUS,Whiting-pout (bib),21,BA,Solent Bass Trawl  Star,MO,Valid,05/11/2004 08:31:02,10.9,51.745,0.999
BIB,TRISOPTERUS LUSCUS,Whiting-pout (bib),15,CD,Solent Bass Trawl  Star,MO,Valid,04/11/2004 07:49:02,5.1,51.628,0.956
BIB,TRISOPTERUS LUSCUS,Whiting-pout (bib),16,CA,Solent Bass Trawl  Port,MO,Valid,04/11/2004 08:38:02,10.3,51.619,0.892
BIB,TRISOPTERUS LUSCUS,Whiting-pout (bib),16,CA,Solent Bass Trawl  Star,MO,Valid,04/11/2004 08:38:02,10.3,51.619,0.892
BIB,TRISOPTERUS LUSCUS,Whiting-pout (bib),17,RB,Solent Bass Trawl  Port,MO,Valid,04/11/2004 09:20:02,6.7,51.601,0.870
BIB,TRISOPTERUS LUSCUS,Whiting-pout (bib),17,RB,Solent Bass Trawl  Star,MO,Valid,04/11/2004 09:20:02,6.7,51.601,0.870
BIB,TRISOPTERUS LUSCUS,Whiting-pout (bib),18,RA,Solent Bass Trawl  Port,MO,Valid,04/11/2004 10:05:02,5.1,51.595,0.844
BIB,TRISOPTERUS LUSCUS,Whiting-pout (bib),10,HA,Solent Bass Trawl  Star,MO,Valid,03/11/2004 08:44:02,3.3,51.407,0.649
BIB,TRISOPTERUS LUSCUS,Whiting-pout (bib),13,X,Solent Bass Trawl  Port,MO,Valid,03/11/2004 12:23:02,3.3,51.435,0.720
BIB,TRISOPTERUS LUSCUS,Whiting-pout (bib),13,X,Solent Bass Trawl  Star,MO,Valid,03/11/2004 12:23:02,3.3,51.435,0.720
BIB,TRISOPTERUS LUSCUS,Whiting-pout (bib),14,N,Solent Bass Trawl  Port,MO,Valid,03/11/2004 13:01:02,2.4,51.452,0.739
BIB,TRISOPTERUS LUSCUS,Whiting-pout (bib),14,N,Solent Bass Trawl  Star,MO,Valid,03/11/2004 13:01:02,2.4,51.452,0.739
BIB,TRISOPTERUS LUSCUS,Whiting-pout (bib),15,CD,Solent Bass Trawl  Port,MO,Valid,04/11/2004 07:49:02,5.1,51.628,0.956
BIB,TRISOPTERUS LUSCUS,Whiting-pout (bib),7,A,Solent Bass Trawl  Port,MO,Valid,02/11/2004 13:12:02,4.5,51.496,0.558
BIB,TRISOPTERUS LUSCUS,Whiting-pout (bib),7,A,Solent Bass Trawl  Star,MO,Valid,02/11/2004 13:12:02,4.5,51.496,0.558
BIB,TRISOPTERUS LUSCUS,Whiting-pout (bib),8,J1,Solent Bass Trawl  Port,MO,Valid,02/11/2004 14:15:02,10.0,51.512,0.670
BIB,TRISOPTERUS LUSCUS,Whiting-pout (bib),8,J1,Solent Bass Trawl  Star,MO,Valid,02/11/2004 14:15:02,10.0,51.512,0.670
BIB,TRISOPTERUS LUSCUS,Whiting-pout (bib),9,MA,Solent Bass Trawl  Port,MO,Valid,03/11/2004 07:22:02,7.6,51.411,0.694
BIB,TRISOPTERUS LUSCUS,Whiting-pout (bib),9,MA,Solent Bass Trawl  Star,MO,Valid,03/11/2004 07:22:02,7.6,51.411,0.694
BIB,TRISOPTERUS LUSCUS,Whiting-pout (bib),4,P,Solent Bass Trawl  Port,MO,Valid,02/11/2004 10:09:02,5.7,51.516,0.697
BIB,TRISOPTERUS LUSCUS,Whiting-pout (bib),4,P,Solent Bass Trawl  Star,MO,Valid,02/11/2004 10:09:02,5.7,51.516,0.697
BIB,TRISOPTERUS LUSCUS,Whiting-pout (bib),5,M,Solent Bass Trawl  Port,MO,Valid,02/11/2004 11:11:02,2.7,51.488,0.683
BIB,TRISOPTERUS LUSCUS,Whiting-pout (bib),5,M,Solent Bass Trawl  Star,MO,Valid,02/11/2004 11:11:02,2.7,51.488,0.683
BIB,TRISOPTERUS LUSCUS,Whiting-pout (bib),6,J,Solent Bass Trawl  Port,MO,Valid,02/11/2004 12:05:02,4.5,51.514,0.662
BIB,TRISOPTERUS LUSCUS,Whiting-pout (bib),6,J,Solent Bass Trawl  Star,MO,Valid,02/11/2004 12:05:02,4.5,51.514,0.662
BLL,SCOPHTHALMUS RHOMBUS,Brill,1,L,Solent Bass Trawl  Port,MO,Valid,02/11/2004 07:10:02,7.0,51.506,0.857
BLL,SCOPHTHALMUS RHOMBUS,Brill,3,K,Solent Bass Trawl  Port,MO,Valid,02/11/2004 09:06:02,5.1,51.506,0.757
BLL,SCOPHTHALMUS RHOMBUS,Brill,3,K,Solent Bass Trawl  Star,MO,Valid,02/11/2004 09:06:02,5.1,51.506,0.757
BLL,SCOPHTHALMUS RHOMBUS,Brill,4,P,Solent Bass Trawl  Star,MO,Valid,02/11/2004 10:09:02,5.7,51.516,0.697
BLL,SCOPHTHALMUS RHOMBUS,Brill,14,N,Solent Bass Trawl  Port,MO,Valid,03/11/2004 13:01:02,2.4,51.452,0.739
BLL,SCOPHTHALMUS RHOMBUS,Brill,14,N,Solent Bass Trawl  Star,MO,Valid,03/11/2004 13:01:02,2.4,51.452,0.739
BRT,MYOXOCEPHALUS SCORPIUS,Bullrout,3,K,Solent Bass Trawl  Port,MO,Valid,02/11/2004 09:06:02,5.1,51.506,0.757
BRT,MYOXOCEPHALUS SCORPIUS,Bullrout,3,K,Solent Bass Trawl  Star,MO,Valid,02/11/2004 09:06:02,5.1,51.506,0.757
BRT,MYOXOCEPHALUS SCORPIUS,Bullrout,33,F,Solent Bass Trawl  Port,MO,Valid,07/11/2004 11:31:02,6.4,51.460,0.301
BRT,MYOXOCEPHALUS SCORPIUS,Bullrout,33,F,Solent Bass Trawl  Star,MO,Valid,07/11/2004 11:31:02,6.4,51.460,0.301
BRT,MYOXOCEPHALUS SCORPIUS,Bullrout,26,SA,Solent Bass Trawl  Port,MO,Valid,06/11/2004 08:47:02,3.0,51.361,0.831
BRT,MYOXOCEPHALUS SCORPIUS,Bullrout,29,S,Solent Bass Trawl  Port,MO,Valid,06/11/2004 11:38:02,5.1,51.378,0.967
BRT,MYOXOCEPHALUS SCORPIUS,Bullrout,24,MHS,Solent Bass Trawl  Port,MO,Valid,05/11/2004 11:34:02,5.7,51.724,0.815
BRT,MYOXOCEPHALUS SCORPIUS,Bullrout,18,RA,Solent Bass Trawl  Port,MO,Valid,04/11/2004 10:05:02,5.1,51.595,0.844
BRT,MYOXOCEPHALUS SCORPIUS,Bullrout,18,RA,Solent Bass Trawl  Star,MO,Valid,04/11/2004 10:05:02,5.1,51.595,0.844
BRT,MYOXOCEPHALUS SCORPIUS,Bullrout,9,MA,Solent Bass Trawl  Port,MO,Valid,03/11/2004 07:22:02,7.6,51.411,0.694
BRT,MYOXOCEPHALUS SCORPIUS,Bullrout,10,HA,Solent Bass Trawl  Port,MO,Valid,03/11/2004 08:44:02,3.3,51.407,0.649
BRT,MYOXOCEPHALUS SCORPIUS,Bullrout,10,HA,Solent Bass Trawl  Star,MO,Valid,03/11/2004 08:44:02,3.3,51.407,0.649
BRT,MYOXOCEPHALUS SCORPIUS,Bullrout,14,N,Solent Bass Trawl  Port,MO,Valid,03/11/2004 13:01:02,2.4,51.452,0.739
BTF,PHOLIS GUNNELLUS,Butter fish,3,K,Solent Bass Trawl  Port,MO,Valid,02/11/2004 09:06:02,5.1,51.506,0.757
BTF,PHOLIS GUNNELLUS,Butter fish,24,MHS,Solent Bass Trawl  Port,MO,Valid,05/11/2004 11:34:02,5.7,51.724,0.815
CDT,CALLIONYMUS LYRA,Common dragonet,1,L,Solent Bass Trawl  Port,MO,Valid,02/11/2004 07:10:02,7.0,51.506,0.857
CDT,CALLIONYMUS LYRA,Common dragonet,3,K,Solent Bass Trawl  Port,MO,Valid,02/11/2004 09:06:02,5.1,51.506,0.757
CDT,CALLIONYMUS LYRA,Common dragonet,3,K,Solent Bass Trawl  Star,MO,Valid,02/11/2004 09:06:02,5.1,51.506,0.757
CDT,CALLIONYMUS LYRA,Common dragonet,5,M,Solent Bass Trawl  Port,MO,Valid,02/11/2004 11:11:02,2.7,51.488,0.683
CDT,CALLIONYMUS LYRA,Common dragonet,8,J1,Solent Bass Trawl  Port,MO,Valid,02/11/2004 14:15:02,10.0,51.512,0.670
CDT,CALLIONYMUS LYRA,Common dragonet,9,MA,Solent Bass Trawl  Port,MO,Valid,03/11/2004 07:22:02,7.6,51.411,0.694
CDT,CALLIONYMUS LYRA,Common dragonet,24,MHS,Solent Bass Trawl  Port,MO,Valid,05/11/2004 11:34:02,5.7,51.724,0.815
CDT,CALLIONYMUS LYRA,Common dragonet,24,MHS,Solent Bass Trawl  Star,MO,Valid,05/11/2004 11:34:02,5.7,51.724,0.815
CDT,CALLIONYMUS LYRA,Common dragonet,25,BD,Solent Bass Trawl  Star,MO,Valid,05/11/2004 12:16:02,6.1,51.727,0.845
CDT,CALLIONYMUS LYRA,Common dragonet,14,N,Solent Bass Trawl  Port,MO,Valid,03/11/2004 13:01:02,2.4,51.452,0.739
CDT,CALLIONYMUS LYRA,Common dragonet,18,RA,Solent Bass Trawl  Port,MO,Valid,04/11/2004 10:05:02,5.1,51.595,0.844
CDT,CALLIONYMUS LYRA,Common dragonet,19,CB,Solent Bass Trawl  Port,MO,Valid,04/11/2004 11:52:02,4.2,51.633,0.735
CDT,CALLIONYMUS LYRA,Common dragonet,20,CC,Solent Bass Trawl  Port,MO,Valid,04/11/2004 12:33:02,7.6,51.636,0.771
CDT,CALLIONYMUS LYRA,Common dragonet,23,BC,Solent Bass Trawl  Port,MO,Valid,05/11/2004 10:22:02,11.2,51.749,0.893
CDT,CALLIONYMUS LYRA,Common dragonet,23,BC,Solent Bass Trawl  Star,MO,Valid,05/11/2004 10:22:02,11.2,51.749,0.893
COD,GADUS MORHUA,Atlantic cod,1,L,Solent Bass Trawl  Port,MO,Valid,02/11/2004 07:10:02,7.0,51.506,0.857
COD,GADUS MORHUA,Atlantic cod,3,K,Solent Bass Trawl  Port,MO,Valid,02/11/2004 09:06:02,5.1,51.506,0.757
COD,GADUS MORHUA,Atlantic cod,3,K,Solent Bass Trawl  Star,MO,Valid,02/11/2004 09:06:02,5.1,51.506,0.757
COD,GADUS MORHUA,Atlantic cod,5,M,Solent Bass Trawl  Star,MO,Valid,02/11/2004 11:11:02,2.7,51.488,0.683
COD,GADUS MORHUA,Atlantic cod,7,A,Solent Bass Trawl  Star,MO,Valid,02/11/2004 13:12:02,4.5,51.496,0.558
COD,GADUS MORHUA,Atlantic cod,8,J1,Solent Bass Trawl  Star,MO,Valid,02/11/2004 14:15:02,10.0,51.512,0.670
COD,GADUS MORHUA,Atlantic cod,31,D,Solent Bass Trawl  Port,MO,Valid,07/11/2004 09:07:02,5.1,51.494,0.493
COD,GADUS MORHUA,Atlantic cod,31,D,Solent Bass Trawl  Star,MO,Valid,07/11/2004 09:07:02,5.1,51.494,0.493
COD,GADUS MORHUA,Atlantic cod,33,F,Solent Bass Trawl  Port,MO,Valid,07/11/2004 11:31:02,6.4,51.460,0.301
COD,GADUS MORHUA,Atlantic cod,25,BD,Solent Bass Trawl  Port,MO,Valid,05/11/2004 12:16:02,6.1,51.727,0.845
COD,GADUS MORHUA,Atlantic cod,28,T,Solent Bass Trawl  Port,MO,Valid,06/11/2004 10:42:02,4.2,51.353,0.927
COD,GADUS MORHUA,Atlantic cod,28,T,Solent Bass Trawl  Star,MO,Valid,06/11/2004 10:42:02,4.2,51.353,0.927
COD,GADUS MORHUA,Atlantic cod,29,S,Solent Bass Trawl  Star,MO,Valid,06/11/2004 11:38:02,5.1,51.378,0.967
COD,GADUS MORHUA,Atlantic cod,30,A1,Solent Bass Trawl  Port,MO,Valid,07/11/2004 08:23:02,5.7,51.497,0.526
COD,GADUS MORHUA,Atlantic cod,30,A1,Solent Bass Trawl  Star,MO,Valid,07/11/2004 08:23:02,5.7,51.497,0.526
COD,GADUS MORHUA,Atlantic cod,21,BA,Solent Bass Trawl  Port,MO,Valid,05/11/2004 08:31:02,10.9,51.745,0.999
COD,GADUS MORHUA,Atlantic cod,21,BA,Solent Bass Trawl  Star,MO,Valid,05/11/2004 08:31:02,10.9,51.745,0.999
COD,GADUS MORHUA,Atlantic cod,22,BB,Solent Bass Trawl  Port,MO,Valid,05/11/2004 09:31:02,10.9,51.754,0.927
COD,GADUS MORHUA,Atlantic cod,23,BC,Solent Bass Trawl  Port,MO,Valid,05/11/2004 10:22:02,11.2,51.749,0.893
COD,GADUS MORHUA,Atlantic cod,23,BC,Solent Bass Trawl  Star,MO,Valid,05/11/2004 10:22:02,11.2,51.749,0.893
COD,GADUS MORHUA,Atlantic cod,24,MHS,Solent Bass Trawl  Port,MO,Valid,05/11/2004 11:34:02,5.7,51.724,0.815
COD,GADUS MORHUA,Atlantic cod,17,RB,Solent Bass Trawl  Star,MO,Valid,04/11/2004 09:20:02,6.7,51.601,0.870
COD,GADUS MORHUA,Atlantic cod,18,RA,Solent Bass Trawl  Port,MO,Valid,04/11/2004 10:05:02,5.1,51.595,0.844
COD,GADUS MORHUA,Atlantic cod,18,RA,Solent Bass Trawl  Star,MO,Valid,04/11/2004 10:05:02,5.1,51.595,0.844
COD,GADUS MORHUA,Atlantic cod,19,CB,Solent Bass Trawl  Port,MO,Valid,04/11/2004 11:52:02,4.2,51.633,0.735
COD,GADUS MORHUA,Atlantic cod,19,CB,Solent Bass Trawl  Star,MO,Valid,04/11/2004 11:52:02,4.2,51.633,0.735
COD,GADUS MORHUA,Atlantic cod,20,CC,Solent Bass Trawl  Port,MO,Valid,04/11/2004 12:33:02,7.6,51.636,0.771
COD,GADUS MORHUA,Atlantic cod,9,MA,Solent Bass Trawl  Port,MO,Valid,03/11/2004 07:22:02,7.6,51.411,0.694
COD,GADUS MORHUA,Atlantic cod,9,MA,Solent Bass Trawl  Star,MO,Valid,03/11/2004 07:22:02,7.6,51.411,0.694
COD,GADUS MORHUA,Atlantic cod,10,HA,Solent Bass Trawl  Port,MO,Valid,03/11/2004 08:44:02,3.3,51.407,0.649
COD,GADUS MORHUA,Atlantic cod,15,CD,Solent Bass Trawl  Port,MO,Valid,04/11/2004 07:49:02,5.1,51.628,0.956
COD,GADUS MORHUA,Atlantic cod,16,CA,Solent Bass Trawl  Port,MO,Valid,04/11/2004 08:38:02,10.3,51.619,0.892
COD,GADUS MORHUA,Atlantic cod,16,CA,Solent Bass Trawl  Star,MO,Valid,04/11/2004 08:38:02,10.3,51.619,0.892
CTC,SEPIA OFFICINALIS,Common cuttlefish,29,S,Solent Bass Trawl  Star,OB,Valid,06/11/2004 11:38:02,5.1,51.378,0.967
DAB,LIMANDA LIMANDA,Dab,1,L,Solent Bass Trawl  Port,MO,Valid,02/11/2004 07:10:02,7.0,51.506,0.857
DAB,LIMANDA LIMANDA,Dab,1,L,Solent Bass Trawl  Star,MO,Valid,02/11/2004 07:10:02,7.0,51.506,0.857
DAB,LIMANDA LIMANDA,Dab,2,O,Solent Bass Trawl  Port,MO,Valid,02/11/2004 08:02:02,6.1,51.478,0.825
DAB,LIMANDA LIMANDA,Dab,2,O,Solent Bass Trawl  Star,MO,Valid,02/11/2004 08:02:02,6.1,51.478,0.825
DAB,LIMANDA LIMANDA,Dab,3,K,Solent Bass Trawl  Port,MO,Valid,02/11/2004 09:06:02,5.1,51.506,0.757
DAB,LIMANDA LIMANDA,Dab,3,K,Solent Bass Trawl  Star,MO,Valid,02/11/2004 09:06:02,5.1,51.506,0.757
DAB,LIMANDA LIMANDA,Dab,29,S,Solent Bass Trawl  Star,MO,Valid,06/11/2004 11:38:02,5.1,51.378,0.967
DAB,LIMANDA LIMANDA,Dab,22,BB,Solent Bass Trawl  Star,MO,Valid,05/11/2004 09:31:02,10.9,51.754,0.927
DAB,LIMANDA LIMANDA,Dab,23,BC,Solent Bass Trawl  Port,MO,Valid,05/11/2004 10:22:02,11.2,51.749,0.893
DAB,LIMANDA LIMANDA,Dab,23,BC,Solent Bass Trawl  Star,MO,Valid,05/11/2004 10:22:02,11.2,51.749,0.893
DAB,LIMANDA LIMANDA,Dab,28,T,Solent Bass Trawl  Port,MO,Valid,06/11/2004 10:42:02,4.2,51.353,0.927
DAB,LIMANDA LIMANDA,Dab,28,T,Solent Bass Trawl  Star,MO,Valid,06/11/2004 10:42:02,4.2,51.353,0.927
DAB,LIMANDA LIMANDA,Dab,29,S,Solent Bass Trawl  Port,MO,Valid,06/11/2004 11:38:02,5.1,51.378,0.967
DAB,LIMANDA LIMANDA,Dab,15,CD,Solent Bass Trawl  Port,MO,Valid,04/11/2004 07:49:02,5.1,51.628,0.956
DAB,LIMANDA LIMANDA,Dab,16,CA,Solent Bass Trawl  Port,MO,Valid,04/11/2004 08:38:02,10.3,51.619,0.892
DAB,LIMANDA LIMANDA,Dab,16,CA,Solent Bass Trawl  Star,MO,Valid,04/11/2004 08:38:02,10.3,51.619,0.892
DAB,LIMANDA LIMANDA,Dab,17,RB,Solent Bass Trawl  Port,MO,Valid,04/11/2004 09:20:02,6.7,51.601,0.870
DAB,LIMANDA LIMANDA,Dab,18,RA,Solent Bass Trawl  Star,MO,Valid,04/11/2004 10:05:02,5.1,51.595,0.844
DAB,LIMANDA LIMANDA,Dab,20,CC,Solent Bass Trawl  Star,MO,Valid,04/11/2004 12:33:02,7.6,51.636,0.771
DAB,LIMANDA LIMANDA,Dab,8,J1,Solent Bass Trawl  Port,MO,Valid,02/11/2004 14:15:02,10.0,51.512,0.670
DAB,LIMANDA LIMANDA,Dab,8,J1,Solent Bass Trawl  Star,MO,Valid,02/11/2004 14:15:02,10.0,51.512,0.670
DAB,LIMANDA LIMANDA,Dab,13,X,Solent Bass Trawl  Port,MO,Valid,03/11/2004 12:23:02,3.3,51.435,0.720
DAB,LIMANDA LIMANDA,Dab,13,X,Solent Bass Trawl  Star,MO,Valid,03/11/2004 12:23:02,3.3,51.435,0.720
DAB,LIMANDA LIMANDA,Dab,14,N,Solent Bass Trawl  Port,MO,Valid,03/11/2004 13:01:02,2.4,51.452,0.739
DAB,LIMANDA LIMANDA,Dab,14,N,Solent Bass Trawl  Star,MO,Valid,03/11/2004 13:01:02,2.4,51.452,0.739
DAB,LIMANDA LIMANDA,Dab,4,P,Solent Bass Trawl  Port,MO,Valid,02/11/2004 10:09:02,5.7,51.516,0.697
DAB,LIMANDA LIMANDA,Dab,4,P,Solent Bass Trawl  Star,MO,Valid,02/11/2004 10:09:02,5.7,51.516,0.697
DAB,LIMANDA LIMANDA,Dab,5,M,Solent Bass Trawl  Port,MO,Valid,02/11/2004 11:11:02,2.7,51.488,0.683
DAB,LIMANDA LIMANDA,Dab,5,M,Solent Bass Trawl  Star,MO,Valid,02/11/2004 11:11:02,2.7,51.488,0.683
DAB,LIMANDA LIMANDA,Dab,6,J,Solent Bass Trawl  Port,CO,Valid,02/11/2004 12:05:02,4.5,51.514,0.662
DAB,LIMANDA LIMANDA,Dab,7,A,Solent Bass Trawl  Port,MO,Valid,02/11/2004 13:12:02,4.5,51.496,0.558
EEL,ANGUILLIDAE,Eels,6,J,Solent Bass Trawl  Star,CO,Valid,02/11/2004 12:05:02,4.5,51.514,0.662
EEL,ANGUILLIDAE,Eels,11,V,Solent Bass Trawl  Star,MO,Valid,03/11/2004 10:09:02,2.4,51.421,0.643
EEL,ANGUILLIDAE,Eels,18,RA,Solent Bass Trawl  Port,MO,Valid,04/11/2004 10:05:02,5.1,51.595,0.844
EEL,ANGUILLIDAE,Eels,24,MHS,Solent Bass Trawl  Port,MO,Valid,05/11/2004 11:34:02,5.7,51.724,0.815
EEL,ANGUILLIDAE,Eels,27,U,Solent Bass Trawl  Port,MO,Valid,06/11/2004 09:39:02,6.7,51.357,0.867
EEL,ANGUILLIDAE,Eels,32,E1,Solent Bass Trawl  Port,CO,Valid,07/11/2004 10:59:02,4.5,51.470,0.321
EEL,ANGUILLIDAE,Eels,35,G1,Solent Bass Trawl  Star,CO,Valid,07/11/2004 14:47:02,4.2,51.510,0.144
EEL,ANGUILLIDAE,Eels,32,E1,Solent Bass Trawl  Star,MO,Valid,07/11/2004 10:59:02,4.5,51.470,0.321
EEL,ANGUILLIDAE,Eels,33,F,Solent Bass Trawl  Port,MO,Valid,07/11/2004 11:31:02,6.4,51.460,0.301
EEL,ANGUILLIDAE,Eels,33,F,Solent Bass Trawl  Star,CO,Valid,07/11/2004 11:31:02,6.4,51.460,0.301
EEL,ANGUILLIDAE,Eels,34,G,Solent Bass Trawl  Port,MO,Valid,07/11/2004 13:48:02,6.7,51.513,0.146
EEL,ANGUILLIDAE,Eels,34,G,Solent Bass Trawl  Star,CO,Valid,07/11/2004 13:48:02,6.7,51.513,0.146
EEL,ANGUILLIDAE,Eels,35,G1,Solent Bass Trawl  Port,MO,Valid,07/11/2004 14:47:02,4.2,51.510,0.144
ELP,ZOARCES VIVIPARUS,Eelpout/viviparus blenny,6,J,Solent Bass Trawl  Port,MO,Valid,02/11/2004 12:05:02,4.5,51.514,0.662
ELP,ZOARCES VIVIPARUS,Eelpout/viviparus blenny,18,RA,Solent Bass Trawl  Port,MO,Valid,04/11/2004 10:05:02,5.1,51.595,0.844
ELP,ZOARCES VIVIPARUS,Eelpout/viviparus blenny,19,CB,Solent Bass Trawl  Port,MO,Valid,04/11/2004 11:52:02,4.2,51.633,0.735
ELP,ZOARCES VIVIPARUS,Eelpout/viviparus blenny,24,MHS,Solent Bass Trawl  Port,MO,Valid,05/11/2004 11:34:02,5.7,51.724,0.815
ESB,DICENTRARCHUS LABRAX,European seabass,1,L,Solent Bass Trawl  Port,MO,Valid,02/11/2004 07:10:02,7.0,51.506,0.857
ESB,DICENTRARCHUS LABRAX,European seabass,1,L,Solent Bass Trawl  Star,MO,Valid,02/11/2004 07:10:02,7.0,51.506,0.857
ESB,DICENTRARCHUS LABRAX,European seabass,2,O,Solent Bass Trawl  Port,MO,Valid,02/11/2004 08:02:02,6.1,51.478,0.825
ESB,DICENTRARCHUS LABRAX,European seabass,2,O,Solent Bass Trawl  Star,MO,Valid,02/11/2004 08:02:02,6.1,51.478,0.825
ESB,DICENTRARCHUS LABRAX,European seabass,3,K,Solent Bass Trawl  Port,MO,Valid,02/11/2004 09:06:02,5.1,51.506,0.757
ESB,DICENTRARCHUS LABRAX,European seabass,3,K,Solent Bass Trawl  Star,MO,Valid,02/11/2004 09:06:02,5.1,51.506,0.757
ESB,DICENTRARCHUS LABRAX,European seabass,33,F,"Otter Trawl Solent Bass Trawl 5 fm Headline, 6 & 8 metre bridles, 40mm Liner",MO,Valid,07/11/2004 11:31:02,6.4,51.460,0.301
ESB,DICENTRARCHUS LABRAX,European seabass,34,G,Solent Bass Trawl  Port,MO,Valid,07/11/2004 13:48:02,6.7,51.513,0.146
ESB,DICENTRARCHUS LABRAX,European seabass,34,G,Solent Bass Trawl  Star,MO,Valid,07/11/2004 13:48:02,6.7,51.513,0.146
ESB,DICENTRARCHUS LABRAX,European seabass,35,G1,Solent Bass Trawl  Port,MO,Valid,07/11/2004 14:47:02,4.2,51.510,0.144
ESB,DICENTRARCHUS LABRAX,European seabass,35,G1,Solent Bass Trawl  Star,MO,Valid,07/11/2004 14:47:02,4.2,51.510,0.144
ESB,DICENTRARCHUS LABRAX,European seabass,27,U,Solent Bass Trawl  Star,MO,Valid,06/11/2004 09:39:02,6.7,51.357,0.867
ESB,DICENTRARCHUS LABRAX,European seabass,28,T,Solent Bass Trawl  Port,MO,Valid,06/11/2004 10:42:02,4.2,51.353,0.927
ESB,DICENTRARCHUS LABRAX,European seabass,28,T,Solent Bass Trawl  Star,MO,Valid,06/11/2004 10:42:02,4.2,51.353,0.927
ESB,DICENTRARCHUS LABRAX,European seabass,29,S,Solent Bass Trawl  Port,MO,Valid,06/11/2004 11:38:02,5.1,51.378,0.967
ESB,DICENTRARCHUS LABRAX,European seabass,29,S,Solent Bass Trawl  Star,MO,Valid,06/11/2004 11:38:02,5.1,51.378,0.967
ESB,DICENTRARCHUS LABRAX,European seabass,32,E1,Solent Bass Trawl  Star,MO,Valid,07/11/2004 10:59:02,4.5,51.470,0.321
ESB,DICENTRARCHUS LABRAX,European seabass,24,MHS,Solent Bass Trawl  Star,MO,Valid,05/11/2004 11:34:02,5.7,51.724,0.815
ESB,DICENTRARCHUS LABRAX,European seabass,25,BD,Solent Bass Trawl  Port,MO,Valid,05/11/2004 12:16:02,6.1,51.727,0.845
ESB,DICENTRARCHUS LABRAX,European seabass,25,BD,Solent Bass Trawl  Star,MO,Valid,05/11/2004 12:16:02,6.1,51.727,0.845
ESB,DICENTRARCHUS LABRAX,European seabass,26,SA,Solent Bass Trawl  Port,MO,Valid,06/11/2004 08:47:02,3.0,51.361,0.831
ESB,DICENTRARCHUS LABRAX,European seabass,26,SA,Solent Bass Trawl  Star,MO,Valid,06/11/2004 08:47:02,3.0,51.361,0.831
ESB,DICENTRARCHUS LABRAX,European seabass,27,U,Solent Bass Trawl  Port,MO,Valid,06/11/2004 09:39:02,6.7,51.357,0.867
ESB,DICENTRARCHUS LABRAX,European seabass,20,CC,Solent Bass Trawl  Star,MO,Valid,04/11/2004 12:33:02,7.6,51.636,0.771
ESB,DICENTRARCHUS LABRAX,European seabass,22,BB,Solent Bass Trawl  Port,MO,Valid,05/11/2004 09:31:02,10.9,51.754,0.927
ESB,DICENTRARCHUS LABRAX,European seabass,22,BB,Solent Bass Trawl  Star,MO,Valid,05/11/2004 09:31:02,10.9,51.754,0.927
ESB,DICENTRARCHUS LABRAX,European seabass,23,BC,Solent Bass Trawl  Port,MO,Valid,05/11/2004 10:22:02,11.2,51.749,0.893
ESB,DICENTRARCHUS LABRAX,European seabass,23,BC,Solent Bass Trawl  Star,MO,Valid,05/11/2004 10:22:02,11.2,51.749,0.893
ESB,DICENTRARCHUS LABRAX,European seabass,24,MHS,Solent Bass Trawl  Port,MO,Valid,05/11/2004 11:34:02,5.7,51.724,0.815
ESB,DICENTRARCHUS LABRAX,European seabass,17,RB,Solent Bass Trawl  Star,MO,Valid,04/11/2004 09:20:02,6.7,51.601,0.870
ESB,DICENTRARCHUS LABRAX,European seabass,18,RA,Solent Bass Trawl  Port,MO,Valid,04/11/2004 10:05:02,5.1,51.595,0.844
ESB,DICENTRARCHUS LABRAX,European seabass,18,RA,Solent Bass Trawl  Star,MO,Valid,04/11/2004 10:05:02,5.1,51.595,0.844
ESB,DICENTRARCHUS LABRAX,European seabass,19,CB,Solent Bass Trawl  Port,MO,Valid,04/11/2004 11:52:02,4.2,51.633,0.735
ESB,DICENTRARCHUS LABRAX,European seabass,19,CB,Solent Bass Trawl  Star,MO,Valid,04/11/2004 11:52:02,4.2,51.633,0.735
ESB,DICENTRARCHUS LABRAX,European seabass,20,CC,Solent Bass Trawl  Port,MO,Valid,04/11/2004 12:33:02,7.6,51.636,0.771
ESB,DICENTRARCHUS LABRAX,European seabass,13,X,Solent Bass Trawl  Port,MO,Valid,03/11/2004 12:23:02,3.3,51.435,0.720
ESB,DICENTRARCHUS LABRAX,European seabass,13,X,Solent Bass Trawl  Star,MO,Valid,03/11/2004 12:23:02,3.3,51.435,0.720
ESB,DICENTRARCHUS LABRAX,European seabass,14,N,Solent Bass Trawl  Port,MO,Valid,03/11/2004 13:01:02,2.4,51.452,0.739
ESB,DICENTRARCHUS LABRAX,European seabass,14,N,Solent Bass Trawl  Star,MO,Valid,03/11/2004 13:01:02,2.4,51.452,0.739
ESB,DICENTRARCHUS LABRAX,European seabass,16,CA,Solent Bass Trawl  Star,MO,Valid,04/11/2004 08:38:02,10.3,51.619,0.892
ESB,DICENTRARCHUS LABRAX,European seabass,17,RB,Solent Bass Trawl  Port,MO,Valid,04/11/2004 09:20:02,6.7,51.601,0.870
ESB,DICENTRARCHUS LABRAX,European seabass,10,HA,Solent Bass Trawl  Port,MO,Valid,03/11/2004 08:44:02,3.3,51.407,0.649
ESB,DICENTRARCHUS LABRAX,European seabass,10,HA,Solent Bass Trawl  Star,MO,Valid,03/11/2004 08:44:02,3.3,51.407,0.649
ESB,DICENTRARCHUS LABRAX,European seabass,11,V,Solent Bass Trawl  Port,MO,Valid,03/11/2004 10:09:02,2.4,51.421,0.643
ESB,DICENTRARCHUS LABRAX,European seabass,11,V,Solent Bass Trawl  Star,MO,Valid,03/11/2004 10:09:02,2.4,51.421,0.643
ESB,DICENTRARCHUS LABRAX,European seabass,12,W,Solent Bass Trawl  Port,MO,Valid,03/11/2004 11:31:02,4.5,51.422,0.650
ESB,DICENTRARCHUS LABRAX,European seabass,12,W,Solent Bass Trawl  Star,MO,Valid,03/11/2004 11:31:02,4.5,51.422,0.650
ESB,DICENTRARCHUS LABRAX,European seabass,7,A,Solent Bass Trawl  Port,MO,Valid,02/11/2004 13:12:02,4.5,51.496,0.558
ESB,DICENTRARCHUS LABRAX,European seabass,7,A,Solent Bass Trawl  Star,MO,Valid,02/11/2004 13:12:02,4.5,51.496,0.558
ESB,DICENTRARCHUS LABRAX,European seabass,8,J1,Solent Bass Trawl  Port,MO,Valid,02/11/2004 14:15:02,10.0,51.512,0.670
ESB,DICENTRARCHUS LABRAX,European seabass,8,J1,Solent Bass Trawl  Star,MO,Valid,02/11/2004 14:15:02,10.0,51.512,0.670
ESB,DICENTRARCHUS LABRAX,European seabass,9,MA,Solent Bass Trawl  Port,MO,Valid,03/11/2004 07:22:02,7.6,51.411,0.694
ESB,DICENTRARCHUS LABRAX,European seabass,9,MA,Solent Bass Trawl  Star,MO,Valid,03/11/2004 07:22:02,7.6,51.411,0.694
ESB,DICENTRARCHUS LABRAX,European seabass,4,P,Solent Bass Trawl  Port,MO,Valid,02/11/2004 10:09:02,5.7,51.516,0.697
ESB,DICENTRARCHUS LABRAX,European seabass,4,P,Solent Bass Trawl  Star,MO,Valid,02/11/2004 10:09:02,5.7,51.516,0.697
ESB,DICENTRARCHUS LABRAX,European seabass,5,M,Solent Bass Trawl  Port,MO,Valid,02/11/2004 11:11:02,2.7,51.488,0.683
ESB,DICENTRARCHUS LABRAX,European seabass,5,M,Solent Bass Trawl  Star,MO,Valid,02/11/2004 11:11:02,2.7,51.488,0.683
ESB,DICENTRARCHUS LABRAX,European seabass,6,J,Solent Bass Trawl  Port,MO,Valid,02/11/2004 12:05:02,4.5,51.514,0.662
ESB,DICENTRARCHUS LABRAX,European seabass,6,J,Solent Bass Trawl  Star,MO,Valid,02/11/2004 12:05:02,4.5,51.514,0.662
FLE,PLATICHTHYS FLESUS,Flounder (european),1,L,Solent Bass Trawl  Port,MO,Valid,02/11/2004 07:10:02,7.0,51.506,0.857
FLE,PLATICHTHYS FLESUS,Flounder (european),1,L,Solent Bass Trawl  Star,MO,Valid,02/11/2004 07:10:02,7.0,51.506,0.857
FLE,PLATICHTHYS FLESUS,Flounder (european),3,K,Solent Bass Trawl  Port,MO,Valid,02/11/2004 09:06:02,5.1,51.506,0.757
FLE,PLATICHTHYS FLESUS,Flounder (european),3,K,Solent Bass Trawl  Star,MO,Valid,02/11/2004 09:06:02,5.1,51.506,0.757
FLE,PLATICHTHYS FLESUS,Flounder (european),4,P,Solent Bass Trawl  Port,MO,Valid,02/11/2004 10:09:02,5.7,51.516,0.697
FLE,PLATICHTHYS FLESUS,Flounder (european),4,P,Solent Bass Trawl  Star,MO,Valid,02/11/2004 10:09:02,5.7,51.516,0.697
FLE,PLATICHTHYS FLESUS,Flounder (european),35,G1,Solent Bass Trawl  Star,MO,Valid,07/11/2004 14:47:02,4.2,51.510,0.144
FLE,PLATICHTHYS FLESUS,Flounder (european),32,E1,Solent Bass Trawl  Star,MO,Valid,07/11/2004 10:59:02,4.5,51.470,0.321
FLE,PLATICHTHYS FLESUS,Flounder (european),33,F,Solent Bass Trawl  Port,MO,Valid,07/11/2004 11:31:02,6.4,51.460,0.301
FLE,PLATICHTHYS FLESUS,Flounder (european),33,F,Solent Bass Trawl  Star,MO,Valid,07/11/2004 11:31:02,6.4,51.460,0.301
FLE,PLATICHTHYS FLESUS,Flounder (european),34,G,Solent Bass Trawl  Port,MO,Valid,07/11/2004 13:48:02,6.7,51.513,0.146
FLE,PLATICHTHYS FLESUS,Flounder (european),34,G,Solent Bass Trawl  Star,MO,Valid,07/11/2004 13:48:02,6.7,51.513,0.146
FLE,PLATICHTHYS FLESUS,Flounder (european),35,G1,Solent Bass Trawl  Port,MO,Valid,07/11/2004 14:47:02,4.2,51.510,0.144
FLE,PLATICHTHYS FLESUS,Flounder (european),29,S,Solent Bass Trawl  Star,MO,Valid,06/11/2004 11:38:02,5.1,51.378,0.967
FLE,PLATICHTHYS FLESUS,Flounder (european),30,A1,Solent Bass Trawl  Port,MO,Valid,07/11/2004 08:23:02,5.7,51.497,0.526
FLE,PLATICHTHYS FLESUS,Flounder (european),30,A1,Solent Bass Trawl  Star,MO,Valid,07/11/2004 08:23:02,5.7,51.497,0.526
FLE,PLATICHTHYS FLESUS,Flounder (european),31,D,Solent Bass Trawl  Port,MO,Valid,07/11/2004 09:07:02,5.1,51.494,0.493
FLE,PLATICHTHYS FLESUS,Flounder (european),31,D,Solent Bass Trawl  Star,MO,Valid,07/11/2004 09:07:02,5.1,51.494,0.493
FLE,PLATICHTHYS FLESUS,Flounder (european),32,E1,Solent Bass Trawl  Port,MO,Valid,07/11/2004 10:59:02,4.5,51.470,0.321
FLE,PLATICHTHYS FLESUS,Flounder (european),26,SA,Solent Bass Trawl  Port,MO,Valid,06/11/2004 08:47:02,3.0,51.361,0.831
FLE,PLATICHTHYS FLESUS,Flounder (european),27,U,Solent Bass Trawl  Port,MO,Valid,06/11/2004 09:39:02,6.7,51.357,0.867
FLE,PLATICHTHYS FLESUS,Flounder (european),27,U,Solent Bass Trawl  Star,MO,Valid,06/11/2004 09:39:02,6.7,51.357,0.867
FLE,PLATICHTHYS FLESUS,Flounder (european),28,T,Solent Bass Trawl  Port,MO,Valid,06/11/2004 10:42:02,4.2,51.353,0.927
FLE,PLATICHTHYS FLESUS,Flounder (european),28,T,Solent Bass Trawl  Star,MO,Valid,06/11/2004 10:42:02,4.2,51.353,0.927
FLE,PLATICHTHYS FLESUS,Flounder (european),29,S,Solent Bass Trawl  Port,MO,Valid,06/11/2004 11:38:02,5.1,51.378,0.967
FLE,PLATICHTHYS FLESUS,Flounder (european),22,BB,Solent Bass Trawl  Port,MO,Valid,05/11/2004 09:31:02,10.9,51.754,0.927
FLE,PLATICHTHYS FLESUS,Flounder (european),22,BB,Solent Bass Trawl  Star,MO,Valid,05/11/2004 09:31:02,10.9,51.754,0.927
FLE,PLATICHTHYS FLESUS,Flounder (european),23,BC,Solent Bass Trawl  Port,MO,Valid,05/11/2004 10:22:02,11.2,51.749,0.893
FLE,PLATICHTHYS FLESUS,Flounder (european),24,MHS,Solent Bass Trawl  Port,MO,Valid,05/11/2004 11:34:02,5.7,51.724,0.815
FLE,PLATICHTHYS FLESUS,Flounder (european),24,MHS,Solent Bass Trawl  Star,MO,Valid,05/11/2004 11:34:02,5.7,51.724,0.815
FLE,PLATICHTHYS FLESUS,Flounder (european),25,BD,Solent Bass Trawl  Port,MO,Valid,05/11/2004 12:16:02,6.1,51.727,0.845
FLE,PLATICHTHYS FLESUS,Flounder (european),18,RA,Solent Bass Trawl  Port,MO,Valid,04/11/2004 10:05:02,5.1,51.595,0.844
FLE,PLATICHTHYS FLESUS,Flounder (european),18,RA,Solent Bass Trawl  Star,MO,Valid,04/11/2004 10:05:02,5.1,51.595,0.844
FLE,PLATICHTHYS FLESUS,Flounder (european),19,CB,Solent Bass Trawl  Port,MO,Valid,04/11/2004 11:52:02,4.2,51.633,0.735
FLE,PLATICHTHYS FLESUS,Flounder (european),19,CB,Solent Bass Trawl  Star,MO,Valid,04/11/2004 11:52:02,4.2,51.633,0.735
FLE,PLATICHTHYS FLESUS,Flounder (european),20,CC,Solent Bass Trawl  Port,MO,Valid,04/11/2004 12:33:02,7.6,51.636,0.771
FLE,PLATICHTHYS FLESUS,Flounder (european),20,CC,Solent Bass Trawl  Star,MO,Valid,04/11/2004 12:33:02,7.6,51.636,0.771
FLE,PLATICHTHYS FLESUS,Flounder (european),14,N,Solent Bass Trawl  Star,MO,Valid,03/11/2004 13:01:02,2.4,51.452,0.739
FLE,PLATICHTHYS FLESUS,Flounder (european),15,CD,Solent Bass Trawl  Port,MO,Valid,04/11/2004 07:49:02,5.1,51.628,0.956
FLE,PLATICHTHYS FLESUS,Flounder (european),16,CA,Solent Bass Trawl  Port,MO,Valid,04/11/2004 08:38:02,10.3,51.619,0.892
FLE,PLATICHTHYS FLESUS,Flounder (european),16,CA,Solent Bass Trawl  Star,MO,Valid,04/11/2004 08:38:02,10.3,51.619,0.892
FLE,PLATICHTHYS FLESUS,Flounder (european),17,RB,Solent Bass Trawl  Port,MO,Valid,04/11/2004 09:20:02,6.7,51.601,0.870
FLE,PLATICHTHYS FLESUS,Flounder (european),17,RB,Solent Bass Trawl  Star,MO,Valid,04/11/2004 09:20:02,6.7,51.601,0.870
FLE,PLATICHTHYS FLESUS,Flounder (european),11,V,Solent Bass Trawl  Port,MO,Valid,03/11/2004 10:09:02,2.4,51.421,0.643
FLE,PLATICHTHYS FLESUS,Flounder (european),11,V,Solent Bass Trawl  Star,MO,Valid,03/11/2004 10:09:02,2.4,51.421,0.643
FLE,PLATICHTHYS FLESUS,Flounder (european),12,W,Solent Bass Trawl  Port,MO,Valid,03/11/2004 11:31:02,4.5,51.422,0.650
FLE,PLATICHTHYS FLESUS,Flounder (european),13,X,Solent Bass Trawl  Port,MO,Valid,03/11/2004 12:23:02,3.3,51.435,0.720
FLE,PLATICHTHYS FLESUS,Flounder (european),13,X,Solent Bass Trawl  Star,MO,Valid,03/11/2004 12:23:02,3.3,51.435,0.720
FLE,PLATICHTHYS FLESUS,Flounder (european),14,N,Solent Bass Trawl  Port,MO,Valid,03/11/2004 13:01:02,2.4,51.452,0.739
FLE,PLATICHTHYS FLESUS,Flounder (european),8,J1,Solent Bass Trawl  Port,MO,Valid,02/11/2004 14:15:02,10.0,51.512,0.670
FLE,PLATICHTHYS FLESUS,Flounder (european),8,J1,Solent Bass Trawl  Star,MO,Valid,02/11/2004 14:15:02,10.0,51.512,0.670
FLE,PLATICHTHYS FLESUS,Flounder (european),9,MA,Solent Bass Trawl  Port,MO,Valid,03/11/2004 07:22:02,7.6,51.411,0.694
FLE,PLATICHTHYS FLESUS,Flounder (european),9,MA,Solent Bass Trawl  Star,MO,Valid,03/11/2004 07:22:02,7.6,51.411,0.694
FLE,PLATICHTHYS FLESUS,Flounder (european),10,HA,Solent Bass Trawl  Port,MO,Valid,03/11/2004 08:44:02,3.3,51.407,0.649
FLE,PLATICHTHYS FLESUS,Flounder (european),10,HA,Solent Bass Trawl  Star,MO,Valid,03/11/2004 08:44:02,3.3,51.407,0.649
FLE,PLATICHTHYS FLESUS,Flounder (european),5,M,Solent Bass Trawl  Port,MO,Valid,02/11/2004 11:11:02,2.7,51.488,0.683
FLE,PLATICHTHYS FLESUS,Flounder (european),5,M,Solent Bass Trawl  Star,MO,Valid,02/11/2004 11:11:02,2.7,51.488,0.683
FLE,PLATICHTHYS FLESUS,Flounder (european),6,J,Solent Bass Trawl  Port,MO,Valid,02/11/2004 12:05:02,4.5,51.514,0.662
FLE,PLATICHTHYS FLESUS,Flounder (european),6,J,Solent Bass Trawl  Star,MO,Valid,02/11/2004 12:05:02,4.5,51.514,0.662
FLE,PLATICHTHYS FLESUS,Flounder (european),7,A,Solent Bass Trawl  Port,MO,Valid,02/11/2004 13:12:02,4.5,51.496,0.558
FLE,PLATICHTHYS FLESUS,Flounder (european),7,A,Solent Bass Trawl  Star,MO,Valid,02/11/2004 13:12:02,4.5,51.496,0.558
FVR,CILIATA MUSTELA,Five-bearded rockling,2,O,Solent Bass Trawl  Port,MO,Valid,02/11/2004 08:02:02,6.1,51.478,0.825
FVR,CILIATA MUSTELA,Five-bearded rockling,2,O,Solent Bass Trawl  Star,CO,Valid,02/11/2004 08:02:02,6.1,51.478,0.825
FVR,CILIATA MUSTELA,Five-bearded rockling,3,K,Solent Bass Trawl  Star,MO,Valid,02/11/2004 09:06:02,5.1,51.506,0.757
FVR,CILIATA MUSTELA,Five-bearded rockling,5,M,Solent Bass Trawl  Port,MO,Valid,02/11/2004 11:11:02,2.7,51.488,0.683
FVR,CILIATA MUSTELA,Five-bearded rockling,30,A1,Solent Bass Trawl  Port,MO,Valid,07/11/2004 08:23:02,5.7,51.497,0.526
FVR,CILIATA MUSTELA,Five-bearded rockling,31,D,Solent Bass Trawl  Port,MO,Valid,07/11/2004 09:07:02,5.1,51.494,0.493
FVR,CILIATA MUSTELA,Five-bearded rockling,32,E1,Solent Bass Trawl  Port,MO,Valid,07/11/2004 10:59:02,4.5,51.470,0.321
FVR,CILIATA MUSTELA,Five-bearded rockling,24,MHS,Solent Bass Trawl  Port,MO,Valid,05/11/2004 11:34:02,5.7,51.724,0.815
FVR,CILIATA MUSTELA,Five-bearded rockling,24,MHS,Solent Bass Trawl  Star,MO,Valid,05/11/2004 11:34:02,5.7,51.724,0.815
FVR,CILIATA MUSTELA,Five-bearded rockling,28,T,Solent Bass Trawl  Port,MO,Valid,06/11/2004 10:42:02,4.2,51.353,0.927
FVR,CILIATA MUSTELA,Five-bearded rockling,29,S,Solent Bass Trawl  Port,MO,Valid,06/11/2004 11:38:02,5.1,51.378,0.967
FVR,CILIATA MUSTELA,Five-bearded rockling,21,BA,Solent Bass Trawl  Port,MO,Valid,05/11/2004 08:31:02,10.9,51.745,0.999
FVR,CILIATA MUSTELA,Five-bearded rockling,21,BA,Solent Bass Trawl  Star,MO,Valid,05/11/2004 08:31:02,10.9,51.745,0.999
FVR,CILIATA MUSTELA,Five-bearded rockling,22,BB,Solent Bass Trawl  Port,MO,Valid,05/11/2004 09:31:02,10.9,51.754,0.927
FVR,CILIATA MUSTELA,Five-bearded rockling,22,BB,Solent Bass Trawl  Star,MO,Valid,05/11/2004 09:31:02,10.9,51.754,0.927
FVR,CILIATA MUSTELA,Five-bearded rockling,23,BC,Solent Bass Trawl  Port,MO,Valid,05/11/2004 10:22:02,11.2,51.749,0.893
FVR,CILIATA MUSTELA,Five-bearded rockling,18,RA,Solent Bass Trawl  Port,MO,Valid,04/11/2004 10:05:02,5.1,51.595,0.844
FVR,CILIATA MUSTELA,Five-bearded rockling,18,RA,Solent Bass Trawl  Star,MO,Valid,04/11/2004 10:05:02,5.1,51.595,0.844
FVR,CILIATA MUSTELA,Five-bearded rockling,19,CB,Solent Bass Trawl  Port,MO,Valid,04/11/2004 11:52:02,4.2,51.633,0.735
FVR,CILIATA MUSTELA,Five-bearded rockling,20,CC,Solent Bass Trawl  Port,MO,Valid,04/11/2004 12:33:02,7.6,51.636,0.771
FVR,CILIATA MUSTELA,Five-bearded rockling,14,N,Solent Bass Trawl  Star,MO,Valid,03/11/2004 13:01:02,2.4,51.452,0.739
FVR,CILIATA MUSTELA,Five-bearded rockling,15,CD,Solent Bass Trawl  Port,MO,Valid,04/11/2004 07:49:02,5.1,51.628,0.956
FVR,CILIATA MUSTELA,Five-bearded rockling,16,CA,Solent Bass Trawl  Port,MO,Valid,04/11/2004 08:38:02,10.3,51.619,0.892
FVR,CILIATA MUSTELA,Five-bearded rockling,16,CA,Solent Bass Trawl  Star,MO,Valid,04/11/2004 08:38:02,10.3,51.619,0.892
FVR,CILIATA MUSTELA,Five-bearded rockling,17,RB,Solent Bass Trawl  Port,MO,Valid,04/11/2004 09:20:02,6.7,51.601,0.870
FVR,CILIATA MUSTELA,Five-bearded rockling,17,RB,Solent Bass Trawl  Star,MO,Valid,04/11/2004 09:20:02,6.7,51.601,0.870
FVR,CILIATA MUSTELA,Five-bearded rockling,9,MA,Solent Bass Trawl  Star,MO,Valid,03/11/2004 07:22:02,7.6,51.411,0.694
FVR,CILIATA MUSTELA,Five-bearded rockling,10,HA,Solent Bass Trawl  Port,MO,Valid,03/11/2004 08:44:02,3.3,51.407,0.649
GPF,SYNGNATHUS ACUS,Great pipefish,2,O,Solent Bass Trawl  Port,MO,Valid,02/11/2004 08:02:02,6.1,51.478,0.825
GPF,SYNGNATHUS ACUS,Great pipefish,2,O,Solent Bass Trawl  Star,MO,Valid,02/11/2004 08:02:02,6.1,51.478,0.825
GPF,SYNGNATHUS ACUS,Great pipefish,3,K,Solent Bass Trawl  Port,MO,Valid,02/11/2004 09:06:02,5.1,51.506,0.757
GPF,SYNGNATHUS ACUS,Great pipefish,24,MHS,Solent Bass Trawl  Port,MO,Valid,05/11/2004 11:34:02,5.7,51.724,0.815
GPF,SYNGNATHUS ACUS,Great pipefish,25,BD,Solent Bass Trawl  Port,MO,Valid,05/11/2004 12:16:02,6.1,51.727,0.845
GPF,SYNGNATHUS ACUS,Great pipefish,28,T,Solent Bass Trawl  Port,MO,Valid,06/11/2004 10:42:02,4.2,51.353,0.927
GPF,SYNGNATHUS ACUS,Great pipefish,31,D,Solent Bass Trawl  Port,MO,Valid,07/11/2004 09:07:02,5.1,51.494,0.493
GPF,SYNGNATHUS ACUS,Great pipefish,21,BA,Solent Bass Trawl  Port,MO,Valid,05/11/2004 08:31:02,10.9,51.745,0.999
GPF,SYNGNATHUS ACUS,Great pipefish,22,BB,Solent Bass Trawl  Port,MO,Valid,05/11/2004 09:31:02,10.9,51.754,0.927
GPF,SYNGNATHUS ACUS,Great pipefish,23,BC,Solent Bass Trawl  Port,MO,Valid,05/11/2004 10:22:02,11.2,51.749,0.893
GPF,SYNGNATHUS ACUS,Great pipefish,18,RA,Solent Bass Trawl  Port,MO,Valid,04/11/2004 10:05:02,5.1,51.595,0.844
GPF,SYNGNATHUS ACUS,Great pipefish,18,RA,Solent Bass Trawl  Star,MO,Valid,04/11/2004 10:05:02,5.1,51.595,0.844
GPF,SYNGNATHUS ACUS,Great pipefish,19,CB,Solent Bass Trawl  Port,MO,Valid,04/11/2004 11:52:02,4.2,51.633,0.735
GPF,SYNGNATHUS ACUS,Great pipefish,20,CC,Solent Bass Trawl  Port,MO,Valid,04/11/2004 12:33:02,7.6,51.636,0.771
GPF,SYNGNATHUS ACUS,Great pipefish,5,M,Solent Bass Trawl  Port,MO,Valid,02/11/2004 11:11:02,2.7,51.488,0.683
GPF,SYNGNATHUS ACUS,Great pipefish,9,MA,Solent Bass Trawl  Port,MO,Valid,03/11/2004 07:22:02,7.6,51.411,0.694
GPF,SYNGNATHUS ACUS,Great pipefish,9,MA,Solent Bass Trawl  Star,MO,Valid,03/11/2004 07:22:02,7.6,51.411,0.694
GPF,SYNGNATHUS ACUS,Great pipefish,13,X,Solent Bass Trawl  Star,MO,Valid,03/11/2004 12:23:02,3.3,51.435,0.720
GUG,EUTRIGLA (CHELIDONICTHYS) GURNARDUS,Grey gurnard,2,O,Solent Bass Trawl  Star,MO,Valid,02/11/2004 08:02:02,6.1,51.478,0.825
GUR,ASPITRIGLA (CHELIDONICHTHYS) CUCULUS,Red gurnard,3,K,Solent Bass Trawl  Port,MO,Valid,02/11/2004 09:06:02,5.1,51.506,0.757
GUR,ASPITRIGLA (CHELIDONICHTHYS) CUCULUS,Red gurnard,20,CC,Solent Bass Trawl  Port,MO,Valid,04/11/2004 12:33:02,7.6,51.636,0.771
HER,CLUPEA HARENGUS,Herring,1,L,Solent Bass Trawl  Port,MO,Valid,02/11/2004 07:10:02,7.0,51.506,0.857
HER,CLUPEA HARENGUS,Herring,1,L,Solent Bass Trawl  Star,MO,Valid,02/11/2004 07:10:02,7.0,51.506,0.857
HER,CLUPEA HARENGUS,Herring,3,K,Solent Bass Trawl  Port,MO,Valid,02/11/2004 09:06:02,5.1,51.506,0.757
HER,CLUPEA HARENGUS,Herring,3,K,Solent Bass Trawl  Star,MO,Valid,02/11/2004 09:06:02,5.1,51.506,0.757
HER,CLUPEA HARENGUS,Herring,4,P,Solent Bass Trawl  Port,MO,Valid,02/11/2004 10:09:02,5.7,51.516,0.697
HER,CLUPEA HARENGUS,Herring,4,P,Solent Bass Trawl  Star,MO,Valid,02/11/2004 10:09:02,5.7,51.516,0.697
HER,CLUPEA HARENGUS,Herring,30,A1,Solent Bass Trawl  Star,MO,Valid,07/11/2004 08:23:02,5.7,51.497,0.526
HER,CLUPEA HARENGUS,Herring,31,D,Solent Bass Trawl  Port,MO,Valid,07/11/2004 09:07:02,5.1,51.494,0.493
HER,CLUPEA HARENGUS,Herring,31,D,Solent Bass Trawl  Star,MO,Valid,07/11/2004 09:07:02,5.1,51.494,0.493
HER,CLUPEA HARENGUS,Herring,33,F,Solent Bass Trawl  Star,MO,Valid,07/11/2004 11:31:02,6.4,51.460,0.301
HER,CLUPEA HARENGUS,Herring,35,G1,Solent Bass Trawl  Port,MO,Valid,07/11/2004 14:47:02,4.2,51.510,0.144
HER,CLUPEA HARENGUS,Herring,27,U,Solent Bass Trawl  Port,MO,Valid,06/11/2004 09:39:02,6.7,51.357,0.867
HER,CLUPEA HARENGUS,Herring,27,U,Solent Bass Trawl  Star,MO,Valid,06/11/2004 09:39:02,6.7,51.357,0.867
HER,CLUPEA HARENGUS,Herring,28,T,Solent Bass Trawl  Star,MO,Valid,06/11/2004 10:42:02,4.2,51.353,0.927
HER,CLUPEA HARENGUS,Herring,29,S,Solent Bass Trawl  Port,MO,Valid,06/11/2004 11:38:02,5.1,51.378,0.967
HER,CLUPEA HARENGUS,Herring,29,S,Solent Bass Trawl  Star,MO,Valid,06/11/2004 11:38:02,5.1,51.378,0.967
HER,CLUPEA HARENGUS,Herring,30,A1,Solent Bass Trawl  Port,MO,Valid,07/11/2004 08:23:02,5.7,51.497,0.526
HER,CLUPEA HARENGUS,Herring,22,BB,Solent Bass Trawl  Star,MO,Valid,05/11/2004 09:31:02,10.9,51.754,0.927
HER,CLUPEA HARENGUS,Herring,23,BC,Solent Bass Trawl  Port,MO,Valid,05/11/2004 10:22:02,11.2,51.749,0.893
HER,CLUPEA HARENGUS,Herring,23,BC,Solent Bass Trawl  Star,MO,Valid,05/11/2004 10:22:02,11.2,51.749,0.893
HER,CLUPEA HARENGUS,Herring,25,BD,Solent Bass Trawl  Star,MO,Valid,05/11/2004 12:16:02,6.1,51.727,0.845
HER,CLUPEA HARENGUS,Herring,26,SA,Solent Bass Trawl  Port,MO,Valid,06/11/2004 08:47:02,3.0,51.361,0.831
HER,CLUPEA HARENGUS,Herring,26,SA,Solent Bass Trawl  Star,MO,Valid,06/11/2004 08:47:02,3.0,51.361,0.831
HER,CLUPEA HARENGUS,Herring,18,RA,Solent Bass Trawl  Star,MO,Valid,04/11/2004 10:05:02,5.1,51.595,0.844
HER,CLUPEA HARENGUS,Herring,19,CB,Solent Bass Trawl  Port,MO,Valid,04/11/2004 11:52:02,4.2,51.633,0.735
HER,CLUPEA HARENGUS,Herring,19,CB,Solent Bass Trawl  Star,MO,Valid,04/11/2004 11:52:02,4.2,51.633,0.735
HER,CLUPEA HARENGUS,Herring,20,CC,Solent Bass Trawl  Port,MO,Valid,04/11/2004 12:33:02,7.6,51.636,0.771
HER,CLUPEA HARENGUS,Herring,20,CC,Solent Bass Trawl  Star,MO,Valid,04/11/2004 12:33:02,7.6,51.636,0.771
HER,CLUPEA HARENGUS,Herring,22,BB,Solent Bass Trawl  Port,MO,Valid,05/11/2004 09:31:02,10.9,51.754,0.927
HER,CLUPEA HARENGUS,Herring,10,HA,Solent Bass Trawl  Port,MO,Valid,03/11/2004 08:44:02,3.3,51.407,0.649
HER,CLUPEA HARENGUS,Herring,10,HA,Solent Bass Trawl  Star,MO,Valid,03/11/2004 08:44:02,3.3,51.407,0.649
HER,CLUPEA HARENGUS,Herring,11,V,Solent Bass Trawl  Port,MO,Valid,03/11/2004 10:09:02,2.4,51.421,0.643
HER,CLUPEA HARENGUS,Herring,15,CD,Solent Bass Trawl  Port,MO,Valid,04/11/2004 07:49:02,5.1,51.628,0.956
HER,CLUPEA HARENGUS,Herring,17,RB,Solent Bass Trawl  Port,MO,Valid,04/11/2004 09:20:02,6.7,51.601,0.870
HER,CLUPEA HARENGUS,Herring,17,RB,Solent Bass Trawl  Star,MO,Valid,04/11/2004 09:20:02,6.7,51.601,0.870
HER,CLUPEA HARENGUS,Herring,6,J,Solent Bass Trawl  Port,MO,Valid,02/11/2004 12:05:02,4.5,51.514,0.662
HER,CLUPEA HARENGUS,Herring,6,J,Solent Bass Trawl  Star,MO,Valid,02/11/2004 12:05:02,4.5,51.514,0.662
HER,CLUPEA HARENGUS,Herring,8,J1,Solent Bass Trawl  Port,MO,Valid,02/11/2004 14:15:02,10.0,51.512,0.670
HER,CLUPEA HARENGUS,Herring,8,J1,Solent Bass Trawl  Star,MO,Valid,02/11/2004 14:15:02,10.0,51.512,0.670
HER,CLUPEA HARENGUS,Herring,9,MA,Solent Bass Trawl  Port,MO,Valid,03/11/2004 07:22:02,7.6,51.411,0.694
HER,CLUPEA HARENGUS,Herring,9,MA,Solent Bass Trawl  Star,MO,Valid,03/11/2004 07:22:02,7.6,51.411,0.694
HOM,TRACHURUS TRACHURUS,Horse-mackerel (scad),1,L,Solent Bass Trawl  Star,MO,Valid,02/11/2004 07:10:02,7.0,51.506,0.857
HOM,TRACHURUS TRACHURUS,Horse-mackerel (scad),3,K,Solent Bass Trawl  Port,MO,Valid,02/11/2004 09:06:02,5.1,51.506,0.757
HOM,TRACHURUS TRACHURUS,Horse-mackerel (scad),3,K,Solent Bass Trawl  Star,MO,Valid,02/11/2004 09:06:02,5.1,51.506,0.757
HOM,TRACHURUS TRACHURUS,Horse-mackerel (scad),23,BC,Solent Bass Trawl  Star,MO,Valid,05/11/2004 10:22:02,11.2,51.749,0.893
HOM,TRACHURUS TRACHURUS,Horse-mackerel (scad),20,CC,Solent Bass Trawl  Port,MO,Valid,04/11/2004 12:33:02,7.6,51.636,0.771
HOM,TRACHURUS TRACHURUS,Horse-mackerel (scad),20,CC,Solent Bass Trawl  Star,MO,Valid,04/11/2004 12:33:02,7.6,51.636,0.771
HOM,TRACHURUS TRACHURUS,Horse-mackerel (scad),21,BA,Solent Bass Trawl  Port,MO,Valid,05/11/2004 08:31:02,10.9,51.745,0.999
HOM,TRACHURUS TRACHURUS,Horse-mackerel (scad),18,RA,Solent Bass Trawl  Port,MO,Valid,04/11/2004 10:05:02,5.1,51.595,0.844
HOM,TRACHURUS TRACHURUS,Horse-mackerel (scad),19,CB,Solent Bass Trawl  Port,MO,Valid,04/11/2004 11:52:02,4.2,51.633,0.735
HOM,TRACHURUS TRACHURUS,Horse-mackerel (scad),9,MA,Solent Bass Trawl  Port,MO,Valid,03/11/2004 07:22:02,7.6,51.411,0.694
HOM,TRACHURUS TRACHURUS,Horse-mackerel (scad),14,N,Solent Bass Trawl  Port,MO,Valid,03/11/2004 13:01:02,2.4,51.452,0.739
LBE,HOMARUS GAMMARUS,European lobster,14,N,Solent Bass Trawl  Star,MO,Valid,03/11/2004 13:01:02,2.4,51.452,0.739
LPS,LIPARIS SPP,Sea snails,16,CA,Solent Bass Trawl  Port,MO,Valid,04/11/2004 08:38:02,10.3,51.619,0.892
LPS,LIPARIS SPP,Sea snails,16,CA,Solent Bass Trawl  Star,MO,Valid,04/11/2004 08:38:02,10.3,51.619,0.892
LSD,SCYLIORHINUS CANICULA,Lesser spotted dogfish,1,L,Solent Bass Trawl  Port,MO,Valid,02/11/2004 07:10:02,7.0,51.506,0.857
LSD,SCYLIORHINUS CANICULA,Lesser spotted dogfish,1,L,Solent Bass Trawl  Star,MO,Valid,02/11/2004 07:10:02,7.0,51.506,0.857
LSD,SCYLIORHINUS CANICULA,Lesser spotted dogfish,2,O,Solent Bass Trawl  Port,MO,Valid,02/11/2004 08:02:02,6.1,51.478,0.825
LSD,SCYLIORHINUS CANICULA,Lesser spotted dogfish,2,O,Solent Bass Trawl  Star,MO,Valid,02/11/2004 08:02:02,6.1,51.478,0.825
LSD,SCYLIORHINUS CANICULA,Lesser spotted dogfish,5,M,Solent Bass Trawl  Port,CO,Valid,02/11/2004 11:11:02,2.7,51.488,0.683
LSD,SCYLIORHINUS CANICULA,Lesser spotted dogfish,5,M,Solent Bass Trawl  Star,CO,Valid,02/11/2004 11:11:02,2.7,51.488,0.683
LSD,SCYLIORHINUS CANICULA,Lesser spotted dogfish,5,M,Solent Bass Trawl  Port,CO,Valid,02/11/2004 11:11:02,2.7,51.488,0.683
LSD,SCYLIORHINUS CANICULA,Lesser spotted dogfish,5,M,Solent Bass Trawl  Star,CO,Valid,02/11/2004 11:11:02,2.7,51.488,0.683
LSD,SCYLIORHINUS CANICULA,Lesser spotted dogfish,6,J,Solent Bass Trawl  Star,CO,Valid,02/11/2004 12:05:02,4.5,51.514,0.662
LSD,SCYLIORHINUS CANICULA,Lesser spotted dogfish,9,MA,Solent Bass Trawl  Port,MO,Valid,03/11/2004 07:22:02,7.6,51.411,0.694
LSD,SCYLIORHINUS CANICULA,Lesser spotted dogfish,15,CD,Solent Bass Trawl  Port,MO,Valid,04/11/2004 07:49:02,5.1,51.628,0.956
LSD,SCYLIORHINUS CANICULA,Lesser spotted dogfish,19,CB,Solent Bass Trawl  Port,MO,Valid,04/11/2004 11:52:02,4.2,51.633,0.735
MGN,LIZA AURATA,Golden mullet,1,L,Solent Bass Trawl  Star,MO,Valid,02/11/2004 07:10:02,7.0,51.506,0.857
MGN,LIZA AURATA,Golden mullet,35,G1,Solent Bass Trawl  Port,MO,Valid,07/11/2004 14:47:02,4.2,51.510,0.144
MGN,LIZA AURATA,Golden mullet,35,G1,Solent Bass Trawl  Star,MO,Valid,07/11/2004 14:47:02,4.2,51.510,0.144
MUR,MULLUS SURMULETUS,Red mullet,3,K,Solent Bass Trawl  Port,MO,Valid,02/11/2004 09:06:02,5.1,51.506,0.757
MUR,MULLUS SURMULETUS,Red mullet,3,K,Solent Bass Trawl  Star,MO,Valid,02/11/2004 09:06:02,5.1,51.506,0.757
MUR,MULLUS SURMULETUS,Red mullet,8,J1,Solent Bass Trawl  Port,MO,Valid,02/11/2004 14:15:02,10.0,51.512,0.670
MUR,MULLUS SURMULETUS,Red mullet,13,X,Solent Bass Trawl  Port,MO,Valid,03/11/2004 12:23:02,3.3,51.435,0.720
MUR,MULLUS SURMULETUS,Red mullet,20,CC,Solent Bass Trawl  Star,MO,Valid,04/11/2004 12:33:02,7.6,51.636,0.771
MUR,MULLUS SURMULETUS,Red mullet,26,SA,Solent Bass Trawl  Port,MO,Valid,06/11/2004 08:47:02,3.0,51.361,0.831
MUR,MULLUS SURMULETUS,Red mullet,33,F,Solent Bass Trawl  Port,MO,Valid,07/11/2004 11:31:02,6.4,51.460,0.301
PLE,PLEURONECTES PLATESSA,European plaice,1,L,Solent Bass Trawl  Port,MO,Valid,02/11/2004 07:10:02,7.0,51.506,0.857
PLE,PLEURONECTES PLATESSA,European plaice,1,L,Solent Bass Trawl  Star,MO,Valid,02/11/2004 07:10:02,7.0,51.506,0.857
PLE,PLEURONECTES PLATESSA,European plaice,2,O,Solent Bass Trawl  Port,MO,Valid,02/11/2004 08:02:02,6.1,51.478,0.825
PLE,PLEURONECTES PLATESSA,European plaice,2,O,Solent Bass Trawl  Star,MO,Valid,02/11/2004 08:02:02,6.1,51.478,0.825
PLE,PLEURONECTES PLATESSA,European plaice,3,K,Solent Bass Trawl  Port,MO,Valid,02/11/2004 09:06:02,5.1,51.506,0.757
PLE,PLEURONECTES PLATESSA,European plaice,3,K,Solent Bass Trawl  Star,MO,Valid,02/11/2004 09:06:02,5.1,51.506,0.757
PLE,PLEURONECTES PLATESSA,European plaice,29,S,Solent Bass Trawl  Star,MO,Valid,06/11/2004 11:38:02,5.1,51.378,0.967
PLE,PLEURONECTES PLATESSA,European plaice,31,D,Solent Bass Trawl  Port,MO,Valid,07/11/2004 09:07:02,5.1,51.494,0.493
PLE,PLEURONECTES PLATESSA,European plaice,31,D,Solent Bass Trawl  Star,MO,Valid,07/11/2004 09:07:02,5.1,51.494,0.493
PLE,PLEURONECTES PLATESSA,European plaice,14,N,Solent Bass Trawl  Port,MO,Valid,03/11/2004 13:01:02,2.4,51.452,0.739
PLE,PLEURONECTES PLATESSA,European plaice,14,N,Solent Bass Trawl  Star,MO,Valid,03/11/2004 13:01:02,2.4,51.452,0.739
PLE,PLEURONECTES PLATESSA,European plaice,15,CD,Solent Bass Trawl  Port,MO,Valid,04/11/2004 07:49:02,5.1,51.628,0.956
PLE,PLEURONECTES PLATESSA,European plaice,26,SA,Solent Bass Trawl  Star,MO,Valid,06/11/2004 08:47:02,3.0,51.361,0.831
PLE,PLEURONECTES PLATESSA,European plaice,28,T,Solent Bass Trawl  Port,MO,Valid,06/11/2004 10:42:02,4.2,51.353,0.927
PLE,PLEURONECTES PLATESSA,European plaice,28,T,Solent Bass Trawl  Star,MO,Valid,06/11/2004 10:42:02,4.2,51.353,0.927
PLE,PLEURONECTES PLATESSA,European plaice,7,A,Solent Bass Trawl  Port,MO,Valid,02/11/2004 13:12:02,4.5,51.496,0.558
PLE,PLEURONECTES PLATESSA,European plaice,8,J1,Solent Bass Trawl  Port,MO,Valid,02/11/2004 14:15:02,10.0,51.512,0.670
PLE,PLEURONECTES PLATESSA,European plaice,8,J1,Solent Bass Trawl  Star,MO,Valid,02/11/2004 14:15:02,10.0,51.512,0.670
PLE,PLEURONECTES PLATESSA,European plaice,9,MA,Solent Bass Trawl  Port,MO,Valid,03/11/2004 07:22:02,7.6,51.411,0.694
PLE,PLEURONECTES PLATESSA,European plaice,13,X,Solent Bass Trawl  Port,MO,Valid,03/11/2004 12:23:02,3.3,51.435,0.720
PLE,PLEURONECTES PLATESSA,European plaice,13,X,Solent Bass Trawl  Star,MO,Valid,03/11/2004 12:23:02,3.3,51.435,0.720
PLE,PLEURONECTES PLATESSA,European plaice,4,P,Solent Bass Trawl  Port,MO,Valid,02/11/2004 10:09:02,5.7,51.516,0.697
PLE,PLEURONECTES PLATESSA,European plaice,4,P,Solent Bass Trawl  Star,MO,Valid,02/11/2004 10:09:02,5.7,51.516,0.697
PLE,PLEURONECTES PLATESSA,European plaice,5,M,Solent Bass Trawl  Port,MO,Valid,02/11/2004 11:11:02,2.7,51.488,0.683
PLE,PLEURONECTES PLATESSA,European plaice,5,M,Solent Bass Trawl  Star,MO,Valid,02/11/2004 11:11:02,2.7,51.488,0.683
PLE,PLEURONECTES PLATESSA,European plaice,6,J,Solent Bass Trawl  Port,MO,Valid,02/11/2004 12:05:02,4.5,51.514,0.662
PLE,PLEURONECTES PLATESSA,European plaice,6,J,Solent Bass Trawl  Star,MO,Valid,02/11/2004 12:05:02,4.5,51.514,0.662
POD,TRISOPTERUS MINUTUS,Poor cod,3,K,Solent Bass Trawl  Port,MO,Valid,02/11/2004 09:06:02,5.1,51.506,0.757
POD,TRISOPTERUS MINUTUS,Poor cod,4,P,Solent Bass Trawl  Star,MO,Valid,02/11/2004 10:09:02,5.7,51.516,0.697
POD,TRISOPTERUS MINUTUS,Poor cod,8,J1,Solent Bass Trawl  Port,MO,Valid,02/11/2004 14:15:02,10.0,51.512,0.670
POD,TRISOPTERUS MINUTUS,Poor cod,8,J1,Solent Bass Trawl  Star,MO,Valid,02/11/2004 14:15:02,10.0,51.512,0.670
POD,TRISOPTERUS MINUTUS,Poor cod,9,MA,Solent Bass Trawl  Port,MO,Valid,03/11/2004 07:22:02,7.6,51.411,0.694
POD,TRISOPTERUS MINUTUS,Poor cod,9,MA,Solent Bass Trawl  Star,MO,Valid,03/11/2004 07:22:02,7.6,51.411,0.694
POD,TRISOPTERUS MINUTUS,Poor cod,23,BC,Solent Bass Trawl  Star,MO,Valid,05/11/2004 10:22:02,11.2,51.749,0.893
POD,TRISOPTERUS MINUTUS,Poor cod,24,MHS,Solent Bass Trawl  Port,MO,Valid,05/11/2004 11:34:02,5.7,51.724,0.815
POD,TRISOPTERUS MINUTUS,Poor cod,28,T,Solent Bass Trawl  Port,MO,Valid,06/11/2004 10:42:02,4.2,51.353,0.927
POD,TRISOPTERUS MINUTUS,Poor cod,29,S,Solent Bass Trawl  Port,MO,Valid,06/11/2004 11:38:02,5.1,51.378,0.967
POD,TRISOPTERUS MINUTUS,Poor cod,29,S,Solent Bass Trawl  Star,MO,Valid,06/11/2004 11:38:02,5.1,51.378,0.967
POD,TRISOPTERUS MINUTUS,Poor cod,30,A1,Solent Bass Trawl  Port,MO,Valid,07/11/2004 08:23:02,5.7,51.497,0.526
POD,TRISOPTERUS MINUTUS,Poor cod,19,CB,Solent Bass Trawl  Port,MO,Valid,04/11/2004 11:52:02,4.2,51.633,0.735
POD,TRISOPTERUS MINUTUS,Poor cod,20,CC,Solent Bass Trawl  Port,MO,Valid,04/11/2004 12:33:02,7.6,51.636,0.771
POD,TRISOPTERUS MINUTUS,Poor cod,20,CC,Solent Bass Trawl  Star,MO,Valid,04/11/2004 12:33:02,7.6,51.636,0.771
POD,TRISOPTERUS MINUTUS,Poor cod,22,BB,Solent Bass Trawl  Port,MO,Valid,05/11/2004 09:31:02,10.9,51.754,0.927
POD,TRISOPTERUS MINUTUS,Poor cod,22,BB,Solent Bass Trawl  Star,MO,Valid,05/11/2004 09:31:02,10.9,51.754,0.927
POD,TRISOPTERUS MINUTUS,Poor cod,23,BC,Solent Bass Trawl  Port,MO,Valid,05/11/2004 10:22:02,11.2,51.749,0.893
POD,TRISOPTERUS MINUTUS,Poor cod,10,HA,Solent Bass Trawl  Star,MO,Valid,03/11/2004 08:44:02,3.3,51.407,0.649
POD,TRISOPTERUS MINUTUS,Poor cod,16,CA,Solent Bass Trawl  Port,MO,Valid,04/11/2004 08:38:02,10.3,51.619,0.892
POD,TRISOPTERUS MINUTUS,Poor cod,17,RB,Solent Bass Trawl  Port,MO,Valid,04/11/2004 09:20:02,6.7,51.601,0.870
POD,TRISOPTERUS MINUTUS,Poor cod,17,RB,Solent Bass Trawl  Star,MO,Valid,04/11/2004 09:20:02,6.7,51.601,0.870
POD,TRISOPTERUS MINUTUS,Poor cod,18,RA,Solent Bass Trawl  Port,MO,Valid,04/11/2004 10:05:02,5.1,51.595,0.844
POD,TRISOPTERUS MINUTUS,Poor cod,18,RA,Solent Bass Trawl  Star,MO,Valid,04/11/2004 10:05:02,5.1,51.595,0.844
POG,AGONUS CATAPHRACTUS,Pogge (armed bullhead),1,L,Solent Bass Trawl  Port,MO,Valid,02/11/2004 07:10:02,7.0,51.506,0.857
POG,AGONUS CATAPHRACTUS,Pogge (armed bullhead),2,O,Solent Bass Trawl  Port,MO,Valid,02/11/2004 08:02:02,6.1,51.478,0.825
POG,AGONUS CATAPHRACTUS,Pogge (armed bullhead),2,O,Solent Bass Trawl  Star,MO,Valid,02/11/2004 08:02:02,6.1,51.478,0.825
POG,AGONUS CATAPHRACTUS,Pogge (armed bullhead),3,K,Solent Bass Trawl  Port,MO,Valid,02/11/2004 09:06:02,5.1,51.506,0.757
POG,AGONUS CATAPHRACTUS,Pogge (armed bullhead),4,P,Solent Bass Trawl  Port,MO,Valid,02/11/2004 10:09:02,5.7,51.516,0.697
POG,AGONUS CATAPHRACTUS,Pogge (armed bullhead),4,P,Solent Bass Trawl  Star,MO,Valid,02/11/2004 10:09:02,5.7,51.516,0.697
POG,AGONUS CATAPHRACTUS,Pogge (armed bullhead),33,F,Solent Bass Trawl  Star,MO,Valid,07/11/2004 11:31:02,6.4,51.460,0.301
POG,AGONUS CATAPHRACTUS,Pogge (armed bullhead),29,S,Solent Bass Trawl  Star,MO,Valid,06/11/2004 11:38:02,5.1,51.378,0.967
POG,AGONUS CATAPHRACTUS,Pogge (armed bullhead),30,A1,Solent Bass Trawl  Port,MO,Valid,07/11/2004 08:23:02,5.7,51.497,0.526
POG,AGONUS CATAPHRACTUS,Pogge (armed bullhead),30,A1,Solent Bass Trawl  Star,MO,Valid,07/11/2004 08:23:02,5.7,51.497,0.526
POG,AGONUS CATAPHRACTUS,Pogge (armed bullhead),31,D,Solent Bass Trawl  Port,MO,Valid,07/11/2004 09:07:02,5.1,51.494,0.493
POG,AGONUS CATAPHRACTUS,Pogge (armed bullhead),31,D,Solent Bass Trawl  Star,MO,Valid,07/11/2004 09:07:02,5.1,51.494,0.493
POG,AGONUS CATAPHRACTUS,Pogge (armed bullhead),33,F,Solent Bass Trawl  Port,MO,Valid,07/11/2004 11:31:02,6.4,51.460,0.301
POG,AGONUS CATAPHRACTUS,Pogge (armed bullhead),22,BB,Solent Bass Trawl  Star,MO,Valid,05/11/2004 09:31:02,10.9,51.754,0.927
POG,AGONUS CATAPHRACTUS,Pogge (armed bullhead),23,BC,Solent Bass Trawl  Port,MO,Valid,05/11/2004 10:22:02,11.2,51.749,0.893
POG,AGONUS CATAPHRACTUS,Pogge (armed bullhead),23,BC,Solent Bass Trawl  Star,MO,Valid,05/11/2004 10:22:02,11.2,51.749,0.893
POG,AGONUS CATAPHRACTUS,Pogge (armed bullhead),24,MHS,Solent Bass Trawl  Port,MO,Valid,05/11/2004 11:34:02,5.7,51.724,0.815
POG,AGONUS CATAPHRACTUS,Pogge (armed bullhead),24,MHS,Solent Bass Trawl  Star,MO,Valid,05/11/2004 11:34:02,5.7,51.724,0.815
POG,AGONUS CATAPHRACTUS,Pogge (armed bullhead),29,S,Solent Bass Trawl  Port,MO,Valid,06/11/2004 11:38:02,5.1,51.378,0.967
POG,AGONUS CATAPHRACTUS,Pogge (armed bullhead),18,RA,Solent Bass Trawl  Star,MO,Valid,04/11/2004 10:05:02,5.1,51.595,0.844
POG,AGONUS CATAPHRACTUS,Pogge (armed bullhead),19,CB,Solent Bass Trawl  Port,MO,Valid,04/11/2004 11:52:02,4.2,51.633,0.735
POG,AGONUS CATAPHRACTUS,Pogge (armed bullhead),20,CC,Solent Bass Trawl  Port,MO,Valid,04/11/2004 12:33:02,7.6,51.636,0.771
POG,AGONUS CATAPHRACTUS,Pogge (armed bullhead),20,CC,Solent Bass Trawl  Star,MO,Valid,04/11/2004 12:33:02,7.6,51.636,0.771
POG,AGONUS CATAPHRACTUS,Pogge (armed bullhead),21,BA,Solent Bass Trawl  Port,MO,Valid,05/11/2004 08:31:02,10.9,51.745,0.999
POG,AGONUS CATAPHRACTUS,Pogge (armed bullhead),21,BA,Solent Bass Trawl  Star,MO,Valid,05/11/2004 08:31:02,10.9,51.745,0.999
POG,AGONUS CATAPHRACTUS,Pogge (armed bullhead),15,CD,Solent Bass Trawl  Star,MO,Valid,04/11/2004 07:49:02,5.1,51.628,0.956
POG,AGONUS CATAPHRACTUS,Pogge (armed bullhead),16,CA,Solent Bass Trawl  Port,MO,Valid,04/11/2004 08:38:02,10.3,51.619,0.892
POG,AGONUS CATAPHRACTUS,Pogge (armed bullhead),16,CA,Solent Bass Trawl  Star,MO,Valid,04/11/2004 08:38:02,10.3,51.619,0.892
POG,AGONUS CATAPHRACTUS,Pogge (armed bullhead),17,RB,Solent Bass Trawl  Port,MO,Valid,04/11/2004 09:20:02,6.7,51.601,0.870
POG,AGONUS CATAPHRACTUS,Pogge (armed bullhead),17,RB,Solent Bass Trawl  Star,MO,Valid,04/11/2004 09:20:02,6.7,51.601,0.870
POG,AGONUS CATAPHRACTUS,Pogge (armed bullhead),18,RA,Solent Bass Trawl  Port,MO,Valid,04/11/2004 10:05:02,5.1,51.595,0.844
POG,AGONUS CATAPHRACTUS,Pogge (armed bullhead),8,J1,Solent Bass Trawl  Port,MO,Valid,02/11/2004 14:15:02,10.0,51.512,0.670
POG,AGONUS CATAPHRACTUS,Pogge (armed bullhead),8,J1,Solent Bass Trawl  Star,MO,Valid,02/11/2004 14:15:02,10.0,51.512,0.670
POG,AGONUS CATAPHRACTUS,Pogge (armed bullhead),9,MA,Solent Bass Trawl  Port,MO,Valid,03/11/2004 07:22:02,7.6,51.411,0.694
POG,AGONUS CATAPHRACTUS,Pogge (armed bullhead),9,MA,Solent Bass Trawl  Star,MO,Valid,03/11/2004 07:22:02,7.6,51.411,0.694
POG,AGONUS CATAPHRACTUS,Pogge (armed bullhead),10,HA,Solent Bass Trawl  Port,MO,Valid,03/11/2004 08:44:02,3.3,51.407,0.649
POG,AGONUS CATAPHRACTUS,Pogge (armed bullhead),15,CD,Solent Bass Trawl  Port,MO,Valid,04/11/2004 07:49:02,5.1,51.628,0.956
POG,AGONUS CATAPHRACTUS,Pogge (armed bullhead),5,M,Solent Bass Trawl  Port,MO,Valid,02/11/2004 11:11:02,2.7,51.488,0.683
POG,AGONUS CATAPHRACTUS,Pogge (armed bullhead),5,M,Solent Bass Trawl  Star,MO,Valid,02/11/2004 11:11:02,2.7,51.488,0.683
POG,AGONUS CATAPHRACTUS,Pogge (armed bullhead),6,J,Solent Bass Trawl  Port,CO,Valid,02/11/2004 12:05:02,4.5,51.514,0.662
POG,AGONUS CATAPHRACTUS,Pogge (armed bullhead),6,J,Solent Bass Trawl  Star,CO,Valid,02/11/2004 12:05:02,4.5,51.514,0.662
POG,AGONUS CATAPHRACTUS,Pogge (armed bullhead),7,A,Solent Bass Trawl  Port,MO,Valid,02/11/2004 13:12:02,4.5,51.496,0.558
POG,AGONUS CATAPHRACTUS,Pogge (armed bullhead),7,A,Solent Bass Trawl  Star,MO,Valid,02/11/2004 13:12:02,4.5,51.496,0.558
POM,POMATOSCHISTUS SPP,Gobies,2,O,"Otter Trawl Solent Bass Trawl 5 fm Headline, 6 & 8 metre bridles, 40mm Liner",OB,Valid,02/11/2004 08:02:02,6.1,51.478,0.825
RKG,GOBIUS PAGANELLUS,Rock goby,27,U,Solent Bass Trawl  Star,MO,Valid,06/11/2004 09:39:02,6.7,51.357,0.867
SDG,POMATOSCHISTUS MINUTUS,Sand goby,1,L,Solent Bass Trawl  Port,OB,Valid,02/11/2004 07:10:02,7.0,51.506,0.857
SIL,ATHERINIDAE,Sand-smelts,1,L,Solent Bass Trawl  Star,MO,Valid,02/11/2004 07:10:02,7.0,51.506,0.857
SIL,ATHERINIDAE,Sand-smelts,3,K,Solent Bass Trawl  Star,MO,Valid,02/11/2004 09:06:02,5.1,51.506,0.757
SIL,ATHERINIDAE,Sand-smelts,11,V,Solent Bass Trawl  Port,MO,Valid,03/11/2004 10:09:02,2.4,51.421,0.643
SIL,ATHERINIDAE,Sand-smelts,11,V,Solent Bass Trawl  Star,MO,Valid,03/11/2004 10:09:02,2.4,51.421,0.643
SIL,ATHERINIDAE,Sand-smelts,17,RB,Solent Bass Trawl  Star,MO,Valid,04/11/2004 09:20:02,6.7,51.601,0.870
SIL,ATHERINIDAE,Sand-smelts,19,CB,Solent Bass Trawl  Star,MO,Valid,04/11/2004 11:52:02,4.2,51.633,0.735
SIL,ATHERINIDAE,Sand-smelts,23,BC,Solent Bass Trawl  Port,MO,Valid,05/11/2004 10:22:02,11.2,51.749,0.893
SIL,ATHERINIDAE,Sand-smelts,23,BC,Solent Bass Trawl  Star,MO,Valid,05/11/2004 10:22:02,11.2,51.749,0.893
SIL,ATHERINIDAE,Sand-smelts,29,S,Solent Bass Trawl  Port,MO,Valid,06/11/2004 11:38:02,5.1,51.378,0.967
SIL,ATHERINIDAE,Sand-smelts,32,E1,Solent Bass Trawl  Star,MO,Valid,07/11/2004 10:59:02,4.5,51.470,0.321
SKP,ENTELURUS AEQUOREUS,Snake pipefish,3,K,Solent Bass Trawl  Port,MO,Valid,02/11/2004 09:06:02,5.1,51.506,0.757
SKP,ENTELURUS AEQUOREUS,Snake pipefish,3,K,Solent Bass Trawl  Star,MO,Valid,02/11/2004 09:06:02,5.1,51.506,0.757
SKP,ENTELURUS AEQUOREUS,Snake pipefish,10,HA,Solent Bass Trawl  Port,MO,Valid,03/11/2004 08:44:02,3.3,51.407,0.649
SKP,ENTELURUS AEQUOREUS,Snake pipefish,14,N,Solent Bass Trawl  Port,MO,Valid,03/11/2004 13:01:02,2.4,51.452,0.739
SKP,ENTELURUS AEQUOREUS,Snake pipefish,16,CA,Solent Bass Trawl  Port,MO,Valid,04/11/2004 08:38:02,10.3,51.619,0.892
SME,OSMERUS EPERLANUS,Smelt(sparling),4,P,Solent Bass Trawl  Port,MO,Valid,02/11/2004 10:09:02,5.7,51.516,0.697
SME,OSMERUS EPERLANUS,Smelt(sparling),4,P,Solent Bass Trawl  Star,MO,Valid,02/11/2004 10:09:02,5.7,51.516,0.697
SME,OSMERUS EPERLANUS,Smelt(sparling),5,M,Solent Bass Trawl  Port,MO,Valid,02/11/2004 11:11:02,2.7,51.488,0.683
SME,OSMERUS EPERLANUS,Smelt(sparling),5,M,Solent Bass Trawl  Star,MO,Valid,02/11/2004 11:11:02,2.7,51.488,0.683
SME,OSMERUS EPERLANUS,Smelt(sparling),7,A,Solent Bass Trawl  Port,MO,Valid,02/11/2004 13:12:02,4.5,51.496,0.558
SME,OSMERUS EPERLANUS,Smelt(sparling),7,A,Solent Bass Trawl  Star,MO,Valid,02/11/2004 13:12:02,4.5,51.496,0.558
SME,OSMERUS EPERLANUS,Smelt(sparling),35,G1,Solent Bass Trawl  Port,MO,Valid,07/11/2004 14:47:02,4.2,51.510,0.144
SME,OSMERUS EPERLANUS,Smelt(sparling),35,G1,Solent Bass Trawl  Star,MO,Valid,07/11/2004 14:47:02,4.2,51.510,0.144
SME,OSMERUS EPERLANUS,Smelt(sparling),29,S,Solent Bass Trawl  Star,MO,Valid,06/11/2004 11:38:02,5.1,51.378,0.967
SME,OSMERUS EPERLANUS,Smelt(sparling),30,A1,Solent Bass Trawl  Port,MO,Valid,07/11/2004 08:23:02,5.7,51.497,0.526
SME,OSMERUS EPERLANUS,Smelt(sparling),30,A1,Solent Bass Trawl  Star,MO,Valid,07/11/2004 08:23:02,5.7,51.497,0.526
SME,OSMERUS EPERLANUS,Smelt(sparling),31,D,Solent Bass Trawl  Port,MO,Valid,07/11/2004 09:07:02,5.1,51.494,0.493
SME,OSMERUS EPERLANUS,Smelt(sparling),31,D,Solent Bass Trawl  Star,MO,Valid,07/11/2004 09:07:02,5.1,51.494,0.493
SME,OSMERUS EPERLANUS,Smelt(sparling),34,G,Solent Bass Trawl  Port,MO,Valid,07/11/2004 13:48:02,6.7,51.513,0.146
SME,OSMERUS EPERLANUS,Smelt(sparling),17,RB,Solent Bass Trawl  Star,MO,Valid,04/11/2004 09:20:02,6.7,51.601,0.870
SME,OSMERUS EPERLANUS,Smelt(sparling),21,BA,Solent Bass Trawl  Star,MO,Valid,05/11/2004 08:31:02,10.9,51.745,0.999
SME,OSMERUS EPERLANUS,Smelt(sparling),23,BC,Solent Bass Trawl  Star,MO,Valid,05/11/2004 10:22:02,11.2,51.749,0.893
SME,OSMERUS EPERLANUS,Smelt(sparling),28,T,Solent Bass Trawl  Port,MO,Valid,06/11/2004 10:42:02,4.2,51.353,0.927
SME,OSMERUS EPERLANUS,Smelt(sparling),28,T,Solent Bass Trawl  Star,MO,Valid,06/11/2004 10:42:02,4.2,51.353,0.927
SME,OSMERUS EPERLANUS,Smelt(sparling),29,S,Solent Bass Trawl  Port,MO,Valid,06/11/2004 11:38:02,5.1,51.378,0.967
SME,OSMERUS EPERLANUS,Smelt(sparling),8,J1,Solent Bass Trawl  Star,MO,Valid,02/11/2004 14:15:02,10.0,51.512,0.670
SME,OSMERUS EPERLANUS,Smelt(sparling),13,X,Solent Bass Trawl  Port,MO,Valid,03/11/2004 12:23:02,3.3,51.435,0.720
SME,OSMERUS EPERLANUS,Smelt(sparling),14,N,Solent Bass Trawl  Port,MO,Valid,03/11/2004 13:01:02,2.4,51.452,0.739
SME,OSMERUS EPERLANUS,Smelt(sparling),14,N,Solent Bass Trawl  Star,MO,Valid,03/11/2004 13:01:02,2.4,51.452,0.739
SME,OSMERUS EPERLANUS,Smelt(sparling),16,CA,Solent Bass Trawl  Port,MO,Valid,04/11/2004 08:38:02,10.3,51.619,0.892
SME,OSMERUS EPERLANUS,Smelt(sparling),17,RB,Solent Bass Trawl  Port,MO,Valid,04/11/2004 09:20:02,6.7,51.601,0.870
SMT,ATHERINA PRESBYTER,Sand smelt,1,L,Solent Bass Trawl  Port,MO,Valid,02/11/2004 07:10:02,7.0,51.506,0.857
SMT,ATHERINA PRESBYTER,Sand smelt,10,HA,Solent Bass Trawl  Port,MO,Valid,03/11/2004 08:44:02,3.3,51.407,0.649
SMX,HYPOMESUS SPP,,2,O,Solent Bass Trawl  Port,MO,Valid,02/11/2004 08:02:02,6.1,51.478,0.825
SOL,SOLEA SOLEA ,Sole (dover sole),1,L,Solent Bass Trawl  Port,MO,Valid,02/11/2004 07:10:02,7.0,51.506,0.857
SOL,SOLEA SOLEA ,Sole (dover sole),2,O,Solent Bass Trawl  Port,MO,Valid,02/11/2004 08:02:02,6.1,51.478,0.825
SOL,SOLEA SOLEA ,Sole (dover sole),2,O,Solent Bass Trawl  Star,MO,Valid,02/11/2004 08:02:02,6.1,51.478,0.825
SOL,SOLEA SOLEA ,Sole (dover sole),3,K,Solent Bass Trawl  Port,MO,Valid,02/11/2004 09:06:02,5.1,51.506,0.757
SOL,SOLEA SOLEA ,Sole (dover sole),3,K,Solent Bass Trawl  Star,MO,Valid,02/11/2004 09:06:02,5.1,51.506,0.757
SOL,SOLEA SOLEA ,Sole (dover sole),4,P,Solent Bass Trawl  Port,MO,Valid,02/11/2004 10:09:02,5.7,51.516,0.697
SOL,SOLEA SOLEA ,Sole (dover sole),33,F,Solent Bass Trawl  Star,MO,Valid,07/11/2004 11:31:02,6.4,51.460,0.301
SOL,SOLEA SOLEA ,Sole (dover sole),34,G,Solent Bass Trawl  Port,MO,Valid,07/11/2004 13:48:02,6.7,51.513,0.146
SOL,SOLEA SOLEA ,Sole (dover sole),34,G,Solent Bass Trawl  Star,MO,Valid,07/11/2004 13:48:02,6.7,51.513,0.146
SOL,SOLEA SOLEA ,Sole (dover sole),35,G1,Solent Bass Trawl  Port,MO,Valid,07/11/2004 14:47:02,4.2,51.510,0.144
SOL,SOLEA SOLEA ,Sole (dover sole),35,G1,Solent Bass Trawl  Star,MO,Valid,07/11/2004 14:47:02,4.2,51.510,0.144
SOL,SOLEA SOLEA ,Sole (dover sole),29,S,Solent Bass Trawl  Star,MO,Valid,06/11/2004 11:38:02,5.1,51.378,0.967
SOL,SOLEA SOLEA ,Sole (dover sole),31,D,Solent Bass Trawl  Port,MO,Valid,07/11/2004 09:07:02,5.1,51.494,0.493
SOL,SOLEA SOLEA ,Sole (dover sole),31,D,Solent Bass Trawl  Star,MO,Valid,07/11/2004 09:07:02,5.1,51.494,0.493
SOL,SOLEA SOLEA ,Sole (dover sole),32,E1,Solent Bass Trawl  Port,MO,Valid,07/11/2004 10:59:02,4.5,51.470,0.321
SOL,SOLEA SOLEA ,Sole (dover sole),32,E1,Solent Bass Trawl  Star,MO,Valid,07/11/2004 10:59:02,4.5,51.470,0.321
SOL,SOLEA SOLEA ,Sole (dover sole),33,F,Solent Bass Trawl  Port,MO,Valid,07/11/2004 11:31:02,6.4,51.460,0.301
SOL,SOLEA SOLEA ,Sole (dover sole),23,BC,Solent Bass Trawl  Port,MO,Valid,05/11/2004 10:22:02,11.2,51.749,0.893
SOL,SOLEA SOLEA ,Sole (dover sole),26,SA,Solent Bass Trawl  Port,MO,Valid,06/11/2004 08:47:02,3.0,51.361,0.831
SOL,SOLEA SOLEA ,Sole (dover sole),27,U,Solent Bass Trawl  Port,MO,Valid,06/11/2004 09:39:02,6.7,51.357,0.867
SOL,SOLEA SOLEA ,Sole (dover sole),28,T,Solent Bass Trawl  Port,MO,Valid,06/11/2004 10:42:02,4.2,51.353,0.927
SOL,SOLEA SOLEA ,Sole (dover sole),28,T,Solent Bass Trawl  Star,MO,Valid,06/11/2004 10:42:02,4.2,51.353,0.927
SOL,SOLEA SOLEA ,Sole (dover sole),29,S,Solent Bass Trawl  Port,MO,Valid,06/11/2004 11:38:02,5.1,51.378,0.967
SOL,SOLEA SOLEA ,Sole (dover sole),18,RA,Solent Bass Trawl  Port,MO,Valid,04/11/2004 10:05:02,5.1,51.595,0.844
SOL,SOLEA SOLEA ,Sole (dover sole),19,CB,Solent Bass Trawl  Port,MO,Valid,04/11/2004 11:52:02,4.2,51.633,0.735
SOL,SOLEA SOLEA ,Sole (dover sole),20,CC,Solent Bass Trawl  Port,MO,Valid,04/11/2004 12:33:02,7.6,51.636,0.771
SOL,SOLEA SOLEA ,Sole (dover sole),21,BA,Solent Bass Trawl  Port,MO,Valid,05/11/2004 08:31:02,10.9,51.745,0.999
SOL,SOLEA SOLEA ,Sole (dover sole),22,BB,Solent Bass Trawl  Port,MO,Valid,05/11/2004 09:31:02,10.9,51.754,0.927
SOL,SOLEA SOLEA ,Sole (dover sole),22,BB,Solent Bass Trawl  Star,MO,Valid,05/11/2004 09:31:02,10.9,51.754,0.927
SOL,SOLEA SOLEA ,Sole (dover sole),14,N,Solent Bass Trawl  Star,MO,Valid,03/11/2004 13:01:02,2.4,51.452,0.739
SOL,SOLEA SOLEA ,Sole (dover sole),15,CD,Solent Bass Trawl  Port,MO,Valid,04/11/2004 07:49:02,5.1,51.628,0.956
SOL,SOLEA SOLEA ,Sole (dover sole),15,CD,Solent Bass Trawl  Star,MO,Valid,04/11/2004 07:49:02,5.1,51.628,0.956
SOL,SOLEA SOLEA ,Sole (dover sole),16,CA,Solent Bass Trawl  Port,MO,Valid,04/11/2004 08:38:02,10.3,51.619,0.892
SOL,SOLEA SOLEA ,Sole (dover sole),16,CA,Solent Bass Trawl  Star,MO,Valid,04/11/2004 08:38:02,10.3,51.619,0.892
SOL,SOLEA SOLEA ,Sole (dover sole),17,RB,Solent Bass Trawl  Star,MO,Valid,04/11/2004 09:20:02,6.7,51.601,0.870
SOL,SOLEA SOLEA ,Sole (dover sole),11,V,Solent Bass Trawl  Port,MO,Valid,03/11/2004 10:09:02,2.4,51.421,0.643
SOL,SOLEA SOLEA ,Sole (dover sole),11,V,Solent Bass Trawl  Star,MO,Valid,03/11/2004 10:09:02,2.4,51.421,0.643
SOL,SOLEA SOLEA ,Sole (dover sole),12,W,Solent Bass Trawl  Star,MO,Valid,03/11/2004 11:31:02,4.5,51.422,0.650
SOL,SOLEA SOLEA ,Sole (dover sole),13,X,Solent Bass Trawl  Port,MO,Valid,03/11/2004 12:23:02,3.3,51.435,0.720
SOL,SOLEA SOLEA ,Sole (dover sole),13,X,Solent Bass Trawl  Star,MO,Valid,03/11/2004 12:23:02,3.3,51.435,0.720
SOL,SOLEA SOLEA ,Sole (dover sole),14,N,Solent Bass Trawl  Port,MO,Valid,03/11/2004 13:01:02,2.4,51.452,0.739
SOL,SOLEA SOLEA ,Sole (dover sole),7,A,Solent Bass Trawl  Star,MO,Valid,02/11/2004 13:12:02,4.5,51.496,0.558
SOL,SOLEA SOLEA ,Sole (dover sole),8,J1,Solent Bass Trawl  Port,MO,Valid,02/11/2004 14:15:02,10.0,51.512,0.670
SOL,SOLEA SOLEA ,Sole (dover sole),8,J1,Solent Bass Trawl  Star,MO,Valid,02/11/2004 14:15:02,10.0,51.512,0.670
SOL,SOLEA SOLEA ,Sole (dover sole),9,MA,Solent Bass Trawl  Port,MO,Valid,03/11/2004 07:22:02,7.6,51.411,0.694
SOL,SOLEA SOLEA ,Sole (dover sole),10,HA,Solent Bass Trawl  Port,MO,Valid,03/11/2004 08:44:02,3.3,51.407,0.649
SOL,SOLEA SOLEA ,Sole (dover sole),10,HA,Solent Bass Trawl  Star,MO,Valid,03/11/2004 08:44:02,3.3,51.407,0.649
SOL,SOLEA SOLEA ,Sole (dover sole),4,P,Solent Bass Trawl  Star,MO,Valid,02/11/2004 10:09:02,5.7,51.516,0.697
SOL,SOLEA SOLEA ,Sole (dover sole),5,M,Solent Bass Trawl  Port,MO,Valid,02/11/2004 11:11:02,2.7,51.488,0.683
SOL,SOLEA SOLEA ,Sole (dover sole),5,M,Solent Bass Trawl  Star,MO,Valid,02/11/2004 11:11:02,2.7,51.488,0.683
SOL,SOLEA SOLEA ,Sole (dover sole),6,J,Solent Bass Trawl  Port,MO,Valid,02/11/2004 12:05:02,4.5,51.514,0.662
SOL,SOLEA SOLEA ,Sole (dover sole),6,J,Solent Bass Trawl  Star,MO,Valid,02/11/2004 12:05:02,4.5,51.514,0.662
SOL,SOLEA SOLEA ,Sole (dover sole),7,A,Solent Bass Trawl  Port,MO,Valid,02/11/2004 13:12:02,4.5,51.496,0.558
SOT,BUGLOSSIDIUM LUTEUM,Solenette,2,O,Solent Bass Trawl  Port,MO,Valid,02/11/2004 08:02:02,6.1,51.478,0.825
SOT,BUGLOSSIDIUM LUTEUM,Solenette,2,O,Solent Bass Trawl  Star,CO,Valid,02/11/2004 08:02:02,6.1,51.478,0.825
SPR,SPRATTUS SPRATTUS,Sprat,2,O,"Otter Trawl Solent Bass Trawl 5 fm Headline, 6 & 8 metre bridles, 40mm Liner",OB,Valid,02/11/2004 08:02:02,6.1,51.478,0.825
SPR,SPRATTUS SPRATTUS,Sprat,16,CA,Solent Bass Trawl  Port,MO,Valid,04/11/2004 08:38:02,10.3,51.619,0.892
SPR,SPRATTUS SPRATTUS,Sprat,17,RB,Solent Bass Trawl  Star,MO,Valid,04/11/2004 09:20:02,6.7,51.601,0.870
SPR,SPRATTUS SPRATTUS,Sprat,18,RA,Solent Bass Trawl  Port,MO,Valid,04/11/2004 10:05:02,5.1,51.595,0.844
SPR,SPRATTUS SPRATTUS,Sprat,18,RA,Solent Bass Trawl  Star,MO,Valid,04/11/2004 10:05:02,5.1,51.595,0.844
SPR,SPRATTUS SPRATTUS,Sprat,19,CB,Solent Bass Trawl  Port,MO,Valid,04/11/2004 11:52:02,4.2,51.633,0.735
SPR,SPRATTUS SPRATTUS,Sprat,19,CB,Solent Bass Trawl  Star,MO,Valid,04/11/2004 11:52:02,4.2,51.633,0.735
SPR,SPRATTUS SPRATTUS,Sprat,20,CC,Solent Bass Trawl  Port,MO,Valid,04/11/2004 12:33:02,7.6,51.636,0.771
SPR,SPRATTUS SPRATTUS,Sprat,20,CC,Solent Bass Trawl  Star,MO,Valid,04/11/2004 12:33:02,7.6,51.636,0.771
SPR,SPRATTUS SPRATTUS,Sprat,32,E1,Solent Bass Trawl  Star,MO,Valid,07/11/2004 10:59:02,4.5,51.470,0.321
SSL,LIPARIS LIPARIS,Sea snail,15,CD,Solent Bass Trawl  Port,MO,Valid,04/11/2004 07:49:02,5.1,51.628,0.956
SSN,TAURULUS BUBALIS,Sea scorpion,18,RA,Solent Bass Trawl  Star,MO,Valid,04/11/2004 10:05:02,5.1,51.595,0.844
THR,RAJA CLAVATA,Thornback ray (roker),2,O,Solent Bass Trawl  Port,MO,Valid,02/11/2004 08:02:02,6.1,51.478,0.825
THR,RAJA CLAVATA,Thornback ray (roker),2,O,Solent Bass Trawl  Star,MO,Valid,02/11/2004 08:02:02,6.1,51.478,0.825
THR,RAJA CLAVATA,Thornback ray (roker),2,O,Solent Bass Trawl  Port,MO,Valid,02/11/2004 08:02:02,6.1,51.478,0.825
THR,RAJA CLAVATA,Thornback ray (roker),2,O,Solent Bass Trawl  Star,MO,Valid,02/11/2004 08:02:02,6.1,51.478,0.825
THR,RAJA CLAVATA,Thornback ray (roker),6,J,Solent Bass Trawl  Port,CO,Valid,02/11/2004 12:05:02,4.5,51.514,0.662
THR,RAJA CLAVATA,Thornback ray (roker),22,BB,Solent Bass Trawl  Port,MO,Valid,05/11/2004 09:31:02,10.9,51.754,0.927
THR,RAJA CLAVATA,Thornback ray (roker),23,BC,Solent Bass Trawl  Port,MO,Valid,05/11/2004 10:22:02,11.2,51.749,0.893
THR,RAJA CLAVATA,Thornback ray (roker),24,MHS,Solent Bass Trawl  Port,MO,Valid,05/11/2004 11:34:02,5.7,51.724,0.815
THR,RAJA CLAVATA,Thornback ray (roker),24,MHS,Solent Bass Trawl  Star,MO,Valid,05/11/2004 11:34:02,5.7,51.724,0.815
THR,RAJA CLAVATA,Thornback ray (roker),21,BA,Solent Bass Trawl  Port,MO,Valid,05/11/2004 08:31:02,10.9,51.745,0.999
THR,RAJA CLAVATA,Thornback ray (roker),21,BA,Solent Bass Trawl  Star,MO,Valid,05/11/2004 08:31:02,10.9,51.745,0.999
THR,RAJA CLAVATA,Thornback ray (roker),21,BA,Solent Bass Trawl  Port,MO,Valid,05/11/2004 08:31:02,10.9,51.745,0.999
THR,RAJA CLAVATA,Thornback ray (roker),21,BA,Solent Bass Trawl  Star,MO,Valid,05/11/2004 08:31:02,10.9,51.745,0.999
THR,RAJA CLAVATA,Thornback ray (roker),22,BB,Solent Bass Trawl  Port,MO,Valid,05/11/2004 09:31:02,10.9,51.754,0.927
THR,RAJA CLAVATA,Thornback ray (roker),22,BB,Solent Bass Trawl  Star,MO,Valid,05/11/2004 09:31:02,10.9,51.754,0.927
THR,RAJA CLAVATA,Thornback ray (roker),6,J,Solent Bass Trawl  Star,CO,Valid,02/11/2004 12:05:02,4.5,51.514,0.662
THR,RAJA CLAVATA,Thornback ray (roker),6,J,Solent Bass Trawl  Port,CO,Valid,02/11/2004 12:05:02,4.5,51.514,0.662
THR,RAJA CLAVATA,Thornback ray (roker),6,J,Solent Bass Trawl  Star,CO,Valid,02/11/2004 12:05:02,4.5,51.514,0.662
THR,RAJA CLAVATA,Thornback ray (roker),15,CD,Solent Bass Trawl  Port,MO,Valid,04/11/2004 07:49:02,5.1,51.628,0.956
THR,RAJA CLAVATA,Thornback ray (roker),15,CD,Solent Bass Trawl  Port,MO,Valid,04/11/2004 07:49:02,5.1,51.628,0.956
THR,RAJA CLAVATA,Thornback ray (roker),15,CD,Solent Bass Trawl  Star,MO,Valid,04/11/2004 07:49:02,5.1,51.628,0.956
TSE,AMMODYTES TOBIANUS,Sandeel,19,CB,Solent Bass Trawl  Port,CO,Valid,04/11/2004 11:52:02,4.2,51.633,0.735
TUB,TRIGLA (CHELIDONICHTHYS) LUCERNA,Tub gurnard,1,L,Solent Bass Trawl  Port,MO,Valid,02/11/2004 07:10:02,7.0,51.506,0.857
TUB,TRIGLA (CHELIDONICHTHYS) LUCERNA,Tub gurnard,3,K,Solent Bass Trawl  Port,MO,Valid,02/11/2004 09:06:02,5.1,51.506,0.757
TUB,TRIGLA (CHELIDONICHTHYS) LUCERNA,Tub gurnard,3,K,Solent Bass Trawl  Star,MO,Valid,02/11/2004 09:06:02,5.1,51.506,0.757
TUB,TRIGLA (CHELIDONICHTHYS) LUCERNA,Tub gurnard,5,M,Solent Bass Trawl  Port,MO,Valid,02/11/2004 11:11:02,2.7,51.488,0.683
TUB,TRIGLA (CHELIDONICHTHYS) LUCERNA,Tub gurnard,6,J,Solent Bass Trawl  Port,MO,Valid,02/11/2004 12:05:02,4.5,51.514,0.662
TUB,TRIGLA (CHELIDONICHTHYS) LUCERNA,Tub gurnard,8,J1,Solent Bass Trawl  Port,MO,Valid,02/11/2004 14:15:02,10.0,51.512,0.670
TUB,TRIGLA (CHELIDONICHTHYS) LUCERNA,Tub gurnard,25,BD,Solent Bass Trawl  Star,MO,Valid,05/11/2004 12:16:02,6.1,51.727,0.845
TUB,TRIGLA (CHELIDONICHTHYS) LUCERNA,Tub gurnard,8,J1,Solent Bass Trawl  Star,MO,Valid,02/11/2004 14:15:02,10.0,51.512,0.670
TUB,TRIGLA (CHELIDONICHTHYS) LUCERNA,Tub gurnard,19,CB,Solent Bass Trawl  Port,MO,Valid,04/11/2004 11:52:02,4.2,51.633,0.735
TUB,TRIGLA (CHELIDONICHTHYS) LUCERNA,Tub gurnard,20,CC,Solent Bass Trawl  Port,MO,Valid,04/11/2004 12:33:02,7.6,51.636,0.771
TUB,TRIGLA (CHELIDONICHTHYS) LUCERNA,Tub gurnard,21,BA,Solent Bass Trawl  Port,MO,Valid,05/11/2004 08:31:02,10.9,51.745,0.999
TUB,TRIGLA (CHELIDONICHTHYS) LUCERNA,Tub gurnard,23,BC,Solent Bass Trawl  Port,MO,Valid,05/11/2004 10:22:02,11.2,51.749,0.893
TUB,TRIGLA (CHELIDONICHTHYS) LUCERNA,Tub gurnard,25,BD,Solent Bass Trawl  Port,MO,Valid,05/11/2004 12:16:02,6.1,51.727,0.845
TUR,SCOPHTHALMUS MAXIMUS (PSETTA MAXIMA),Turbot,4,P,Solent Bass Trawl  Port,MO,Valid,02/11/2004 10:09:02,5.7,51.516,0.697
WEL,ECHIICHTHYS (TRACHINUS) VIPERA,Lesser weever fish,1,L,Solent Bass Trawl  Port,MO,Valid,02/11/2004 07:10:02,7.0,51.506,0.857
WEL,ECHIICHTHYS (TRACHINUS) VIPERA,Lesser weever fish,4,P,Solent Bass Trawl  Port,MO,Valid,02/11/2004 10:09:02,5.7,51.516,0.697
WEL,ECHIICHTHYS (TRACHINUS) VIPERA,Lesser weever fish,4,P,Solent Bass Trawl  Star,MO,Valid,02/11/2004 10:09:02,5.7,51.516,0.697
WEL,ECHIICHTHYS (TRACHINUS) VIPERA,Lesser weever fish,8,J1,Solent Bass Trawl  Star,MO,Valid,02/11/2004 14:15:02,10.0,51.512,0.670
WHG,MERLANGIUS MERLANGUS,Whiting,1,L,Solent Bass Trawl  Port,MO,Valid,02/11/2004 07:10:02,7.0,51.506,0.857
WHG,MERLANGIUS MERLANGUS,Whiting,1,L,Solent Bass Trawl  Star,MO,Valid,02/11/2004 07:10:02,7.0,51.506,0.857
WHG,MERLANGIUS MERLANGUS,Whiting,2,O,Solent Bass Trawl  Port,MO,Valid,02/11/2004 08:02:02,6.1,51.478,0.825
WHG,MERLANGIUS MERLANGUS,Whiting,2,O,Solent Bass Trawl  Star,MO,Valid,02/11/2004 08:02:02,6.1,51.478,0.825
WHG,MERLANGIUS MERLANGUS,Whiting,3,K,Solent Bass Trawl  Port,MO,Valid,02/11/2004 09:06:02,5.1,51.506,0.757
WHG,MERLANGIUS MERLANGUS,Whiting,3,K,Solent Bass Trawl  Star,MO,Valid,02/11/2004 09:06:02,5.1,51.506,0.757
WHG,MERLANGIUS MERLANGUS,Whiting,30,A1,Solent Bass Trawl  Star,MO,Valid,07/11/2004 08:23:02,5.7,51.497,0.526
WHG,MERLANGIUS MERLANGUS,Whiting,31,D,Solent Bass Trawl  Port,MO,Valid,07/11/2004 09:07:02,5.1,51.494,0.493
WHG,MERLANGIUS MERLANGUS,Whiting,31,D,Solent Bass Trawl  Star,MO,Valid,07/11/2004 09:07:02,5.1,51.494,0.493
WHG,MERLANGIUS MERLANGUS,Whiting,34,G,Solent Bass Trawl  Star,MO,Valid,07/11/2004 13:48:02,6.7,51.513,0.146
WHG,MERLANGIUS MERLANGUS,Whiting,35,G1,Solent Bass Trawl  Port,MO,Valid,07/11/2004 14:47:02,4.2,51.510,0.144
WHG,MERLANGIUS MERLANGUS,Whiting,35,G1,Solent Bass Trawl  Star,MO,Valid,07/11/2004 14:47:02,4.2,51.510,0.144
WHG,MERLANGIUS MERLANGUS,Whiting,24,MHS,Solent Bass Trawl  Star,MO,Valid,05/11/2004 11:34:02,5.7,51.724,0.815
WHG,MERLANGIUS MERLANGUS,Whiting,28,T,Solent Bass Trawl  Port,MO,Valid,06/11/2004 10:42:02,4.2,51.353,0.927
WHG,MERLANGIUS MERLANGUS,Whiting,28,T,Solent Bass Trawl  Star,MO,Valid,06/11/2004 10:42:02,4.2,51.353,0.927
WHG,MERLANGIUS MERLANGUS,Whiting,29,S,Solent Bass Trawl  Port,MO,Valid,06/11/2004 11:38:02,5.1,51.378,0.967
WHG,MERLANGIUS MERLANGUS,Whiting,29,S,Solent Bass Trawl  Star,MO,Valid,06/11/2004 11:38:02,5.1,51.378,0.967
WHG,MERLANGIUS MERLANGUS,Whiting,30,A1,Solent Bass Trawl  Port,MO,Valid,07/11/2004 08:23:02,5.7,51.497,0.526
WHG,MERLANGIUS MERLANGUS,Whiting,21,BA,Solent Bass Trawl  Star,MO,Valid,05/11/2004 08:31:02,10.9,51.745,0.999
WHG,MERLANGIUS MERLANGUS,Whiting,22,BB,Solent Bass Trawl  Port,CO,Valid,05/11/2004 09:31:02,10.9,51.754,0.927
WHG,MERLANGIUS MERLANGUS,Whiting,22,BB,Solent Bass Trawl  Star,MO,Valid,05/11/2004 09:31:02,10.9,51.754,0.927
WHG,MERLANGIUS MERLANGUS,Whiting,23,BC,Solent Bass Trawl  Port,MO,Valid,05/11/2004 10:22:02,11.2,51.749,0.893
WHG,MERLANGIUS MERLANGUS,Whiting,23,BC,Solent Bass Trawl  Star,MO,Valid,05/11/2004 10:22:02,11.2,51.749,0.893
WHG,MERLANGIUS MERLANGUS,Whiting,24,MHS,Solent Bass Trawl  Port,MO,Valid,05/11/2004 11:34:02,5.7,51.724,0.815
WHG,MERLANGIUS MERLANGUS,Whiting,18,RA,Solent Bass Trawl  Star,MO,Valid,04/11/2004 10:05:02,5.1,51.595,0.844
WHG,MERLANGIUS MERLANGUS,Whiting,19,CB,Solent Bass Trawl  Port,MO,Valid,04/11/2004 11:52:02,4.2,51.633,0.735
WHG,MERLANGIUS MERLANGUS,Whiting,19,CB,Solent Bass Trawl  Star,MO,Valid,04/11/2004 11:52:02,4.2,51.633,0.735
WHG,MERLANGIUS MERLANGUS,Whiting,20,CC,Solent Bass Trawl  Port,MO,Valid,04/11/2004 12:33:02,7.6,51.636,0.771
WHG,MERLANGIUS MERLANGUS,Whiting,20,CC,Solent Bass Trawl  Star,MO,Valid,04/11/2004 12:33:02,7.6,51.636,0.771
WHG,MERLANGIUS MERLANGUS,Whiting,21,BA,Solent Bass Trawl  Port,MO,Valid,05/11/2004 08:31:02,10.9,51.745,0.999
WHG,MERLANGIUS MERLANGUS,Whiting,15,CD,Solent Bass Trawl  Star,MO,Valid,04/11/2004 07:49:02,5.1,51.628,0.956
WHG,MERLANGIUS MERLANGUS,Whiting,16,CA,Solent Bass Trawl  Port,MO,Valid,04/11/2004 08:38:02,10.3,51.619,0.892
WHG,MERLANGIUS MERLANGUS,Whiting,16,CA,Solent Bass Trawl  Star,MO,Valid,04/11/2004 08:38:02,10.3,51.619,0.892
WHG,MERLANGIUS MERLANGUS,Whiting,17,RB,Solent Bass Trawl  Port,MO,Valid,04/11/2004 09:20:02,6.7,51.601,0.870
WHG,MERLANGIUS MERLANGUS,Whiting,17,RB,Solent Bass Trawl  Star,MO,Valid,04/11/2004 09:20:02,6.7,51.601,0.870
WHG,MERLANGIUS MERLANGUS,Whiting,18,RA,Solent Bass Trawl  Port,MO,Valid,04/11/2004 10:05:02,5.1,51.595,0.844
WHG,MERLANGIUS MERLANGUS,Whiting,10,HA,Solent Bass Trawl  Port,MO,Valid,03/11/2004 08:44:02,3.3,51.407,0.649
WHG,MERLANGIUS MERLANGUS,Whiting,10,HA,Solent Bass Trawl  Star,MO,Valid,03/11/2004 08:44:02,3.3,51.407,0.649
WHG,MERLANGIUS MERLANGUS,Whiting,12,W,Solent Bass Trawl  Star,MO,Valid,03/11/2004 11:31:02,4.5,51.422,0.650
WHG,MERLANGIUS MERLANGUS,Whiting,14,N,Solent Bass Trawl  Port,MO,Valid,03/11/2004 13:01:02,2.4,51.452,0.739
WHG,MERLANGIUS MERLANGUS,Whiting,14,N,Solent Bass Trawl  Star,MO,Valid,03/11/2004 13:01:02,2.4,51.452,0.739
WHG,MERLANGIUS MERLANGUS,Whiting,15,CD,Solent Bass Trawl  Port,MO,Valid,04/11/2004 07:49:02,5.1,51.628,0.956
WHG,MERLANGIUS MERLANGUS,Whiting,7,A,Solent Bass Trawl  Port,MO,Valid,02/11/2004 13:12:02,4.5,51.496,0.558
WHG,MERLANGIUS MERLANGUS,Whiting,7,A,Solent Bass Trawl  Star,MO,Valid,02/11/2004 13:12:02,4.5,51.496,0.558
WHG,MERLANGIUS MERLANGUS,Whiting,8,J1,Solent Bass Trawl  Port,MO,Valid,02/11/2004 14:15:02,10.0,51.512,0.670
WHG,MERLANGIUS MERLANGUS,Whiting,8,J1,Solent Bass Trawl  Star,MO,Valid,02/11/2004 14:15:02,10.0,51.512,0.670
WHG,MERLANGIUS MERLANGUS,Whiting,9,MA,Solent Bass Trawl  Port,MO,Valid,03/11/2004 07:22:02,7.6,51.411,0.694
WHG,MERLANGIUS MERLANGUS,Whiting,9,MA,Solent Bass Trawl  Star,MO,Valid,03/11/2004 07:22:02,7.6,51.411,0.694
WHG,MERLANGIUS MERLANGUS,Whiting,4,P,Solent Bass Trawl  Port,MO,Valid,02/11/2004 10:09:02,5.7,51.516,0.697
WHG,MERLANGIUS MERLANGUS,Whiting,4,P,Solent Bass Trawl  Star,MO,Valid,02/11/2004 10:09:02,5.7,51.516,0.697
WHG,MERLANGIUS MERLANGUS,Whiting,5,M,Solent Bass Trawl  Port,MO,Valid,02/11/2004 11:11:02,2.7,51.488,0.683
WHG,MERLANGIUS MERLANGUS,Whiting,5,M,Solent Bass Trawl  Star,MO,Valid,02/11/2004 11:11:02,2.7,51.488,0.683
WHG,MERLANGIUS MERLANGUS,Whiting,6,J,Solent Bass Trawl  Port,MO,Valid,02/11/2004 12:05:02,4.5,51.514,0.662
WHG,MERLANGIUS MERLANGUS,Whiting,6,J,Solent Bass Trawl  Star,MO,Valid,02/11/2004 12:05:02,4.5,51.514,0.662
