﻿SpeciesCode,ScientificName,CommonName,StationNumber,PrimeStation,GearDescription,ProcessCode,Validity,DeploymentDateTime,DeploymentDepth,DeploymentLatitude,DeploymentLongitude
COD,GADUS MORHUA,Atlantic cod,1,,Larson Sprat Trawl  ,OB,Valid,07/11/1994 07:47:02,,51.414,1.397
HER,CLUPEA HARENGUS,Herring,1,,Larson Sprat Trawl  ,WM,Valid,07/11/1994 07:47:02,,51.414,1.397
NOP,TRISOPTERUS ESMARKI,Norway pout,1,,Larson Sprat Trawl  ,OB,Valid,07/11/1994 07:47:02,,51.414,1.397
POG,AGONUS CATAPHRACTUS,Pogge (armed bullhead),1,,Larson Sprat Trawl  ,OB,Valid,07/11/1994 07:47:02,,51.414,1.397
SAN,AMMODYTES SPP,Sandeels,1,,Larson Sprat Trawl  ,OB,Valid,07/11/1994 07:47:02,,51.414,1.397
SPR,SPRATTUS SPRATTUS,Sprat,1,,Larson Sprat Trawl  ,MO,Valid,07/11/1994 07:47:02,,51.414,1.397
WHG,MERLANGIUS MERLANGUS,Whiting,1,,Larson Sprat Trawl  ,OB,Valid,07/11/1994 07:47:02,,51.414,1.397
DAB,LIMANDA LIMANDA,Dab,2,,Larson Sprat Trawl  ,OB,Valid,07/11/1994 10:15:02,,51.456,1.346
GAR,BELONE BELONE,Garfish,2,,Larson Sprat Trawl  ,OB,Valid,07/11/1994 10:15:02,,51.456,1.346
HER,CLUPEA HARENGUS,Herring,2,,Larson Sprat Trawl  ,WM,Valid,07/11/1994 10:15:02,,51.456,1.346
SME,OSMERUS EPERLANUS,Smelt(sparling),2,,Larson Sprat Trawl  ,OB,Valid,07/11/1994 10:15:02,,51.456,1.346
SPR,SPRATTUS SPRATTUS,Sprat,2,,Larson Sprat Trawl  ,MO,Valid,07/11/1994 10:15:02,,51.456,1.346
WHG,MERLANGIUS MERLANGUS,Whiting,2,,Larson Sprat Trawl  ,OB,Valid,07/11/1994 10:15:02,,51.456,1.346
HER,CLUPEA HARENGUS,Herring,3,,Larson Sprat Trawl  ,MO,Valid,07/11/1994 12:20:02,,51.478,1.241
SPR,SPRATTUS SPRATTUS,Sprat,3,,Larson Sprat Trawl  ,MO,Valid,07/11/1994 12:20:02,,51.478,1.241
HER,CLUPEA HARENGUS,Herring,4,,Larson Sprat Trawl  ,WM,Valid,08/11/1994 07:48:02,,51.461,1.272
SPR,SPRATTUS SPRATTUS,Sprat,4,,Larson Sprat Trawl  ,MO,Valid,08/11/1994 07:48:02,,51.461,1.272
HER,CLUPEA HARENGUS,Herring,5,,Larson Sprat Trawl  ,WM,Valid,08/11/1994 10:15:02,,51.498,1.123
SPR,SPRATTUS SPRATTUS,Sprat,5,,Larson Sprat Trawl  ,MO,Valid,08/11/1994 10:15:02,,51.498,1.123
HER,CLUPEA HARENGUS,Herring,6,,Larson Sprat Trawl  ,WM,Valid,08/11/1994 12:41:02,,51.507,0.957
SPR,SPRATTUS SPRATTUS,Sprat,6,,Larson Sprat Trawl  ,MO,Valid,08/11/1994 12:41:02,,51.507,0.957
HER,CLUPEA HARENGUS,Herring,7,,Larson Sprat Trawl  ,WM,Valid,09/11/1994 08:55:02,,51.589,1.107
SPR,SPRATTUS SPRATTUS,Sprat,7,,Larson Sprat Trawl  ,MO,Valid,09/11/1994 08:55:02,,51.589,1.107
HER,CLUPEA HARENGUS,Herring,8,,Larson Sprat Trawl  ,WM,Valid,09/11/1994 09:45:02,,51.581,1.089
HER,CLUPEA HARENGUS,Herring,9,,Larson Sprat Trawl  ,WM,Valid,09/11/1994 11:50:02,,51.546,1.004
SPR,SPRATTUS SPRATTUS,Sprat,9,,Larson Sprat Trawl  ,MO,Valid,09/11/1994 11:50:02,,51.546,1.004
HER,CLUPEA HARENGUS,Herring,10,,Larson Sprat Trawl  ,WM,Valid,09/11/1994 14:17:02,,51.503,0.755
SPR,SPRATTUS SPRATTUS,Sprat,10,,Larson Sprat Trawl  ,MO,Valid,09/11/1994 14:17:02,,51.503,0.755
HER,CLUPEA HARENGUS,Herring,11,,Larson Sprat Trawl  ,WM,Valid,10/11/1994 07:54:02,,51.537,0.985
HER,CLUPEA HARENGUS,Herring,12,,Larson Sprat Trawl  ,WM,Valid,10/11/1994 11:00:02,,51.656,1.255
SPR,SPRATTUS SPRATTUS,Sprat,12,,Larson Sprat Trawl  ,MO,Valid,10/11/1994 11:00:02,,51.656,1.255
HER,CLUPEA HARENGUS,Herring,14,,Larson Sprat Trawl  ,WM,Valid,11/11/1994 10:37:02,,51.625,1.126
SPR,SPRATTUS SPRATTUS,Sprat,14,,Larson Sprat Trawl  ,MO,Valid,11/11/1994 10:37:02,,51.625,1.126
HER,CLUPEA HARENGUS,Herring,15,,Larson Sprat Trawl  ,WM,Valid,11/11/1994 12:05:02,,51.647,1.165
SPR,SPRATTUS SPRATTUS,Sprat,15,,Larson Sprat Trawl  ,MO,Valid,11/11/1994 12:05:02,,51.647,1.165
HER,CLUPEA HARENGUS,Herring,16,,Larson Sprat Trawl  ,WM,Valid,11/11/1994 14:07:02,,51.675,1.211
HER,CLUPEA HARENGUS,Herring,17,,Larson Sprat Trawl  ,WM,Valid,12/11/1994 09:26:02,,51.707,1.069
SPR,SPRATTUS SPRATTUS,Sprat,17,,Larson Sprat Trawl  ,MO,Valid,12/11/1994 09:26:02,,51.707,1.069
HER,CLUPEA HARENGUS,Herring,18,,Larson Sprat Trawl  ,WM,Valid,12/11/1994 11:54:02,,51.742,1.029
HER,CLUPEA HARENGUS,Herring,19,,Larson Sprat Trawl  ,WM,Valid,13/11/1994 09:51:02,,51.752,0.899
HER,CLUPEA HARENGUS,Herring,20,,Larson Sprat Trawl  ,MO,Valid,13/11/1994 12:21:02,,51.757,0.927
SPR,SPRATTUS SPRATTUS,Sprat,20,,Larson Sprat Trawl  ,MO,Valid,13/11/1994 12:21:02,,51.757,0.927
HER,CLUPEA HARENGUS,Herring,21,,Larson Sprat Trawl  ,WM,Valid,13/11/1994 14:10:02,,51.712,1.110
SPR,SPRATTUS SPRATTUS,Sprat,21,,Larson Sprat Trawl  ,MO,Valid,13/11/1994 14:10:02,,51.712,1.110
HER,CLUPEA HARENGUS,Herring,22,,Larson Sprat Trawl  ,WM,Valid,14/11/1994 08:53:02,,51.618,0.877
HER,CLUPEA HARENGUS,Herring,23,,Larson Sprat Trawl  ,WM,Valid,14/11/1994 10:29:02,,51.600,0.870
HER,CLUPEA HARENGUS,Herring,24,,Larson Sprat Trawl  ,MO,Valid,15/11/1994 11:54:02,,51.413,0.694
SPR,SPRATTUS SPRATTUS,Sprat,24,,Larson Sprat Trawl  ,MO,Valid,15/11/1994 11:54:02,,51.413,0.694
HER,CLUPEA HARENGUS,Herring,25,,Larson Sprat Trawl  ,MO,Valid,15/11/1994 13:57:02,,51.518,0.684
PIL,SARDINA PILCHARDUS,Pilchard,25,,Larson Sprat Trawl  ,MO,Valid,15/11/1994 13:57:02,,51.518,0.684
SPR,SPRATTUS SPRATTUS,Sprat,25,,Larson Sprat Trawl  ,MO,Valid,15/11/1994 13:57:02,,51.518,0.684
HER,CLUPEA HARENGUS,Herring,26,,Larson Sprat Trawl  ,WM,Valid,16/11/1994 09:18:02,,51.506,0.893
SPR,SPRATTUS SPRATTUS,Sprat,26,,Larson Sprat Trawl  ,MO,Valid,16/11/1994 09:18:02,,51.506,0.893
HER,CLUPEA HARENGUS,Herring,27,,Larson Sprat Trawl  ,MO,Valid,16/11/1994 11:08:02,,51.493,0.978
SPR,SPRATTUS SPRATTUS,Sprat,27,,Larson Sprat Trawl  ,MO,Valid,16/11/1994 11:08:02,,51.493,0.978
HER,CLUPEA HARENGUS,Herring,28,,Larson Sprat Trawl  ,WM,Valid,16/11/1994 12:25:02,,51.474,0.897
SPR,SPRATTUS SPRATTUS,Sprat,28,,Larson Sprat Trawl  ,MO,Valid,16/11/1994 12:25:02,,51.474,0.897
HER,CLUPEA HARENGUS,Herring,29,,Larson Sprat Trawl  ,MO,Valid,17/11/1994 10:25:02,,51.456,0.281
SPR,SPRATTUS SPRATTUS,Sprat,29,,Larson Sprat Trawl  ,MO,Valid,17/11/1994 10:25:02,,51.456,0.281
ESB,DICENTRARCHUS LABRAX,European seabass,30,,Larson Sprat Trawl  ,MO,Valid,17/11/1994 12:12:02,,51.512,0.140
HER,CLUPEA HARENGUS,Herring,30,,Larson Sprat Trawl  ,MO,Valid,17/11/1994 12:12:02,,51.512,0.140
SPR,SPRATTUS SPRATTUS,Sprat,30,,Larson Sprat Trawl  ,MO,Valid,17/11/1994 12:12:02,,51.512,0.140
HER,CLUPEA HARENGUS,Herring,31,,Larson Sprat Trawl  ,MO,Valid,17/11/1994 15:24:02,,51.494,0.631
HER,CLUPEA HARENGUS,Herring,32,,Larson Sprat Trawl  ,MO,Valid,18/11/1994 10:14:02,,51.516,0.948
HER,CLUPEA HARENGUS,Herring,33,,Larson Sprat Trawl  ,MO,Valid,18/11/1994 11:45:02,,51.506,1.004
SPR,SPRATTUS SPRATTUS,Sprat,33,,Larson Sprat Trawl  ,MO,Valid,18/11/1994 11:45:02,,51.506,1.004
HER,CLUPEA HARENGUS,Herring,34,,Larson Sprat Trawl  ,MO,Valid,18/11/1994 13:22:02,,51.473,0.881
SPR,SPRATTUS SPRATTUS,Sprat,34,,Larson Sprat Trawl  ,MO,Valid,18/11/1994 13:22:02,,51.473,0.881
