﻿StationNumber,PrimeStation,GearCode,Validity,DeploymentDateTime,DeploymentDepthM,DeploymentLatitude,DeploymentLongitude,GearDescription
1,,111060101,V,13/11/2003 07:12:59,,51.408,1.411,Larson Sprat Trawl  
2,,111060101,V,13/11/2003 09:55:59,,51.455,1.338,Larson Sprat Trawl  
3,,111060101,V,14/11/2003 07:45:59,,51.478,1.212,Larson Sprat Trawl  
4,,111060101,V,14/11/2003 09:45:59,,51.422,1.202,Larson Sprat Trawl  
5,,111060101,V,14/11/2003 12:05:59,,51.387,0.984,Larson Sprat Trawl  
6,,111060101,V,15/11/2003 07:30:59,,51.663,1.258,Larson Sprat Trawl  
7,,111060101,V,15/11/2003 09:25:59,,51.614,1.239,Larson Sprat Trawl  
8,,111060101,V,15/11/2003 11:23:59,,51.575,1.128,Larson Sprat Trawl  
9,,111060101,V,15/11/2003 14:15:59,,51.485,0.909,Larson Sprat Trawl  
10,,111060101,V,16/11/2003 08:30:59,,51.572,1.198,Larson Sprat Trawl  
11,,111060101,V,16/11/2003 10:45:59,,51.533,1.136,Larson Sprat Trawl  
12,,111060101,V,16/11/2003 12:46:59,,51.471,1.041,Larson Sprat Trawl  
13,,111060101,V,16/11/2003 14:31:59,,51.475,0.943,Larson Sprat Trawl  
14,,111060101,V,17/11/2003 08:22:59,,51.579,1.145,Larson Sprat Trawl  
15,,111060101,V,17/11/2003 10:55:59,,51.546,1.041,Larson Sprat Trawl  
16,,111060101,V,18/11/2003 11:45:59,,51.596,1.119,Larson Sprat Trawl  
17,,111060101,V,18/11/2003 14:25:59,,51.645,1.159,Larson Sprat Trawl  
18,,111060101,V,19/11/2003 10:05:59,,51.707,1.088,Larson Sprat Trawl  
19,,111060101,V,19/11/2003 11:55:59,,51.739,1.044,Larson Sprat Trawl  
20,,111060101,V,19/11/2003 13:35:59,,51.758,0.975,Larson Sprat Trawl  
21,,111060101,V,19/11/2003 16:10:59,,51.721,1.079,Larson Sprat Trawl  
22,,111060101,V,20/11/2003 09:45:59,,51.628,0.782,Larson Sprat Trawl  
23,,111060101,V,20/11/2003 11:38:59,,51.602,0.870,Larson Sprat Trawl  
24,,111060101,V,20/11/2003 14:30:59,,51.668,1.177,Larson Sprat Trawl  
25,,111060101,V,21/11/2003 11:40:59,,51.570,1.114,Larson Sprat Trawl  
26,,111060101,V,21/11/2003 14:15:59,,51.566,1.045,Larson Sprat Trawl  
27,,111060101,V,21/11/2003 16:05:59,,51.489,0.981,Larson Sprat Trawl  
28,,111060101,V,22/11/2003 08:20:59,,51.515,0.714,Larson Sprat Trawl  
29,,111060101,V,22/11/2003 10:33:59,,51.473,0.783,Larson Sprat Trawl  
30,,111060101,V,22/11/2003 13:15:59,,51.517,0.930,Larson Sprat Trawl  
31,,111060101,V,22/11/2003 15:38:59,,51.496,0.789,Larson Sprat Trawl  
32,,111060101,V,23/11/2003 08:55:59,,51.497,0.561,Larson Sprat Trawl  
33,,111060101,V,23/11/2003 10:32:59,,51.507,0.610,Larson Sprat Trawl  
34,,111060101,V,23/11/2003 12:00:59,,51.493,0.642,Larson Sprat Trawl  
35,G,111060101,V,24/11/2003 09:37:59,,51.396,0.686,Larson Sprat Trawl  
36,,111060101,V,24/11/2003 12:01:59,,51.506,0.658,Larson Sprat Trawl  
