﻿SpeciesCode,ScientificName,CommonName,StationNumber,PrimeStation,GearDescription,ProcessCode,Validity,DeploymentDateTime,DeploymentDepth,DeploymentLatitude,DeploymentLongitude
ASL,CREPIDULA FORNICATA,American slipper limpet,10,SA,"Otter Trawl Solent Bass Trawl 5 fm Headline, 6 & 8 metre bridles, 40mm Liner",OB,Valid,22/05/2003 13:23:00,1.0,51.365,0.811
ASL,CREPIDULA FORNICATA,American slipper limpet,12,T,"Otter Trawl Solent Bass Trawl 5 fm Headline, 6 & 8 metre bridles, 40mm Liner",OB,Valid,22/05/2003 14:53:00,4.0,51.346,0.910
ASL,CREPIDULA FORNICATA,American slipper limpet,21,BC,"Otter Trawl Solent Bass Trawl 5 fm Headline, 6 & 8 metre bridles, 40mm Liner",OB,Valid,24/05/2003 12:32:00,11.0,51.748,0.895
BIB,TRISOPTERUS LUSCUS,Whiting-pout (bib),1,L,"Otter Trawl Solent Bass Trawl 5 fm Headline, 6 & 8 metre bridles, 40mm Liner",OB,Valid,21/05/2003 08:34:00,7.0,51.506,0.860
BIB,TRISOPTERUS LUSCUS,Whiting-pout (bib),2,O,"Otter Trawl Solent Bass Trawl 5 fm Headline, 6 & 8 metre bridles, 40mm Liner",OB,Valid,21/05/2003 09:27:00,7.0,51.480,0.830
BIB,TRISOPTERUS LUSCUS,Whiting-pout (bib),2,O,Solent Bass Trawl  Port,WC,Valid,21/05/2003 09:27:00,7.0,51.480,0.830
BIB,TRISOPTERUS LUSCUS,Whiting-pout (bib),2,O,Solent Bass Trawl  Star,WC,Valid,21/05/2003 09:27:00,7.0,51.480,0.830
BIB,TRISOPTERUS LUSCUS,Whiting-pout (bib),3,K,"Otter Trawl Solent Bass Trawl 5 fm Headline, 6 & 8 metre bridles, 40mm Liner",OB,Valid,21/05/2003 10:33:00,6.0,51.503,0.775
BIB,TRISOPTERUS LUSCUS,Whiting-pout (bib),3,K,Solent Bass Trawl  Port,WC,Valid,21/05/2003 10:33:00,6.0,51.503,0.775
BIB,TRISOPTERUS LUSCUS,Whiting-pout (bib),25,X,Solent Bass Trawl  Port,WC,Valid,25/05/2003 12:20:00,4.0,51.441,0.728
BIB,TRISOPTERUS LUSCUS,Whiting-pout (bib),28,hA,Solent Bass Trawl  Port,WC,Valid,25/05/2003 15:15:00,4.0,51.408,0.651
BIB,TRISOPTERUS LUSCUS,Whiting-pout (bib),29,ma,"Otter Trawl Solent Bass Trawl 5 fm Headline, 6 & 8 metre bridles, 40mm Liner",OB,Valid,25/05/2003 16:25:00,5.0,51.396,0.698
BIB,TRISOPTERUS LUSCUS,Whiting-pout (bib),19,BA,Solent Bass Trawl  Star,WC,Valid,24/05/2003 11:00:00,11.0,51.745,1.005
BIB,TRISOPTERUS LUSCUS,Whiting-pout (bib),20,BB,Solent Bass Trawl  Port,WC,Valid,24/05/2003 11:53:00,10.0,51.755,0.926
BIB,TRISOPTERUS LUSCUS,Whiting-pout (bib),20,BB,Solent Bass Trawl  Star,WC,Valid,24/05/2003 11:53:00,10.0,51.755,0.926
BIB,TRISOPTERUS LUSCUS,Whiting-pout (bib),21,BC,Solent Bass Trawl  Port,WC,Valid,24/05/2003 12:32:00,11.0,51.748,0.895
BIB,TRISOPTERUS LUSCUS,Whiting-pout (bib),21,BC,Solent Bass Trawl  Star,WC,Valid,24/05/2003 12:32:00,11.0,51.748,0.895
BIB,TRISOPTERUS LUSCUS,Whiting-pout (bib),25,X,"Otter Trawl Solent Bass Trawl 5 fm Headline, 6 & 8 metre bridles, 40mm Liner",OB,Valid,25/05/2003 12:20:00,4.0,51.441,0.728
BIB,TRISOPTERUS LUSCUS,Whiting-pout (bib),17,CC,Solent Bass Trawl  Port,WC,Valid,23/05/2003 13:55:00,7.0,51.636,0.770
BIB,TRISOPTERUS LUSCUS,Whiting-pout (bib),17,CC,Solent Bass Trawl  Star,WC,Valid,23/05/2003 13:55:00,7.0,51.636,0.770
BIB,TRISOPTERUS LUSCUS,Whiting-pout (bib),18,CB,Solent Bass Trawl  Port,WC,Valid,23/05/2003 14:43:00,6.0,51.633,0.751
BIB,TRISOPTERUS LUSCUS,Whiting-pout (bib),18,CB,Solent Bass Trawl  Star,WC,Valid,23/05/2003 14:43:00,6.0,51.633,0.751
BIB,TRISOPTERUS LUSCUS,Whiting-pout (bib),19,BA,"Otter Trawl Solent Bass Trawl 5 fm Headline, 6 & 8 metre bridles, 40mm Liner",OB,Valid,24/05/2003 11:00:00,11.0,51.745,1.005
BIB,TRISOPTERUS LUSCUS,Whiting-pout (bib),19,BA,Solent Bass Trawl  Port,WC,Valid,24/05/2003 11:00:00,11.0,51.745,1.005
BIB,TRISOPTERUS LUSCUS,Whiting-pout (bib),14,CA,Solent Bass Trawl  Port,WC,Valid,23/05/2003 09:37:00,9.0,51.620,0.896
BIB,TRISOPTERUS LUSCUS,Whiting-pout (bib),14,CA,Solent Bass Trawl  Star,WC,Valid,23/05/2003 09:37:00,9.0,51.620,0.896
BIB,TRISOPTERUS LUSCUS,Whiting-pout (bib),15,RB,"Otter Trawl Solent Bass Trawl 5 fm Headline, 6 & 8 metre bridles, 40mm Liner",OB,Valid,23/05/2003 11:17:00,8.0,51.600,0.870
BIB,TRISOPTERUS LUSCUS,Whiting-pout (bib),15,RB,Solent Bass Trawl  Port,WC,Valid,23/05/2003 11:17:00,8.0,51.600,0.870
BIB,TRISOPTERUS LUSCUS,Whiting-pout (bib),15,RB,Solent Bass Trawl  Star,WC,Valid,23/05/2003 11:17:00,8.0,51.600,0.870
BIB,TRISOPTERUS LUSCUS,Whiting-pout (bib),16,RA,"Otter Trawl Solent Bass Trawl 5 fm Headline, 6 & 8 metre bridles, 40mm Liner",OB,Valid,23/05/2003 12:22:00,5.0,51.595,0.841
BIB,TRISOPTERUS LUSCUS,Whiting-pout (bib),11,U,"Otter Trawl Solent Bass Trawl 5 fm Headline, 6 & 8 metre bridles, 40mm Liner",OB,Valid,22/05/2003 14:06:00,1.0,51.360,0.848
BIB,TRISOPTERUS LUSCUS,Whiting-pout (bib),12,T,"Otter Trawl Solent Bass Trawl 5 fm Headline, 6 & 8 metre bridles, 40mm Liner",OB,Valid,22/05/2003 14:53:00,4.0,51.346,0.910
BIB,TRISOPTERUS LUSCUS,Whiting-pout (bib),12,T,Solent Bass Trawl  Port,WC,Valid,22/05/2003 14:53:00,4.0,51.346,0.910
BIB,TRISOPTERUS LUSCUS,Whiting-pout (bib),12,T,Solent Bass Trawl  Star,WC,Valid,22/05/2003 14:53:00,4.0,51.346,0.910
BIB,TRISOPTERUS LUSCUS,Whiting-pout (bib),13,CD,Solent Bass Trawl  Port,WC,Valid,23/05/2003 08:39:00,6.0,51.630,0.963
BIB,TRISOPTERUS LUSCUS,Whiting-pout (bib),13,CD,Solent Bass Trawl  Star,WC,Valid,23/05/2003 08:39:00,6.0,51.630,0.963
BIB,TRISOPTERUS LUSCUS,Whiting-pout (bib),6,M,"Otter Trawl Solent Bass Trawl 5 fm Headline, 6 & 8 metre bridles, 40mm Liner",OB,Valid,21/05/2003 01:17:00,4.0,51.488,0.683
BIB,TRISOPTERUS LUSCUS,Whiting-pout (bib),7,J,"Otter Trawl Solent Bass Trawl 5 fm Headline, 6 & 8 metre bridles, 40mm Liner",OB,Valid,21/05/2003 14:07:00,4.0,51.515,0.665
BIB,TRISOPTERUS LUSCUS,Whiting-pout (bib),8,S,Solent Bass Trawl  Port,WC,Valid,22/05/2003 09:33:00,5.0,51.378,0.968
BIB,TRISOPTERUS LUSCUS,Whiting-pout (bib),8,S,Solent Bass Trawl  Star,WC,Valid,22/05/2003 09:33:00,5.0,51.378,0.968
BIB,TRISOPTERUS LUSCUS,Whiting-pout (bib),10,SA,"Otter Trawl Solent Bass Trawl 5 fm Headline, 6 & 8 metre bridles, 40mm Liner",OB,Valid,22/05/2003 13:23:00,1.0,51.365,0.811
BIB,TRISOPTERUS LUSCUS,Whiting-pout (bib),10,SA,Solent Bass Trawl  Port,WC,Valid,22/05/2003 13:23:00,1.0,51.365,0.811
BIB,TRISOPTERUS LUSCUS,Whiting-pout (bib),4,P,"Otter Trawl Solent Bass Trawl 5 fm Headline, 6 & 8 metre bridles, 40mm Liner",OB,Valid,21/05/2003 11:21:00,6.0,51.510,0.720
BIB,TRISOPTERUS LUSCUS,Whiting-pout (bib),4,P,Solent Bass Trawl  Port,WC,Valid,21/05/2003 11:21:00,6.0,51.510,0.720
BIB,TRISOPTERUS LUSCUS,Whiting-pout (bib),4,P,Solent Bass Trawl  Star,WC,Valid,21/05/2003 11:21:00,6.0,51.510,0.720
BIB,TRISOPTERUS LUSCUS,Whiting-pout (bib),5,J1,"Otter Trawl Solent Bass Trawl 5 fm Headline, 6 & 8 metre bridles, 40mm Liner",OB,Valid,21/05/2003 12:28:00,6.0,51.513,0.668
BIB,TRISOPTERUS LUSCUS,Whiting-pout (bib),5,J1,Solent Bass Trawl  Port,WC,Valid,21/05/2003 12:28:00,6.0,51.513,0.668
BIB,TRISOPTERUS LUSCUS,Whiting-pout (bib),5,J1,Solent Bass Trawl  Star,WC,Valid,21/05/2003 12:28:00,6.0,51.513,0.668
BLG,GOBIUS NIGER,Black goby,10,SA,Solent Bass Trawl  Star,WC,Valid,22/05/2003 13:23:00,1.0,51.365,0.811
BLG,GOBIUS NIGER,Black goby,11,U,Solent Bass Trawl  Star,WC,Valid,22/05/2003 14:06:00,1.0,51.360,0.848
BLG,GOBIUS NIGER,Black goby,12,T,Solent Bass Trawl  Star,WC,Valid,22/05/2003 14:53:00,4.0,51.346,0.910
BLG,GOBIUS NIGER,Black goby,15,RB,"Otter Trawl Solent Bass Trawl 5 fm Headline, 6 & 8 metre bridles, 40mm Liner",OB,Valid,23/05/2003 11:17:00,8.0,51.600,0.870
BLG,GOBIUS NIGER,Black goby,15,RB,Solent Bass Trawl  Star,WC,Valid,23/05/2003 11:17:00,8.0,51.600,0.870
BLG,GOBIUS NIGER,Black goby,16,RA,"Otter Trawl Solent Bass Trawl 5 fm Headline, 6 & 8 metre bridles, 40mm Liner",OB,Valid,23/05/2003 12:22:00,5.0,51.595,0.841
BLG,GOBIUS NIGER,Black goby,28,hA,"Otter Trawl Solent Bass Trawl 5 fm Headline, 6 & 8 metre bridles, 40mm Liner",OB,Valid,25/05/2003 15:15:00,4.0,51.408,0.651
BLG,GOBIUS NIGER,Black goby,29,ma,Solent Bass Trawl  Port,WC,Valid,25/05/2003 16:25:00,5.0,51.396,0.698
BLG,GOBIUS NIGER,Black goby,29,ma,Solent Bass Trawl  Star,WC,Valid,25/05/2003 16:25:00,5.0,51.396,0.698
BLL,SCOPHTHALMUS RHOMBUS,Brill,7,J,Solent Bass Trawl  Star,WC,Valid,21/05/2003 14:07:00,4.0,51.515,0.665
BLL,SCOPHTHALMUS RHOMBUS,Brill,18,CB,Solent Bass Trawl  Star,WC,Valid,23/05/2003 14:43:00,6.0,51.633,0.751
BLL,SCOPHTHALMUS RHOMBUS,Brill,25,X,Solent Bass Trawl  Star,WC,Valid,25/05/2003 12:20:00,4.0,51.441,0.728
BRT,MYOXOCEPHALUS SCORPIUS,Bullrout,1,L,Solent Bass Trawl  Star,WC,Valid,21/05/2003 08:34:00,7.0,51.506,0.860
BRT,MYOXOCEPHALUS SCORPIUS,Bullrout,3,K,Solent Bass Trawl  Star,WC,Valid,21/05/2003 10:33:00,6.0,51.503,0.775
BRT,MYOXOCEPHALUS SCORPIUS,Bullrout,5,J1,Solent Bass Trawl  Star,WC,Valid,21/05/2003 12:28:00,6.0,51.513,0.668
BRT,MYOXOCEPHALUS SCORPIUS,Bullrout,7,J,Solent Bass Trawl  Star,WC,Valid,21/05/2003 14:07:00,4.0,51.515,0.665
BRT,MYOXOCEPHALUS SCORPIUS,Bullrout,29,ma,Solent Bass Trawl  Port,WC,Valid,25/05/2003 16:25:00,5.0,51.396,0.698
BRT,MYOXOCEPHALUS SCORPIUS,Bullrout,29,ma,Solent Bass Trawl  Star,WC,Valid,25/05/2003 16:25:00,5.0,51.396,0.698
BRT,MYOXOCEPHALUS SCORPIUS,Bullrout,17,CC,Solent Bass Trawl  Port,WC,Valid,23/05/2003 13:55:00,7.0,51.636,0.770
BRT,MYOXOCEPHALUS SCORPIUS,Bullrout,23,BD,Solent Bass Trawl  Port,WC,Valid,24/05/2003 14:16:00,5.0,51.728,0.845
BRT,MYOXOCEPHALUS SCORPIUS,Bullrout,23,BD,Solent Bass Trawl  Star,WC,Valid,24/05/2003 14:16:00,5.0,51.728,0.845
BRT,MYOXOCEPHALUS SCORPIUS,Bullrout,28,hA,Solent Bass Trawl  Port,WC,Valid,25/05/2003 15:15:00,4.0,51.408,0.651
BRT,MYOXOCEPHALUS SCORPIUS,Bullrout,28,hA,Solent Bass Trawl  Star,WC,Valid,25/05/2003 15:15:00,4.0,51.408,0.651
BRT,MYOXOCEPHALUS SCORPIUS,Bullrout,16,RA,Solent Bass Trawl  Port,WC,Valid,23/05/2003 12:22:00,5.0,51.595,0.841
BRT,MYOXOCEPHALUS SCORPIUS,Bullrout,16,RA,Solent Bass Trawl  Star,WC,Valid,23/05/2003 12:22:00,5.0,51.595,0.841
BRT,MYOXOCEPHALUS SCORPIUS,Bullrout,11,U,Solent Bass Trawl  Port,WC,Valid,22/05/2003 14:06:00,1.0,51.360,0.848
BRT,MYOXOCEPHALUS SCORPIUS,Bullrout,11,U,Solent Bass Trawl  Star,WC,Valid,22/05/2003 14:06:00,1.0,51.360,0.848
BRT,MYOXOCEPHALUS SCORPIUS,Bullrout,12,T,Solent Bass Trawl  Port,WC,Valid,22/05/2003 14:53:00,4.0,51.346,0.910
BRT,MYOXOCEPHALUS SCORPIUS,Bullrout,12,T,Solent Bass Trawl  Star,WC,Valid,22/05/2003 14:53:00,4.0,51.346,0.910
BRT,MYOXOCEPHALUS SCORPIUS,Bullrout,13,CD,Solent Bass Trawl  Port,WC,Valid,23/05/2003 08:39:00,6.0,51.630,0.963
BRT,MYOXOCEPHALUS SCORPIUS,Bullrout,15,RB,Solent Bass Trawl  Port,WC,Valid,23/05/2003 11:17:00,8.0,51.600,0.870
BTF,PHOLIS GUNNELLUS,Butter fish,12,T,Solent Bass Trawl  Port,WC,Valid,22/05/2003 14:53:00,4.0,51.346,0.910
BTF,PHOLIS GUNNELLUS,Butter fish,16,RA,Solent Bass Trawl  Star,WC,Valid,23/05/2003 12:22:00,5.0,51.595,0.841
BTF,PHOLIS GUNNELLUS,Butter fish,17,CC,Solent Bass Trawl  Star,WC,Valid,23/05/2003 13:55:00,7.0,51.636,0.770
BTF,PHOLIS GUNNELLUS,Butter fish,22,MHS,Solent Bass Trawl  Star,WC,Valid,24/05/2003 13:36:00,5.0,51.725,0.828
CDT,CALLIONYMUS LYRA,Common dragonet,4,P,Solent Bass Trawl  Star,WC,Valid,21/05/2003 11:21:00,6.0,51.510,0.720
CDT,CALLIONYMUS LYRA,Common dragonet,7,J,Solent Bass Trawl  Star,WC,Valid,21/05/2003 14:07:00,4.0,51.515,0.665
CDT,CALLIONYMUS LYRA,Common dragonet,11,U,Solent Bass Trawl  Port,WC,Valid,22/05/2003 14:06:00,1.0,51.360,0.848
CDT,CALLIONYMUS LYRA,Common dragonet,11,U,Solent Bass Trawl  Star,WC,Valid,22/05/2003 14:06:00,1.0,51.360,0.848
CDT,CALLIONYMUS LYRA,Common dragonet,12,T,Solent Bass Trawl  Port,WC,Valid,22/05/2003 14:53:00,4.0,51.346,0.910
CDT,CALLIONYMUS LYRA,Common dragonet,18,CB,Solent Bass Trawl  Star,WC,Valid,23/05/2003 14:43:00,6.0,51.633,0.751
CDT,CALLIONYMUS LYRA,Common dragonet,29,ma,Solent Bass Trawl  Port,WC,Valid,25/05/2003 16:25:00,5.0,51.396,0.698
CDT,CALLIONYMUS LYRA,Common dragonet,29,ma,Solent Bass Trawl  Star,WC,Valid,25/05/2003 16:25:00,5.0,51.396,0.698
CLU,CLUPEIDAE,Herrings,1,L,"Otter Trawl Solent Bass Trawl 5 fm Headline, 6 & 8 metre bridles, 40mm Liner",OB,Valid,21/05/2003 08:34:00,7.0,51.506,0.860
CLU,CLUPEIDAE,Herrings,3,K,"Otter Trawl Solent Bass Trawl 5 fm Headline, 6 & 8 metre bridles, 40mm Liner",OB,Valid,21/05/2003 10:33:00,6.0,51.503,0.775
CLU,CLUPEIDAE,Herrings,4,P,"Otter Trawl Solent Bass Trawl 5 fm Headline, 6 & 8 metre bridles, 40mm Liner",OB,Valid,21/05/2003 11:21:00,6.0,51.510,0.720
CLU,CLUPEIDAE,Herrings,5,J1,"Otter Trawl Solent Bass Trawl 5 fm Headline, 6 & 8 metre bridles, 40mm Liner",OB,Valid,21/05/2003 12:28:00,6.0,51.513,0.668
CLU,CLUPEIDAE,Herrings,6,M,"Otter Trawl Solent Bass Trawl 5 fm Headline, 6 & 8 metre bridles, 40mm Liner",OB,Valid,21/05/2003 01:17:00,4.0,51.488,0.683
CLU,CLUPEIDAE,Herrings,7,J,"Otter Trawl Solent Bass Trawl 5 fm Headline, 6 & 8 metre bridles, 40mm Liner",OB,Valid,21/05/2003 14:07:00,4.0,51.515,0.665
CLU,CLUPEIDAE,Herrings,28,hA,"Otter Trawl Solent Bass Trawl 5 fm Headline, 6 & 8 metre bridles, 40mm Liner",OB,Valid,25/05/2003 15:15:00,4.0,51.408,0.651
CLU,CLUPEIDAE,Herrings,29,ma,"Otter Trawl Solent Bass Trawl 5 fm Headline, 6 & 8 metre bridles, 40mm Liner",OB,Valid,25/05/2003 16:25:00,5.0,51.396,0.698
CLU,CLUPEIDAE,Herrings,16,RA,"Otter Trawl Solent Bass Trawl 5 fm Headline, 6 & 8 metre bridles, 40mm Liner",OB,Valid,23/05/2003 12:22:00,5.0,51.595,0.841
CLU,CLUPEIDAE,Herrings,19,BA,"Otter Trawl Solent Bass Trawl 5 fm Headline, 6 & 8 metre bridles, 40mm Liner",OB,Valid,24/05/2003 11:00:00,11.0,51.745,1.005
CLU,CLUPEIDAE,Herrings,24,N,"Otter Trawl Solent Bass Trawl 5 fm Headline, 6 & 8 metre bridles, 40mm Liner",OB,Valid,25/05/2003 11:28:00,3.0,51.461,0.753
CLU,CLUPEIDAE,Herrings,25,X,"Otter Trawl Solent Bass Trawl 5 fm Headline, 6 & 8 metre bridles, 40mm Liner",OB,Valid,25/05/2003 12:20:00,4.0,51.441,0.728
CLU,CLUPEIDAE,Herrings,26,W,"Otter Trawl Solent Bass Trawl 5 fm Headline, 6 & 8 metre bridles, 40mm Liner",OB,Valid,25/05/2003 13:15:00,4.0,51.431,0.666
CLU,CLUPEIDAE,Herrings,27,V,"Otter Trawl Solent Bass Trawl 5 fm Headline, 6 & 8 metre bridles, 40mm Liner",OB,Valid,25/05/2003 13:52:00,4.0,51.421,0.645
CLU,CLUPEIDAE,Herrings,8,S,"Otter Trawl Solent Bass Trawl 5 fm Headline, 6 & 8 metre bridles, 40mm Liner",OB,Valid,22/05/2003 09:33:00,5.0,51.378,0.968
CLU,CLUPEIDAE,Herrings,10,SA,"Otter Trawl Solent Bass Trawl 5 fm Headline, 6 & 8 metre bridles, 40mm Liner",OB,Valid,22/05/2003 13:23:00,1.0,51.365,0.811
CLU,CLUPEIDAE,Herrings,11,U,"Otter Trawl Solent Bass Trawl 5 fm Headline, 6 & 8 metre bridles, 40mm Liner",OB,Valid,22/05/2003 14:06:00,1.0,51.360,0.848
CLU,CLUPEIDAE,Herrings,12,T,"Otter Trawl Solent Bass Trawl 5 fm Headline, 6 & 8 metre bridles, 40mm Liner",OB,Valid,22/05/2003 14:53:00,4.0,51.346,0.910
CLU,CLUPEIDAE,Herrings,13,CD,"Otter Trawl Solent Bass Trawl 5 fm Headline, 6 & 8 metre bridles, 40mm Liner",OB,Valid,23/05/2003 08:39:00,6.0,51.630,0.963
CLU,CLUPEIDAE,Herrings,14,CA,"Otter Trawl Solent Bass Trawl 5 fm Headline, 6 & 8 metre bridles, 40mm Liner",OB,Valid,23/05/2003 09:37:00,9.0,51.620,0.896
CRE,CANCER PAGURUS,Edible crab,8,S,Solent Bass Trawl  Port,WC,Valid,22/05/2003 09:33:00,5.0,51.378,0.968
CRE,CANCER PAGURUS,Edible crab,17,CC,Solent Bass Trawl  Port,WC,Valid,23/05/2003 13:55:00,7.0,51.636,0.770
CRE,CANCER PAGURUS,Edible crab,22,MHS,"Otter Trawl Solent Bass Trawl 5 fm Headline, 6 & 8 metre bridles, 40mm Liner",OB,Valid,24/05/2003 13:36:00,5.0,51.725,0.828
CRE,CANCER PAGURUS,Edible crab,29,ma,Solent Bass Trawl  Star,WC,Valid,25/05/2003 16:25:00,5.0,51.396,0.698
CSH,CRANGON CRANGON,Common(brown)shrimp,25,X,"Otter Trawl Solent Bass Trawl 5 fm Headline, 6 & 8 metre bridles, 40mm Liner",OB,Valid,25/05/2003 12:20:00,4.0,51.441,0.728
CSH,CRANGON CRANGON,Common(brown)shrimp,28,hA,"Otter Trawl Solent Bass Trawl 5 fm Headline, 6 & 8 metre bridles, 40mm Liner",OB,Valid,25/05/2003 15:15:00,4.0,51.408,0.651
CTL,CEPHALOPODA-SEPIIDA,Cuttle-fishes,15,RB,Solent Bass Trawl  Star,WC,Valid,23/05/2003 11:17:00,8.0,51.600,0.870
DAB,LIMANDA LIMANDA,Dab,1,L,Solent Bass Trawl  Port,WC,Valid,21/05/2003 08:34:00,7.0,51.506,0.860
DAB,LIMANDA LIMANDA,Dab,1,L,Solent Bass Trawl  Star,WC,Valid,21/05/2003 08:34:00,7.0,51.506,0.860
DAB,LIMANDA LIMANDA,Dab,2,O,Solent Bass Trawl  Port,WC,Valid,21/05/2003 09:27:00,7.0,51.480,0.830
DAB,LIMANDA LIMANDA,Dab,3,K,Solent Bass Trawl  Port,WC,Valid,21/05/2003 10:33:00,6.0,51.503,0.775
DAB,LIMANDA LIMANDA,Dab,3,K,Solent Bass Trawl  Star,WC,Valid,21/05/2003 10:33:00,6.0,51.503,0.775
DAB,LIMANDA LIMANDA,Dab,4,P,Solent Bass Trawl  Port,WC,Valid,21/05/2003 11:21:00,6.0,51.510,0.720
DAB,LIMANDA LIMANDA,Dab,22,MHS,Solent Bass Trawl  Star,WC,Valid,24/05/2003 13:36:00,5.0,51.725,0.828
DAB,LIMANDA LIMANDA,Dab,23,BD,Solent Bass Trawl  Star,WC,Valid,24/05/2003 14:16:00,5.0,51.728,0.845
DAB,LIMANDA LIMANDA,Dab,29,ma,Solent Bass Trawl  Star,WC,Valid,25/05/2003 16:25:00,5.0,51.396,0.698
DAB,LIMANDA LIMANDA,Dab,17,CC,Solent Bass Trawl  Port,WC,Valid,23/05/2003 13:55:00,7.0,51.636,0.770
DAB,LIMANDA LIMANDA,Dab,17,CC,Solent Bass Trawl  Star,WC,Valid,23/05/2003 13:55:00,7.0,51.636,0.770
DAB,LIMANDA LIMANDA,Dab,18,CB,Solent Bass Trawl  Star,WC,Valid,23/05/2003 14:43:00,6.0,51.633,0.751
DAB,LIMANDA LIMANDA,Dab,20,BB,Solent Bass Trawl  Port,WC,Valid,24/05/2003 11:53:00,10.0,51.755,0.926
DAB,LIMANDA LIMANDA,Dab,21,BC,Solent Bass Trawl  Port,WC,Valid,24/05/2003 12:32:00,11.0,51.748,0.895
DAB,LIMANDA LIMANDA,Dab,21,BC,Solent Bass Trawl  Star,WC,Valid,24/05/2003 12:32:00,11.0,51.748,0.895
DAB,LIMANDA LIMANDA,Dab,11,U,Solent Bass Trawl  Star,WC,Valid,22/05/2003 14:06:00,1.0,51.360,0.848
DAB,LIMANDA LIMANDA,Dab,12,T,Solent Bass Trawl  Port,WC,Valid,22/05/2003 14:53:00,4.0,51.346,0.910
DAB,LIMANDA LIMANDA,Dab,12,T,Solent Bass Trawl  Star,WC,Valid,22/05/2003 14:53:00,4.0,51.346,0.910
DAB,LIMANDA LIMANDA,Dab,13,CD,Solent Bass Trawl  Port,WC,Valid,23/05/2003 08:39:00,6.0,51.630,0.963
DAB,LIMANDA LIMANDA,Dab,15,RB,Solent Bass Trawl  Star,WC,Valid,23/05/2003 11:17:00,8.0,51.600,0.870
DAB,LIMANDA LIMANDA,Dab,16,RA,Solent Bass Trawl  Star,WC,Valid,23/05/2003 12:22:00,5.0,51.595,0.841
DAB,LIMANDA LIMANDA,Dab,4,P,Solent Bass Trawl  Star,WC,Valid,21/05/2003 11:21:00,6.0,51.510,0.720
DAB,LIMANDA LIMANDA,Dab,5,J1,Solent Bass Trawl  Port,WC,Valid,21/05/2003 12:28:00,6.0,51.513,0.668
DAB,LIMANDA LIMANDA,Dab,5,J1,Solent Bass Trawl  Star,WC,Valid,21/05/2003 12:28:00,6.0,51.513,0.668
DAB,LIMANDA LIMANDA,Dab,7,J,Solent Bass Trawl  Port,WC,Valid,21/05/2003 14:07:00,4.0,51.515,0.665
DAB,LIMANDA LIMANDA,Dab,7,J,Solent Bass Trawl  Star,WC,Valid,21/05/2003 14:07:00,4.0,51.515,0.665
DAB,LIMANDA LIMANDA,Dab,11,U,Solent Bass Trawl  Port,WC,Valid,22/05/2003 14:06:00,1.0,51.360,0.848
DTX,CALLIONYMIDAE,Dragonets,17,CC,Solent Bass Trawl  Star,WC,Valid,23/05/2003 13:55:00,7.0,51.636,0.770
EEL,ANGUILLIDAE,Eels,5,J1,Solent Bass Trawl  Port,WC,Valid,21/05/2003 12:28:00,6.0,51.513,0.668
EEL,ANGUILLIDAE,Eels,29,ma,Solent Bass Trawl  Port,WC,Valid,25/05/2003 16:25:00,5.0,51.396,0.698
EEL,ANGUILLIDAE,Eels,16,RA,Solent Bass Trawl  Port,WC,Valid,23/05/2003 12:22:00,5.0,51.595,0.841
EEL,ANGUILLIDAE,Eels,23,BD,Solent Bass Trawl  Star,WC,Valid,24/05/2003 14:16:00,5.0,51.728,0.845
EEL,ANGUILLIDAE,Eels,25,X,Solent Bass Trawl  Port,WC,Valid,25/05/2003 12:20:00,4.0,51.441,0.728
EEL,ANGUILLIDAE,Eels,10,SA,Solent Bass Trawl  Port,WC,Valid,22/05/2003 13:23:00,1.0,51.365,0.811
EEL,ANGUILLIDAE,Eels,10,SA,Solent Bass Trawl  Star,WC,Valid,22/05/2003 13:23:00,1.0,51.365,0.811
EEL,ANGUILLIDAE,Eels,11,U,Solent Bass Trawl  Port,WC,Valid,22/05/2003 14:06:00,1.0,51.360,0.848
EEL,ANGUILLIDAE,Eels,12,T,Solent Bass Trawl  Port,WC,Valid,22/05/2003 14:53:00,4.0,51.346,0.910
EEL,ANGUILLIDAE,Eels,12,T,Solent Bass Trawl  Star,WC,Valid,22/05/2003 14:53:00,4.0,51.346,0.910
ELP,ZOARCES VIVIPARUS,Eelpout/viviparus blenny,4,P,Solent Bass Trawl  Star,WC,Valid,21/05/2003 11:21:00,6.0,51.510,0.720
ELP,ZOARCES VIVIPARUS,Eelpout/viviparus blenny,7,J,Solent Bass Trawl  Star,WC,Valid,21/05/2003 14:07:00,4.0,51.515,0.665
ELP,ZOARCES VIVIPARUS,Eelpout/viviparus blenny,11,U,Solent Bass Trawl  Port,WC,Valid,22/05/2003 14:06:00,1.0,51.360,0.848
ELP,ZOARCES VIVIPARUS,Eelpout/viviparus blenny,12,T,Solent Bass Trawl  Star,WC,Valid,22/05/2003 14:53:00,4.0,51.346,0.910
ELP,ZOARCES VIVIPARUS,Eelpout/viviparus blenny,16,RA,Solent Bass Trawl  Star,WC,Valid,23/05/2003 12:22:00,5.0,51.595,0.841
ELP,ZOARCES VIVIPARUS,Eelpout/viviparus blenny,17,CC,Solent Bass Trawl  Star,WC,Valid,23/05/2003 13:55:00,7.0,51.636,0.770
ELP,ZOARCES VIVIPARUS,Eelpout/viviparus blenny,18,CB,Solent Bass Trawl  Port,WC,Valid,23/05/2003 14:43:00,6.0,51.633,0.751
ELP,ZOARCES VIVIPARUS,Eelpout/viviparus blenny,18,CB,Solent Bass Trawl  Star,WC,Valid,23/05/2003 14:43:00,6.0,51.633,0.751
ELP,ZOARCES VIVIPARUS,Eelpout/viviparus blenny,28,hA,Solent Bass Trawl  Port,WC,Valid,25/05/2003 15:15:00,4.0,51.408,0.651
ELP,ZOARCES VIVIPARUS,Eelpout/viviparus blenny,28,hA,Solent Bass Trawl  Star,WC,Valid,25/05/2003 15:15:00,4.0,51.408,0.651
ELP,ZOARCES VIVIPARUS,Eelpout/viviparus blenny,29,ma,Solent Bass Trawl  Star,WC,Valid,25/05/2003 16:25:00,5.0,51.396,0.698
EPX,ZOARCIDAE,Eel-pouts,16,RA,Solent Bass Trawl  Port,WC,Valid,23/05/2003 12:22:00,5.0,51.595,0.841
ESB,DICENTRARCHUS LABRAX,European seabass,1,L,Solent Bass Trawl  Port,MO,Valid,21/05/2003 08:34:00,7.0,51.506,0.860
ESB,DICENTRARCHUS LABRAX,European seabass,1,L,Solent Bass Trawl  Star,MO,Valid,21/05/2003 08:34:00,7.0,51.506,0.860
ESB,DICENTRARCHUS LABRAX,European seabass,2,O,Solent Bass Trawl  Port,MO,Valid,21/05/2003 09:27:00,7.0,51.480,0.830
ESB,DICENTRARCHUS LABRAX,European seabass,3,K,Solent Bass Trawl  Port,MO,Valid,21/05/2003 10:33:00,6.0,51.503,0.775
ESB,DICENTRARCHUS LABRAX,European seabass,3,K,Solent Bass Trawl  Star,MO,Valid,21/05/2003 10:33:00,6.0,51.503,0.775
ESB,DICENTRARCHUS LABRAX,European seabass,4,P,Solent Bass Trawl  Port,MO,Valid,21/05/2003 11:21:00,6.0,51.510,0.720
ESB,DICENTRARCHUS LABRAX,European seabass,27,V,Solent Bass Trawl  Star,MO,Valid,25/05/2003 13:52:00,4.0,51.421,0.645
ESB,DICENTRARCHUS LABRAX,European seabass,28,hA,Solent Bass Trawl  Port,MO,Valid,25/05/2003 15:15:00,4.0,51.408,0.651
ESB,DICENTRARCHUS LABRAX,European seabass,28,hA,Solent Bass Trawl  Star,MO,Valid,25/05/2003 15:15:00,4.0,51.408,0.651
ESB,DICENTRARCHUS LABRAX,European seabass,29,ma,Solent Bass Trawl  Port,MO,Valid,25/05/2003 16:25:00,5.0,51.396,0.698
ESB,DICENTRARCHUS LABRAX,European seabass,29,ma,Solent Bass Trawl  Star,MO,Valid,25/05/2003 16:25:00,5.0,51.396,0.698
ESB,DICENTRARCHUS LABRAX,European seabass,24,N,Solent Bass Trawl  Star,MO,Valid,25/05/2003 11:28:00,3.0,51.461,0.753
ESB,DICENTRARCHUS LABRAX,European seabass,25,X,Solent Bass Trawl  Port,MO,Valid,25/05/2003 12:20:00,4.0,51.441,0.728
ESB,DICENTRARCHUS LABRAX,European seabass,25,X,Solent Bass Trawl  Star,MO,Valid,25/05/2003 12:20:00,4.0,51.441,0.728
ESB,DICENTRARCHUS LABRAX,European seabass,26,W,Solent Bass Trawl  Port,MO,Valid,25/05/2003 13:15:00,4.0,51.431,0.666
ESB,DICENTRARCHUS LABRAX,European seabass,26,W,Solent Bass Trawl  Star,MO,Valid,25/05/2003 13:15:00,4.0,51.431,0.666
ESB,DICENTRARCHUS LABRAX,European seabass,27,V,Solent Bass Trawl  Port,MO,Valid,25/05/2003 13:52:00,4.0,51.421,0.645
ESB,DICENTRARCHUS LABRAX,European seabass,18,CB,Solent Bass Trawl  Port,MO,Valid,23/05/2003 14:43:00,6.0,51.633,0.751
ESB,DICENTRARCHUS LABRAX,European seabass,18,CB,Solent Bass Trawl  Star,MO,Valid,23/05/2003 14:43:00,6.0,51.633,0.751
ESB,DICENTRARCHUS LABRAX,European seabass,22,MHS,Solent Bass Trawl  Port,MO,Valid,24/05/2003 13:36:00,5.0,51.725,0.828
ESB,DICENTRARCHUS LABRAX,European seabass,23,BD,Solent Bass Trawl  Port,MO,Valid,24/05/2003 14:16:00,5.0,51.728,0.845
ESB,DICENTRARCHUS LABRAX,European seabass,23,BD,Solent Bass Trawl  Star,MO,Valid,24/05/2003 14:16:00,5.0,51.728,0.845
ESB,DICENTRARCHUS LABRAX,European seabass,24,N,Solent Bass Trawl  Port,MO,Valid,25/05/2003 11:28:00,3.0,51.461,0.753
ESB,DICENTRARCHUS LABRAX,European seabass,14,CA,Solent Bass Trawl  Star,MO,Valid,23/05/2003 09:37:00,9.0,51.620,0.896
ESB,DICENTRARCHUS LABRAX,European seabass,15,RB,Solent Bass Trawl  Star,MO,Valid,23/05/2003 11:17:00,8.0,51.600,0.870
ESB,DICENTRARCHUS LABRAX,European seabass,16,RA,Solent Bass Trawl  Port,MO,Valid,23/05/2003 12:22:00,5.0,51.595,0.841
ESB,DICENTRARCHUS LABRAX,European seabass,16,RA,Solent Bass Trawl  Star,MO,Valid,23/05/2003 12:22:00,5.0,51.595,0.841
ESB,DICENTRARCHUS LABRAX,European seabass,17,CC,Solent Bass Trawl  Port,MO,Valid,23/05/2003 13:55:00,7.0,51.636,0.770
ESB,DICENTRARCHUS LABRAX,European seabass,17,CC,Solent Bass Trawl  Star,MO,Valid,23/05/2003 13:55:00,7.0,51.636,0.770
ESB,DICENTRARCHUS LABRAX,European seabass,11,U,Solent Bass Trawl  Port,MO,Valid,22/05/2003 14:06:00,1.0,51.360,0.848
ESB,DICENTRARCHUS LABRAX,European seabass,11,U,Solent Bass Trawl  Star,MO,Valid,22/05/2003 14:06:00,1.0,51.360,0.848
ESB,DICENTRARCHUS LABRAX,European seabass,12,T,Solent Bass Trawl  Port,MO,Valid,22/05/2003 14:53:00,4.0,51.346,0.910
ESB,DICENTRARCHUS LABRAX,European seabass,12,T,Solent Bass Trawl  Star,MO,Valid,22/05/2003 14:53:00,4.0,51.346,0.910
ESB,DICENTRARCHUS LABRAX,European seabass,13,CD,Solent Bass Trawl  Port,MO,Valid,23/05/2003 08:39:00,6.0,51.630,0.963
ESB,DICENTRARCHUS LABRAX,European seabass,14,CA,Solent Bass Trawl  Port,MO,Valid,23/05/2003 09:37:00,9.0,51.620,0.896
ESB,DICENTRARCHUS LABRAX,European seabass,6,M,Solent Bass Trawl  Port,MO,Valid,21/05/2003 01:17:00,4.0,51.488,0.683
ESB,DICENTRARCHUS LABRAX,European seabass,6,M,Solent Bass Trawl  Star,MO,Valid,21/05/2003 01:17:00,4.0,51.488,0.683
ESB,DICENTRARCHUS LABRAX,European seabass,7,J,Solent Bass Trawl  Port,MO,Valid,21/05/2003 14:07:00,4.0,51.515,0.665
ESB,DICENTRARCHUS LABRAX,European seabass,7,J,Solent Bass Trawl  Star,MO,Valid,21/05/2003 14:07:00,4.0,51.515,0.665
ESB,DICENTRARCHUS LABRAX,European seabass,10,SA,Solent Bass Trawl  Port,MO,Valid,22/05/2003 13:23:00,1.0,51.365,0.811
ESB,DICENTRARCHUS LABRAX,European seabass,10,SA,Solent Bass Trawl  Star,MO,Valid,22/05/2003 13:23:00,1.0,51.365,0.811
FLE,PLATICHTHYS FLESUS,Flounder (european),1,L,Solent Bass Trawl  Star,WC,Valid,21/05/2003 08:34:00,7.0,51.506,0.860
FLE,PLATICHTHYS FLESUS,Flounder (european),2,O,Solent Bass Trawl  Port,WC,Valid,21/05/2003 09:27:00,7.0,51.480,0.830
FLE,PLATICHTHYS FLESUS,Flounder (european),2,O,Solent Bass Trawl  Star,WC,Valid,21/05/2003 09:27:00,7.0,51.480,0.830
FLE,PLATICHTHYS FLESUS,Flounder (european),3,K,Solent Bass Trawl  Port,WC,Valid,21/05/2003 10:33:00,6.0,51.503,0.775
FLE,PLATICHTHYS FLESUS,Flounder (european),3,K,Solent Bass Trawl  Star,WC,Valid,21/05/2003 10:33:00,6.0,51.503,0.775
FLE,PLATICHTHYS FLESUS,Flounder (european),4,P,Solent Bass Trawl  Port,WC,Valid,21/05/2003 11:21:00,6.0,51.510,0.720
FLE,PLATICHTHYS FLESUS,Flounder (european),28,hA,Solent Bass Trawl  Star,WC,Valid,25/05/2003 15:15:00,4.0,51.408,0.651
FLE,PLATICHTHYS FLESUS,Flounder (european),29,ma,Solent Bass Trawl  Port,WC,Valid,25/05/2003 16:25:00,5.0,51.396,0.698
FLE,PLATICHTHYS FLESUS,Flounder (european),29,ma,Solent Bass Trawl  Star,WC,Valid,25/05/2003 16:25:00,5.0,51.396,0.698
FLE,PLATICHTHYS FLESUS,Flounder (european),25,X,Solent Bass Trawl  Port,WC,Valid,25/05/2003 12:20:00,4.0,51.441,0.728
FLE,PLATICHTHYS FLESUS,Flounder (european),25,X,Solent Bass Trawl  Star,WC,Valid,25/05/2003 12:20:00,4.0,51.441,0.728
FLE,PLATICHTHYS FLESUS,Flounder (european),26,W,Solent Bass Trawl  Star,WC,Valid,25/05/2003 13:15:00,4.0,51.431,0.666
FLE,PLATICHTHYS FLESUS,Flounder (european),27,V,Solent Bass Trawl  Port,WC,Valid,25/05/2003 13:52:00,4.0,51.421,0.645
FLE,PLATICHTHYS FLESUS,Flounder (european),27,V,Solent Bass Trawl  Star,WC,Valid,25/05/2003 13:52:00,4.0,51.421,0.645
FLE,PLATICHTHYS FLESUS,Flounder (european),28,hA,Solent Bass Trawl  Port,WC,Valid,25/05/2003 15:15:00,4.0,51.408,0.651
FLE,PLATICHTHYS FLESUS,Flounder (european),22,MHS,Solent Bass Trawl  Port,WC,Valid,24/05/2003 13:36:00,5.0,51.725,0.828
FLE,PLATICHTHYS FLESUS,Flounder (european),22,MHS,Solent Bass Trawl  Star,WC,Valid,24/05/2003 13:36:00,5.0,51.725,0.828
FLE,PLATICHTHYS FLESUS,Flounder (european),23,BD,Solent Bass Trawl  Port,WC,Valid,24/05/2003 14:16:00,5.0,51.728,0.845
FLE,PLATICHTHYS FLESUS,Flounder (european),23,BD,Solent Bass Trawl  Star,WC,Valid,24/05/2003 14:16:00,5.0,51.728,0.845
FLE,PLATICHTHYS FLESUS,Flounder (european),24,N,Solent Bass Trawl  Port,WC,Valid,25/05/2003 11:28:00,3.0,51.461,0.753
FLE,PLATICHTHYS FLESUS,Flounder (european),24,N,Solent Bass Trawl  Star,WC,Valid,25/05/2003 11:28:00,3.0,51.461,0.753
FLE,PLATICHTHYS FLESUS,Flounder (european),17,CC,Solent Bass Trawl  Star,WC,Valid,23/05/2003 13:55:00,7.0,51.636,0.770
FLE,PLATICHTHYS FLESUS,Flounder (european),18,CB,Solent Bass Trawl  Star,WC,Valid,23/05/2003 14:43:00,6.0,51.633,0.751
FLE,PLATICHTHYS FLESUS,Flounder (european),19,BA,Solent Bass Trawl  Port,WC,Valid,24/05/2003 11:00:00,11.0,51.745,1.005
FLE,PLATICHTHYS FLESUS,Flounder (european),19,BA,Solent Bass Trawl  Star,WC,Valid,24/05/2003 11:00:00,11.0,51.745,1.005
FLE,PLATICHTHYS FLESUS,Flounder (european),21,BC,Solent Bass Trawl  Port,WC,Valid,24/05/2003 12:32:00,11.0,51.748,0.895
FLE,PLATICHTHYS FLESUS,Flounder (european),21,BC,Solent Bass Trawl  Star,WC,Valid,24/05/2003 12:32:00,11.0,51.748,0.895
FLE,PLATICHTHYS FLESUS,Flounder (european),14,CA,Solent Bass Trawl  Star,WC,Valid,23/05/2003 09:37:00,9.0,51.620,0.896
FLE,PLATICHTHYS FLESUS,Flounder (european),15,RB,Solent Bass Trawl  Port,WO,Valid,23/05/2003 11:17:00,8.0,51.600,0.870
FLE,PLATICHTHYS FLESUS,Flounder (european),15,RB,Solent Bass Trawl  Star,WC,Valid,23/05/2003 11:17:00,8.0,51.600,0.870
FLE,PLATICHTHYS FLESUS,Flounder (european),16,RA,Solent Bass Trawl  Port,WC,Valid,23/05/2003 12:22:00,5.0,51.595,0.841
FLE,PLATICHTHYS FLESUS,Flounder (european),16,RA,Solent Bass Trawl  Star,WC,Valid,23/05/2003 12:22:00,5.0,51.595,0.841
FLE,PLATICHTHYS FLESUS,Flounder (european),17,CC,Solent Bass Trawl  Port,WC,Valid,23/05/2003 13:55:00,7.0,51.636,0.770
FLE,PLATICHTHYS FLESUS,Flounder (european),11,U,Solent Bass Trawl  Star,WC,Valid,22/05/2003 14:06:00,1.0,51.360,0.848
FLE,PLATICHTHYS FLESUS,Flounder (european),12,T,Solent Bass Trawl  Port,WC,Valid,22/05/2003 14:53:00,4.0,51.346,0.910
FLE,PLATICHTHYS FLESUS,Flounder (european),12,T,Solent Bass Trawl  Star,WC,Valid,22/05/2003 14:53:00,4.0,51.346,0.910
FLE,PLATICHTHYS FLESUS,Flounder (european),13,CD,Solent Bass Trawl  Port,WC,Valid,23/05/2003 08:39:00,6.0,51.630,0.963
FLE,PLATICHTHYS FLESUS,Flounder (european),13,CD,Solent Bass Trawl  Star,WC,Valid,23/05/2003 08:39:00,6.0,51.630,0.963
FLE,PLATICHTHYS FLESUS,Flounder (european),14,CA,Solent Bass Trawl  Port,WC,Valid,23/05/2003 09:37:00,9.0,51.620,0.896
FLE,PLATICHTHYS FLESUS,Flounder (european),7,J,Solent Bass Trawl  Star,WC,Valid,21/05/2003 14:07:00,4.0,51.515,0.665
FLE,PLATICHTHYS FLESUS,Flounder (european),8,S,Solent Bass Trawl  Port,WC,Valid,22/05/2003 09:33:00,5.0,51.378,0.968
FLE,PLATICHTHYS FLESUS,Flounder (european),8,S,Solent Bass Trawl  Star,WC,Valid,22/05/2003 09:33:00,5.0,51.378,0.968
FLE,PLATICHTHYS FLESUS,Flounder (european),10,SA,Solent Bass Trawl  Port,WC,Valid,22/05/2003 13:23:00,1.0,51.365,0.811
FLE,PLATICHTHYS FLESUS,Flounder (european),10,SA,Solent Bass Trawl  Star,WC,Valid,22/05/2003 13:23:00,1.0,51.365,0.811
FLE,PLATICHTHYS FLESUS,Flounder (european),11,U,Solent Bass Trawl  Port,WC,Valid,22/05/2003 14:06:00,1.0,51.360,0.848
FLE,PLATICHTHYS FLESUS,Flounder (european),4,P,Solent Bass Trawl  Star,WC,Valid,21/05/2003 11:21:00,6.0,51.510,0.720
FLE,PLATICHTHYS FLESUS,Flounder (european),5,J1,Solent Bass Trawl  Port,WC,Valid,21/05/2003 12:28:00,6.0,51.513,0.668
FLE,PLATICHTHYS FLESUS,Flounder (european),5,J1,Solent Bass Trawl  Star,WC,Valid,21/05/2003 12:28:00,6.0,51.513,0.668
FLE,PLATICHTHYS FLESUS,Flounder (european),6,M,Solent Bass Trawl  Port,WC,Valid,21/05/2003 01:17:00,4.0,51.488,0.683
FLE,PLATICHTHYS FLESUS,Flounder (european),6,M,Solent Bass Trawl  Star,WC,Valid,21/05/2003 01:17:00,4.0,51.488,0.683
FLE,PLATICHTHYS FLESUS,Flounder (european),7,J,Solent Bass Trawl  Port,WC,Valid,21/05/2003 14:07:00,4.0,51.515,0.665
FVR,CILIATA MUSTELA,Five-bearded rockling,8,S,Solent Bass Trawl  Port,WC,Valid,22/05/2003 09:33:00,5.0,51.378,0.968
FVR,CILIATA MUSTELA,Five-bearded rockling,8,S,Solent Bass Trawl  Star,WC,Valid,22/05/2003 09:33:00,5.0,51.378,0.968
FVR,CILIATA MUSTELA,Five-bearded rockling,25,X,Solent Bass Trawl  Port,WC,Valid,25/05/2003 12:20:00,4.0,51.441,0.728
FVR,CILIATA MUSTELA,Five-bearded rockling,15,RB,Solent Bass Trawl  Port,WC,Valid,23/05/2003 11:17:00,8.0,51.600,0.870
FVR,CILIATA MUSTELA,Five-bearded rockling,15,RB,Solent Bass Trawl  Star,WC,Valid,23/05/2003 11:17:00,8.0,51.600,0.870
FVR,CILIATA MUSTELA,Five-bearded rockling,16,RA,Solent Bass Trawl  Port,WC,Valid,23/05/2003 12:22:00,5.0,51.595,0.841
FVR,CILIATA MUSTELA,Five-bearded rockling,16,RA,Solent Bass Trawl  Star,WC,Valid,23/05/2003 12:22:00,5.0,51.595,0.841
GAR,BELONE BELONE,Garfish,1,L,Solent Bass Trawl  Port,WC,Valid,21/05/2003 08:34:00,7.0,51.506,0.860
GPA,GOBIIDAE,Gobies,1,L,"Otter Trawl Solent Bass Trawl 5 fm Headline, 6 & 8 metre bridles, 40mm Liner",OB,Valid,21/05/2003 08:34:00,7.0,51.506,0.860
GPA,GOBIIDAE,Gobies,8,S,"Otter Trawl Solent Bass Trawl 5 fm Headline, 6 & 8 metre bridles, 40mm Liner",OB,Valid,22/05/2003 09:33:00,5.0,51.378,0.968
GPA,GOBIIDAE,Gobies,11,U,"Otter Trawl Solent Bass Trawl 5 fm Headline, 6 & 8 metre bridles, 40mm Liner",OB,Valid,22/05/2003 14:06:00,1.0,51.360,0.848
GPA,GOBIIDAE,Gobies,12,T,"Otter Trawl Solent Bass Trawl 5 fm Headline, 6 & 8 metre bridles, 40mm Liner",OB,Valid,22/05/2003 14:53:00,4.0,51.346,0.910
GPA,GOBIIDAE,Gobies,13,CD,"Otter Trawl Solent Bass Trawl 5 fm Headline, 6 & 8 metre bridles, 40mm Liner",OB,Valid,23/05/2003 08:39:00,6.0,51.630,0.963
GPA,GOBIIDAE,Gobies,15,RB,"Otter Trawl Solent Bass Trawl 5 fm Headline, 6 & 8 metre bridles, 40mm Liner",OB,Valid,23/05/2003 11:17:00,8.0,51.600,0.870
GPA,GOBIIDAE,Gobies,17,CC,"Otter Trawl Solent Bass Trawl 5 fm Headline, 6 & 8 metre bridles, 40mm Liner",OB,Valid,23/05/2003 13:55:00,7.0,51.636,0.770
GPA,GOBIIDAE,Gobies,18,CB,"Otter Trawl Solent Bass Trawl 5 fm Headline, 6 & 8 metre bridles, 40mm Liner",OB,Valid,23/05/2003 14:43:00,6.0,51.633,0.751
GPA,GOBIIDAE,Gobies,24,N,"Otter Trawl Solent Bass Trawl 5 fm Headline, 6 & 8 metre bridles, 40mm Liner",OB,Valid,25/05/2003 11:28:00,3.0,51.461,0.753
GPA,GOBIIDAE,Gobies,26,W,"Otter Trawl Solent Bass Trawl 5 fm Headline, 6 & 8 metre bridles, 40mm Liner",OB,Valid,25/05/2003 13:15:00,4.0,51.431,0.666
GPA,GOBIIDAE,Gobies,29,ma,"Otter Trawl Solent Bass Trawl 5 fm Headline, 6 & 8 metre bridles, 40mm Liner",OB,Valid,25/05/2003 16:25:00,5.0,51.396,0.698
GPF,SYNGNATHUS ACUS,Great pipefish,2,O,Solent Bass Trawl  Star,WC,Valid,21/05/2003 09:27:00,7.0,51.480,0.830
GPF,SYNGNATHUS ACUS,Great pipefish,3,K,Solent Bass Trawl  Port,WC,Valid,21/05/2003 10:33:00,6.0,51.503,0.775
GPF,SYNGNATHUS ACUS,Great pipefish,3,K,Solent Bass Trawl  Star,WC,Valid,21/05/2003 10:33:00,6.0,51.503,0.775
GPF,SYNGNATHUS ACUS,Great pipefish,4,P,Solent Bass Trawl  Port,WC,Valid,21/05/2003 11:21:00,6.0,51.510,0.720
GPF,SYNGNATHUS ACUS,Great pipefish,7,J,Solent Bass Trawl  Star,WC,Valid,21/05/2003 14:07:00,4.0,51.515,0.665
GPF,SYNGNATHUS ACUS,Great pipefish,23,BD,Solent Bass Trawl  Star,WC,Valid,24/05/2003 14:16:00,5.0,51.728,0.845
GPF,SYNGNATHUS ACUS,Great pipefish,24,N,Solent Bass Trawl  Star,WC,Valid,25/05/2003 11:28:00,3.0,51.461,0.753
GPF,SYNGNATHUS ACUS,Great pipefish,28,hA,Solent Bass Trawl  Port,WC,Valid,25/05/2003 15:15:00,4.0,51.408,0.651
GPF,SYNGNATHUS ACUS,Great pipefish,28,hA,Solent Bass Trawl  Star,WC,Valid,25/05/2003 15:15:00,4.0,51.408,0.651
GPF,SYNGNATHUS ACUS,Great pipefish,29,ma,Solent Bass Trawl  Port,WC,Valid,25/05/2003 16:25:00,5.0,51.396,0.698
GPF,SYNGNATHUS ACUS,Great pipefish,29,ma,Solent Bass Trawl  Star,WC,Valid,25/05/2003 16:25:00,5.0,51.396,0.698
GPF,SYNGNATHUS ACUS,Great pipefish,16,RA,Solent Bass Trawl  Port,WC,Valid,23/05/2003 12:22:00,5.0,51.595,0.841
GPF,SYNGNATHUS ACUS,Great pipefish,16,RA,Solent Bass Trawl  Star,WC,Valid,23/05/2003 12:22:00,5.0,51.595,0.841
GPF,SYNGNATHUS ACUS,Great pipefish,18,CB,Solent Bass Trawl  Port,WC,Valid,23/05/2003 14:43:00,6.0,51.633,0.751
GPF,SYNGNATHUS ACUS,Great pipefish,18,CB,Solent Bass Trawl  Star,WC,Valid,23/05/2003 14:43:00,6.0,51.633,0.751
GPF,SYNGNATHUS ACUS,Great pipefish,20,BB,Solent Bass Trawl  Star,WC,Valid,24/05/2003 11:53:00,10.0,51.755,0.926
GPF,SYNGNATHUS ACUS,Great pipefish,10,SA,Solent Bass Trawl  Star,WC,Valid,22/05/2003 13:23:00,1.0,51.365,0.811
GPF,SYNGNATHUS ACUS,Great pipefish,11,U,Solent Bass Trawl  Port,WC,Valid,22/05/2003 14:06:00,1.0,51.360,0.848
GPF,SYNGNATHUS ACUS,Great pipefish,12,T,Solent Bass Trawl  Port,WC,Valid,22/05/2003 14:53:00,4.0,51.346,0.910
GPF,SYNGNATHUS ACUS,Great pipefish,12,T,Solent Bass Trawl  Star,WC,Valid,22/05/2003 14:53:00,4.0,51.346,0.910
GPF,SYNGNATHUS ACUS,Great pipefish,13,CD,Solent Bass Trawl  Star,WC,Valid,23/05/2003 08:39:00,6.0,51.630,0.963
GPF,SYNGNATHUS ACUS,Great pipefish,15,RB,Solent Bass Trawl  Star,WC,Valid,23/05/2003 11:17:00,8.0,51.600,0.870
GUR,ASPITRIGLA (CHELIDONICHTHYS) CUCULUS,Red gurnard,10,SA,Solent Bass Trawl  Port,WC,Valid,22/05/2003 13:23:00,1.0,51.365,0.811
HER,CLUPEA HARENGUS,Herring,3,K,"Otter Trawl Solent Bass Trawl 5 fm Headline, 6 & 8 metre bridles, 40mm Liner",OB,Valid,21/05/2003 10:33:00,6.0,51.503,0.775
HER,CLUPEA HARENGUS,Herring,3,K,Solent Bass Trawl  Port,WC,Valid,21/05/2003 10:33:00,6.0,51.503,0.775
HER,CLUPEA HARENGUS,Herring,7,J,Solent Bass Trawl  Port,WC,Valid,21/05/2003 14:07:00,4.0,51.515,0.665
HER,CLUPEA HARENGUS,Herring,7,J,Solent Bass Trawl  Star,WC,Valid,21/05/2003 14:07:00,4.0,51.515,0.665
HER,CLUPEA HARENGUS,Herring,11,U,Solent Bass Trawl  Port,WC,Valid,22/05/2003 14:06:00,1.0,51.360,0.848
HER,CLUPEA HARENGUS,Herring,11,U,Solent Bass Trawl  Star,WC,Valid,22/05/2003 14:06:00,1.0,51.360,0.848
HER,CLUPEA HARENGUS,Herring,24,N,Solent Bass Trawl  Star,WC,Valid,25/05/2003 11:28:00,3.0,51.461,0.753
HER,CLUPEA HARENGUS,Herring,26,W,Solent Bass Trawl  Port,WC,Valid,25/05/2003 13:15:00,4.0,51.431,0.666
HER,CLUPEA HARENGUS,Herring,28,hA,Solent Bass Trawl  Port,WC,Valid,25/05/2003 15:15:00,4.0,51.408,0.651
HER,CLUPEA HARENGUS,Herring,14,CA,Solent Bass Trawl  Port,WC,Valid,23/05/2003 09:37:00,9.0,51.620,0.896
HER,CLUPEA HARENGUS,Herring,15,RB,Solent Bass Trawl  Port,WC,Valid,23/05/2003 11:17:00,8.0,51.600,0.870
HER,CLUPEA HARENGUS,Herring,16,RA,Solent Bass Trawl  Star,WC,Valid,23/05/2003 12:22:00,5.0,51.595,0.841
HER,CLUPEA HARENGUS,Herring,17,CC,Solent Bass Trawl  Star,WC,Valid,23/05/2003 13:55:00,7.0,51.636,0.770
HER,CLUPEA HARENGUS,Herring,18,CB,Solent Bass Trawl  Port,WC,Valid,23/05/2003 14:43:00,6.0,51.633,0.751
HER,CLUPEA HARENGUS,Herring,24,N,Solent Bass Trawl  Port,WC,Valid,25/05/2003 11:28:00,3.0,51.461,0.753
HOM,TRACHURUS TRACHURUS,Horse-mackerel (scad),4,P,Solent Bass Trawl  Port,WC,Valid,21/05/2003 11:21:00,6.0,51.510,0.720
HOM,TRACHURUS TRACHURUS,Horse-mackerel (scad),18,CB,Solent Bass Trawl  Port,WC,Valid,23/05/2003 14:43:00,6.0,51.633,0.751
LAS,PETROMYZONIDAE,Lampreys,5,J1,Solent Bass Trawl  Port,MO,Valid,21/05/2003 12:28:00,6.0,51.513,0.668
LEM,MICROSTOMUS KITT,Lemon sole,5,J1,Solent Bass Trawl  Port,WC,Valid,21/05/2003 12:28:00,6.0,51.513,0.668
LEM,MICROSTOMUS KITT,Lemon sole,5,J1,Solent Bass Trawl  Star,WC,Valid,21/05/2003 12:28:00,6.0,51.513,0.668
LEM,MICROSTOMUS KITT,Lemon sole,17,CC,Solent Bass Trawl  Port,WC,Valid,23/05/2003 13:55:00,7.0,51.636,0.770
LEM,MICROSTOMUS KITT,Lemon sole,14,CA,Solent Bass Trawl  Star,WC,Valid,23/05/2003 09:37:00,9.0,51.620,0.896
LOY,NEPHROPIDAE,Lobsters,24,N,Solent Bass Trawl  Port,WC,Valid,25/05/2003 11:28:00,3.0,51.461,0.753
LOY,NEPHROPIDAE,Lobsters,24,N,Solent Bass Trawl  Star,WC,Valid,25/05/2003 11:28:00,3.0,51.461,0.753
LSD,SCYLIORHINUS CANICULA,Lesser spotted dogfish,2,O,Solent Bass Trawl  Star,WC,Valid,21/05/2003 09:27:00,7.0,51.480,0.830
LSD,SCYLIORHINUS CANICULA,Lesser spotted dogfish,7,J,Solent Bass Trawl  Star,WC,Valid,21/05/2003 14:07:00,4.0,51.515,0.665
LSD,SCYLIORHINUS CANICULA,Lesser spotted dogfish,7,J,Solent Bass Trawl  Port,WC,Valid,21/05/2003 14:07:00,4.0,51.515,0.665
LSD,SCYLIORHINUS CANICULA,Lesser spotted dogfish,12,T,Solent Bass Trawl  Star,WC,Valid,22/05/2003 14:53:00,4.0,51.346,0.910
LSD,SCYLIORHINUS CANICULA,Lesser spotted dogfish,17,CC,Solent Bass Trawl  Star,WC,Valid,23/05/2003 13:55:00,7.0,51.636,0.770
LSD,SCYLIORHINUS CANICULA,Lesser spotted dogfish,17,CC,Solent Bass Trawl  Port,WC,Valid,23/05/2003 13:55:00,7.0,51.636,0.770
LSD,SCYLIORHINUS CANICULA,Lesser spotted dogfish,18,CB,Solent Bass Trawl  Star,WC,Valid,23/05/2003 14:43:00,6.0,51.633,0.751
LSD,SCYLIORHINUS CANICULA,Lesser spotted dogfish,19,BA,Solent Bass Trawl  Port,WC,Valid,24/05/2003 11:00:00,11.0,51.745,1.005
LUM,CYCLOPTERUS LUMPUS,Lumpsucker,23,BD,Solent Bass Trawl  Port,WC,Valid,24/05/2003 14:16:00,5.0,51.728,0.845
MAC,SCOMBER SCOMBRUS,(european) mackerel,3,K,Solent Bass Trawl  Port,WC,Valid,21/05/2003 10:33:00,6.0,51.503,0.775
MAC,SCOMBER SCOMBRUS,(european) mackerel,24,N,Solent Bass Trawl  Port,WC,Valid,25/05/2003 11:28:00,3.0,51.461,0.753
MJX,MAJIDAE,Spider crabs,19,BA,"Otter Trawl Solent Bass Trawl 5 fm Headline, 6 & 8 metre bridles, 40mm Liner",OB,Valid,24/05/2003 11:00:00,11.0,51.745,1.005
MUL,MUGILIDAE,Grey mullets,27,V,Solent Bass Trawl  Port,WC,Valid,25/05/2003 13:52:00,4.0,51.421,0.645
MUR,MULLUS SURMULETUS,Red mullet,4,P,Solent Bass Trawl  Port,WC,Valid,21/05/2003 11:21:00,6.0,51.510,0.720
MUR,MULLUS SURMULETUS,Red mullet,4,P,Solent Bass Trawl  Star,WC,Valid,21/05/2003 11:21:00,6.0,51.510,0.720
PFX,SYNGNTHIDAE,Pipe-fishes/seahorses,2,O,Solent Bass Trawl  Port,WC,Valid,21/05/2003 09:27:00,7.0,51.480,0.830
PFX,SYNGNTHIDAE,Pipe-fishes/seahorses,4,P,Solent Bass Trawl  Star,WC,Valid,21/05/2003 11:21:00,6.0,51.510,0.720
PFX,SYNGNTHIDAE,Pipe-fishes/seahorses,7,J,Solent Bass Trawl  Port,WC,Valid,21/05/2003 14:07:00,4.0,51.515,0.665
PFX,SYNGNTHIDAE,Pipe-fishes/seahorses,8,S,Solent Bass Trawl  Port,WC,Valid,22/05/2003 09:33:00,5.0,51.378,0.968
PFX,SYNGNTHIDAE,Pipe-fishes/seahorses,8,S,Solent Bass Trawl  Star,WC,Valid,22/05/2003 09:33:00,5.0,51.378,0.968
PLE,PLEURONECTES PLATESSA,European plaice,1,L,Solent Bass Trawl  Port,WC,Valid,21/05/2003 08:34:00,7.0,51.506,0.860
PLE,PLEURONECTES PLATESSA,European plaice,1,L,Solent Bass Trawl  Star,WC,Valid,21/05/2003 08:34:00,7.0,51.506,0.860
PLE,PLEURONECTES PLATESSA,European plaice,2,O,"Otter Trawl Solent Bass Trawl 5 fm Headline, 6 & 8 metre bridles, 40mm Liner",OB,Valid,21/05/2003 09:27:00,7.0,51.480,0.830
PLE,PLEURONECTES PLATESSA,European plaice,2,O,Solent Bass Trawl  Port,WC,Valid,21/05/2003 09:27:00,7.0,51.480,0.830
PLE,PLEURONECTES PLATESSA,European plaice,2,O,Solent Bass Trawl  Star,WC,Valid,21/05/2003 09:27:00,7.0,51.480,0.830
PLE,PLEURONECTES PLATESSA,European plaice,3,K,Solent Bass Trawl  Port,WC,Valid,21/05/2003 10:33:00,6.0,51.503,0.775
PLE,PLEURONECTES PLATESSA,European plaice,28,hA,Solent Bass Trawl  Star,WC,Valid,25/05/2003 15:15:00,4.0,51.408,0.651
PLE,PLEURONECTES PLATESSA,European plaice,29,ma,Solent Bass Trawl  Port,WC,Valid,25/05/2003 16:25:00,5.0,51.396,0.698
PLE,PLEURONECTES PLATESSA,European plaice,21,BC,Solent Bass Trawl  Star,WC,Valid,24/05/2003 12:32:00,11.0,51.748,0.895
PLE,PLEURONECTES PLATESSA,European plaice,24,N,Solent Bass Trawl  Star,WC,Valid,25/05/2003 11:28:00,3.0,51.461,0.753
PLE,PLEURONECTES PLATESSA,European plaice,25,X,Solent Bass Trawl  Port,WC,Valid,25/05/2003 12:20:00,4.0,51.441,0.728
PLE,PLEURONECTES PLATESSA,European plaice,25,X,Solent Bass Trawl  Star,WC,Valid,25/05/2003 12:20:00,4.0,51.441,0.728
PLE,PLEURONECTES PLATESSA,European plaice,27,V,Solent Bass Trawl  Star,WC,Valid,25/05/2003 13:52:00,4.0,51.421,0.645
PLE,PLEURONECTES PLATESSA,European plaice,28,hA,Solent Bass Trawl  Port,WC,Valid,25/05/2003 15:15:00,4.0,51.408,0.651
PLE,PLEURONECTES PLATESSA,European plaice,17,CC,Solent Bass Trawl  Port,WC,Valid,23/05/2003 13:55:00,7.0,51.636,0.770
PLE,PLEURONECTES PLATESSA,European plaice,17,CC,Solent Bass Trawl  Star,WC,Valid,23/05/2003 13:55:00,7.0,51.636,0.770
PLE,PLEURONECTES PLATESSA,European plaice,18,CB,Solent Bass Trawl  Port,WC,Valid,23/05/2003 14:43:00,6.0,51.633,0.751
PLE,PLEURONECTES PLATESSA,European plaice,18,CB,Solent Bass Trawl  Star,WC,Valid,23/05/2003 14:43:00,6.0,51.633,0.751
PLE,PLEURONECTES PLATESSA,European plaice,20,BB,Solent Bass Trawl  Star,WC,Valid,24/05/2003 11:53:00,10.0,51.755,0.926
PLE,PLEURONECTES PLATESSA,European plaice,21,BC,Solent Bass Trawl  Port,WC,Valid,24/05/2003 12:32:00,11.0,51.748,0.895
PLE,PLEURONECTES PLATESSA,European plaice,12,T,Solent Bass Trawl  Port,WC,Valid,22/05/2003 14:53:00,4.0,51.346,0.910
PLE,PLEURONECTES PLATESSA,European plaice,12,T,Solent Bass Trawl  Star,WC,Valid,22/05/2003 14:53:00,4.0,51.346,0.910
PLE,PLEURONECTES PLATESSA,European plaice,13,CD,Solent Bass Trawl  Port,WC,Valid,23/05/2003 08:39:00,6.0,51.630,0.963
PLE,PLEURONECTES PLATESSA,European plaice,13,CD,Solent Bass Trawl  Star,WC,Valid,23/05/2003 08:39:00,6.0,51.630,0.963
PLE,PLEURONECTES PLATESSA,European plaice,14,CA,Solent Bass Trawl  Port,WC,Valid,23/05/2003 09:37:00,9.0,51.620,0.896
PLE,PLEURONECTES PLATESSA,European plaice,16,RA,Solent Bass Trawl  Port,WC,Valid,23/05/2003 12:22:00,5.0,51.595,0.841
PLE,PLEURONECTES PLATESSA,European plaice,7,J,Solent Bass Trawl  Star,WC,Valid,21/05/2003 14:07:00,4.0,51.515,0.665
PLE,PLEURONECTES PLATESSA,European plaice,8,S,Solent Bass Trawl  Port,WC,Valid,22/05/2003 09:33:00,5.0,51.378,0.968
PLE,PLEURONECTES PLATESSA,European plaice,8,S,Solent Bass Trawl  Star,WC,Valid,22/05/2003 09:33:00,5.0,51.378,0.968
PLE,PLEURONECTES PLATESSA,European plaice,10,SA,Solent Bass Trawl  Star,WC,Valid,22/05/2003 13:23:00,1.0,51.365,0.811
PLE,PLEURONECTES PLATESSA,European plaice,11,U,Solent Bass Trawl  Port,WC,Valid,22/05/2003 14:06:00,1.0,51.360,0.848
PLE,PLEURONECTES PLATESSA,European plaice,11,U,Solent Bass Trawl  Star,WC,Valid,22/05/2003 14:06:00,1.0,51.360,0.848
PLE,PLEURONECTES PLATESSA,European plaice,5,J1,Solent Bass Trawl  Star,WC,Valid,21/05/2003 12:28:00,6.0,51.513,0.668
PLE,PLEURONECTES PLATESSA,European plaice,6,M,"Otter Trawl Solent Bass Trawl 5 fm Headline, 6 & 8 metre bridles, 40mm Liner",OB,Valid,21/05/2003 01:17:00,4.0,51.488,0.683
PLE,PLEURONECTES PLATESSA,European plaice,6,M,Solent Bass Trawl  Port,WC,Valid,21/05/2003 01:17:00,4.0,51.488,0.683
PLE,PLEURONECTES PLATESSA,European plaice,6,M,Solent Bass Trawl  Star,WC,Valid,21/05/2003 01:17:00,4.0,51.488,0.683
PLE,PLEURONECTES PLATESSA,European plaice,7,J,"Otter Trawl Solent Bass Trawl 5 fm Headline, 6 & 8 metre bridles, 40mm Liner",OB,Valid,21/05/2003 14:07:00,4.0,51.515,0.665
PLE,PLEURONECTES PLATESSA,European plaice,7,J,Solent Bass Trawl  Port,WC,Valid,21/05/2003 14:07:00,4.0,51.515,0.665
PLE,PLEURONECTES PLATESSA,European plaice,3,K,Solent Bass Trawl  Star,WC,Valid,21/05/2003 10:33:00,6.0,51.503,0.775
PLE,PLEURONECTES PLATESSA,European plaice,4,P,"Otter Trawl Solent Bass Trawl 5 fm Headline, 6 & 8 metre bridles, 40mm Liner",OB,Valid,21/05/2003 11:21:00,6.0,51.510,0.720
PLE,PLEURONECTES PLATESSA,European plaice,4,P,Solent Bass Trawl  Port,WC,Valid,21/05/2003 11:21:00,6.0,51.510,0.720
PLE,PLEURONECTES PLATESSA,European plaice,4,P,Solent Bass Trawl  Star,WC,Valid,21/05/2003 11:21:00,6.0,51.510,0.720
PLE,PLEURONECTES PLATESSA,European plaice,5,J1,"Otter Trawl Solent Bass Trawl 5 fm Headline, 6 & 8 metre bridles, 40mm Liner",OB,Valid,21/05/2003 12:28:00,6.0,51.513,0.668
PLE,PLEURONECTES PLATESSA,European plaice,5,J1,Solent Bass Trawl  Port,WC,Valid,21/05/2003 12:28:00,6.0,51.513,0.668
POD,TRISOPTERUS MINUTUS,Poor cod,2,O,Solent Bass Trawl  Star,WC,Valid,21/05/2003 09:27:00,7.0,51.480,0.830
POG,AGONUS CATAPHRACTUS,Pogge (armed bullhead),2,O,Solent Bass Trawl  Port,WC,Valid,21/05/2003 09:27:00,7.0,51.480,0.830
POG,AGONUS CATAPHRACTUS,Pogge (armed bullhead),2,O,Solent Bass Trawl  Star,WC,Valid,21/05/2003 09:27:00,7.0,51.480,0.830
POG,AGONUS CATAPHRACTUS,Pogge (armed bullhead),4,P,Solent Bass Trawl  Star,WC,Valid,21/05/2003 11:21:00,6.0,51.510,0.720
POG,AGONUS CATAPHRACTUS,Pogge (armed bullhead),8,S,Solent Bass Trawl  Port,WC,Valid,22/05/2003 09:33:00,5.0,51.378,0.968
POG,AGONUS CATAPHRACTUS,Pogge (armed bullhead),8,S,Solent Bass Trawl  Star,WC,Valid,22/05/2003 09:33:00,5.0,51.378,0.968
POG,AGONUS CATAPHRACTUS,Pogge (armed bullhead),10,SA,Solent Bass Trawl  Port,WC,Valid,22/05/2003 13:23:00,1.0,51.365,0.811
POG,AGONUS CATAPHRACTUS,Pogge (armed bullhead),21,BC,Solent Bass Trawl  Star,WC,Valid,24/05/2003 12:32:00,11.0,51.748,0.895
POG,AGONUS CATAPHRACTUS,Pogge (armed bullhead),23,BD,Solent Bass Trawl  Star,WC,Valid,24/05/2003 14:16:00,5.0,51.728,0.845
POG,AGONUS CATAPHRACTUS,Pogge (armed bullhead),25,X,Solent Bass Trawl  Port,WC,Valid,25/05/2003 12:20:00,4.0,51.441,0.728
POG,AGONUS CATAPHRACTUS,Pogge (armed bullhead),28,hA,Solent Bass Trawl  Star,WC,Valid,25/05/2003 15:15:00,4.0,51.408,0.651
POG,AGONUS CATAPHRACTUS,Pogge (armed bullhead),15,RB,Solent Bass Trawl  Star,WC,Valid,23/05/2003 11:17:00,8.0,51.600,0.870
POG,AGONUS CATAPHRACTUS,Pogge (armed bullhead),18,CB,Solent Bass Trawl  Port,WC,Valid,23/05/2003 14:43:00,6.0,51.633,0.751
POG,AGONUS CATAPHRACTUS,Pogge (armed bullhead),18,CB,Solent Bass Trawl  Star,WC,Valid,23/05/2003 14:43:00,6.0,51.633,0.751
POG,AGONUS CATAPHRACTUS,Pogge (armed bullhead),20,BB,Solent Bass Trawl  Port,WC,Valid,24/05/2003 11:53:00,10.0,51.755,0.926
POG,AGONUS CATAPHRACTUS,Pogge (armed bullhead),20,BB,Solent Bass Trawl  Star,WC,Valid,24/05/2003 11:53:00,10.0,51.755,0.926
POG,AGONUS CATAPHRACTUS,Pogge (armed bullhead),21,BC,Solent Bass Trawl  Port,WC,Valid,24/05/2003 12:32:00,11.0,51.748,0.895
POG,AGONUS CATAPHRACTUS,Pogge (armed bullhead),11,U,Solent Bass Trawl  Star,WC,Valid,22/05/2003 14:06:00,1.0,51.360,0.848
POG,AGONUS CATAPHRACTUS,Pogge (armed bullhead),12,T,Solent Bass Trawl  Port,WC,Valid,22/05/2003 14:53:00,4.0,51.346,0.910
POG,AGONUS CATAPHRACTUS,Pogge (armed bullhead),12,T,Solent Bass Trawl  Star,WC,Valid,22/05/2003 14:53:00,4.0,51.346,0.910
POG,AGONUS CATAPHRACTUS,Pogge (armed bullhead),13,CD,Solent Bass Trawl  Port,WC,Valid,23/05/2003 08:39:00,6.0,51.630,0.963
POG,AGONUS CATAPHRACTUS,Pogge (armed bullhead),13,CD,Solent Bass Trawl  Star,WC,Valid,23/05/2003 08:39:00,6.0,51.630,0.963
POG,AGONUS CATAPHRACTUS,Pogge (armed bullhead),14,CA,Solent Bass Trawl  Star,WC,Valid,23/05/2003 09:37:00,9.0,51.620,0.896
RKG,GOBIUS PAGANELLUS,Rock goby,10,SA,"Otter Trawl Solent Bass Trawl 5 fm Headline, 6 & 8 metre bridles, 40mm Liner",OB,Valid,22/05/2003 13:23:00,1.0,51.365,0.811
RKG,GOBIUS PAGANELLUS,Rock goby,11,U,"Otter Trawl Solent Bass Trawl 5 fm Headline, 6 & 8 metre bridles, 40mm Liner",OB,Valid,22/05/2003 14:06:00,1.0,51.360,0.848
RKG,GOBIUS PAGANELLUS,Rock goby,27,V,Solent Bass Trawl  Star,WC,Valid,25/05/2003 13:52:00,4.0,51.421,0.645
SAX,AMMODYTIDAE,Sandeels,1,L,Solent Bass Trawl  Port,WC,Valid,21/05/2003 08:34:00,7.0,51.506,0.860
SAX,AMMODYTIDAE,Sandeels,24,N,Solent Bass Trawl  Port,WC,Valid,25/05/2003 11:28:00,3.0,51.461,0.753
SDG,POMATOSCHISTUS MINUTUS,Sand goby,10,SA,"Otter Trawl Solent Bass Trawl 5 fm Headline, 6 & 8 metre bridles, 40mm Liner",OB,Valid,22/05/2003 13:23:00,1.0,51.365,0.811
SDS,MUSTELUS ASTERIAS,Starry smooth hound,13,CD,Solent Bass Trawl  Port,WC,Valid,23/05/2003 08:39:00,6.0,51.630,0.963
SDS,MUSTELUS ASTERIAS,Starry smooth hound,14,CA,Solent Bass Trawl  Star,WC,Valid,23/05/2003 09:37:00,9.0,51.620,0.896
SDS,MUSTELUS ASTERIAS,Starry smooth hound,14,CA,Solent Bass Trawl  Port,WC,Valid,23/05/2003 09:37:00,9.0,51.620,0.896
SEP,STYELA CANOPUS,,2,O,"Otter Trawl Solent Bass Trawl 5 fm Headline, 6 & 8 metre bridles, 40mm Liner",OB,Valid,21/05/2003 09:27:00,7.0,51.480,0.830
SEP,STYELA CANOPUS,,15,RB,"Otter Trawl Solent Bass Trawl 5 fm Headline, 6 & 8 metre bridles, 40mm Liner",OB,Valid,23/05/2003 11:17:00,8.0,51.600,0.870
SEP,STYELA CANOPUS,,16,RA,"Otter Trawl Solent Bass Trawl 5 fm Headline, 6 & 8 metre bridles, 40mm Liner",OB,Valid,23/05/2003 12:22:00,5.0,51.595,0.841
SEP,STYELA CANOPUS,,23,BD,"Otter Trawl Solent Bass Trawl 5 fm Headline, 6 & 8 metre bridles, 40mm Liner",OB,Valid,24/05/2003 14:16:00,5.0,51.728,0.845
SEP,STYELA CANOPUS,,25,X,"Otter Trawl Solent Bass Trawl 5 fm Headline, 6 & 8 metre bridles, 40mm Liner",OB,Valid,25/05/2003 12:20:00,4.0,51.441,0.728
SEP,STYELA CANOPUS,,26,W,"Otter Trawl Solent Bass Trawl 5 fm Headline, 6 & 8 metre bridles, 40mm Liner",OB,Valid,25/05/2003 13:15:00,4.0,51.431,0.666
SME,OSMERUS EPERLANUS,Smelt(sparling),2,O,"Otter Trawl Solent Bass Trawl 5 fm Headline, 6 & 8 metre bridles, 40mm Liner",OB,Valid,21/05/2003 09:27:00,7.0,51.480,0.830
SME,OSMERUS EPERLANUS,Smelt(sparling),3,K,Solent Bass Trawl  Port,WC,Valid,21/05/2003 10:33:00,6.0,51.503,0.775
SME,OSMERUS EPERLANUS,Smelt(sparling),4,P,"Otter Trawl Solent Bass Trawl 5 fm Headline, 6 & 8 metre bridles, 40mm Liner",OB,Valid,21/05/2003 11:21:00,6.0,51.510,0.720
SME,OSMERUS EPERLANUS,Smelt(sparling),4,P,Solent Bass Trawl  Port,WC,Valid,21/05/2003 11:21:00,6.0,51.510,0.720
SME,OSMERUS EPERLANUS,Smelt(sparling),4,P,Solent Bass Trawl  Star,WC,Valid,21/05/2003 11:21:00,6.0,51.510,0.720
SME,OSMERUS EPERLANUS,Smelt(sparling),5,J1,Solent Bass Trawl  Star,WC,Valid,21/05/2003 12:28:00,6.0,51.513,0.668
SME,OSMERUS EPERLANUS,Smelt(sparling),24,N,Solent Bass Trawl  Port,WC,Valid,25/05/2003 11:28:00,3.0,51.461,0.753
SME,OSMERUS EPERLANUS,Smelt(sparling),24,N,Solent Bass Trawl  Star,WC,Valid,25/05/2003 11:28:00,3.0,51.461,0.753
SME,OSMERUS EPERLANUS,Smelt(sparling),25,X,Solent Bass Trawl  Port,WC,Valid,25/05/2003 12:20:00,4.0,51.441,0.728
SME,OSMERUS EPERLANUS,Smelt(sparling),28,hA,Solent Bass Trawl  Port,WC,Valid,25/05/2003 15:15:00,4.0,51.408,0.651
SME,OSMERUS EPERLANUS,Smelt(sparling),28,hA,Solent Bass Trawl  Star,WC,Valid,25/05/2003 15:15:00,4.0,51.408,0.651
SME,OSMERUS EPERLANUS,Smelt(sparling),19,BA,Solent Bass Trawl  Port,WC,Valid,24/05/2003 11:00:00,11.0,51.745,1.005
SME,OSMERUS EPERLANUS,Smelt(sparling),19,BA,Solent Bass Trawl  Star,WC,Valid,24/05/2003 11:00:00,11.0,51.745,1.005
SME,OSMERUS EPERLANUS,Smelt(sparling),20,BB,Solent Bass Trawl  Port,WC,Valid,24/05/2003 11:53:00,10.0,51.755,0.926
SME,OSMERUS EPERLANUS,Smelt(sparling),20,BB,Solent Bass Trawl  Star,WC,Valid,24/05/2003 11:53:00,10.0,51.755,0.926
SME,OSMERUS EPERLANUS,Smelt(sparling),21,BC,Solent Bass Trawl  Port,WC,Valid,24/05/2003 12:32:00,11.0,51.748,0.895
SME,OSMERUS EPERLANUS,Smelt(sparling),21,BC,Solent Bass Trawl  Star,WC,Valid,24/05/2003 12:32:00,11.0,51.748,0.895
SME,OSMERUS EPERLANUS,Smelt(sparling),15,RB,Solent Bass Trawl  Port,WC,Valid,23/05/2003 11:17:00,8.0,51.600,0.870
SME,OSMERUS EPERLANUS,Smelt(sparling),15,RB,Solent Bass Trawl  Star,WC,Valid,23/05/2003 11:17:00,8.0,51.600,0.870
SME,OSMERUS EPERLANUS,Smelt(sparling),16,RA,Solent Bass Trawl  Port,WC,Valid,23/05/2003 12:22:00,5.0,51.595,0.841
SME,OSMERUS EPERLANUS,Smelt(sparling),17,CC,Solent Bass Trawl  Port,WC,Valid,23/05/2003 13:55:00,7.0,51.636,0.770
SME,OSMERUS EPERLANUS,Smelt(sparling),17,CC,Solent Bass Trawl  Star,WC,Valid,23/05/2003 13:55:00,7.0,51.636,0.770
SME,OSMERUS EPERLANUS,Smelt(sparling),18,CB,Solent Bass Trawl  Port,WC,Valid,23/05/2003 14:43:00,6.0,51.633,0.751
SME,OSMERUS EPERLANUS,Smelt(sparling),10,SA,Solent Bass Trawl  Star,WC,Valid,22/05/2003 13:23:00,1.0,51.365,0.811
SME,OSMERUS EPERLANUS,Smelt(sparling),11,U,Solent Bass Trawl  Port,WC,Valid,22/05/2003 14:06:00,1.0,51.360,0.848
SME,OSMERUS EPERLANUS,Smelt(sparling),12,T,Solent Bass Trawl  Port,WC,Valid,22/05/2003 14:53:00,4.0,51.346,0.910
SME,OSMERUS EPERLANUS,Smelt(sparling),12,T,Solent Bass Trawl  Star,WC,Valid,22/05/2003 14:53:00,4.0,51.346,0.910
SME,OSMERUS EPERLANUS,Smelt(sparling),13,CD,Solent Bass Trawl  Port,WC,Valid,23/05/2003 08:39:00,6.0,51.630,0.963
SME,OSMERUS EPERLANUS,Smelt(sparling),14,CA,Solent Bass Trawl  Star,WC,Valid,23/05/2003 09:37:00,9.0,51.620,0.896
SME,OSMERUS EPERLANUS,Smelt(sparling),6,M,Solent Bass Trawl  Port,WC,Valid,21/05/2003 01:17:00,4.0,51.488,0.683
SME,OSMERUS EPERLANUS,Smelt(sparling),6,M,Solent Bass Trawl  Star,WC,Valid,21/05/2003 01:17:00,4.0,51.488,0.683
SME,OSMERUS EPERLANUS,Smelt(sparling),7,J,Solent Bass Trawl  Port,WC,Valid,21/05/2003 14:07:00,4.0,51.515,0.665
SME,OSMERUS EPERLANUS,Smelt(sparling),7,J,Solent Bass Trawl  Star,WC,Valid,21/05/2003 14:07:00,4.0,51.515,0.665
SME,OSMERUS EPERLANUS,Smelt(sparling),8,S,Solent Bass Trawl  Port,WC,Valid,22/05/2003 09:33:00,5.0,51.378,0.968
SME,OSMERUS EPERLANUS,Smelt(sparling),8,S,Solent Bass Trawl  Star,WC,Valid,22/05/2003 09:33:00,5.0,51.378,0.968
SOL,SOLEA SOLEA ,Sole (dover sole),1,L,Solent Bass Trawl  Port,WC,Valid,21/05/2003 08:34:00,7.0,51.506,0.860
SOL,SOLEA SOLEA ,Sole (dover sole),2,O,Solent Bass Trawl  Port,WC,Valid,21/05/2003 09:27:00,7.0,51.480,0.830
SOL,SOLEA SOLEA ,Sole (dover sole),2,O,Solent Bass Trawl  Star,WC,Valid,21/05/2003 09:27:00,7.0,51.480,0.830
SOL,SOLEA SOLEA ,Sole (dover sole),3,K,Solent Bass Trawl  Port,WC,Valid,21/05/2003 10:33:00,6.0,51.503,0.775
SOL,SOLEA SOLEA ,Sole (dover sole),3,K,Solent Bass Trawl  Star,WC,Valid,21/05/2003 10:33:00,6.0,51.503,0.775
SOL,SOLEA SOLEA ,Sole (dover sole),4,P,Solent Bass Trawl  Port,WC,Valid,21/05/2003 11:21:00,6.0,51.510,0.720
SOL,SOLEA SOLEA ,Sole (dover sole),25,X,Solent Bass Trawl  Star,WC,Valid,25/05/2003 12:20:00,4.0,51.441,0.728
SOL,SOLEA SOLEA ,Sole (dover sole),26,W,Solent Bass Trawl  Star,WC,Valid,25/05/2003 13:15:00,4.0,51.431,0.666
SOL,SOLEA SOLEA ,Sole (dover sole),27,V,Solent Bass Trawl  Star,WC,Valid,25/05/2003 13:52:00,4.0,51.421,0.645
SOL,SOLEA SOLEA ,Sole (dover sole),28,hA,Solent Bass Trawl  Port,WC,Valid,25/05/2003 15:15:00,4.0,51.408,0.651
SOL,SOLEA SOLEA ,Sole (dover sole),28,hA,Solent Bass Trawl  Star,WC,Valid,25/05/2003 15:15:00,4.0,51.408,0.651
SOL,SOLEA SOLEA ,Sole (dover sole),22,MHS,Solent Bass Trawl  Port,WC,Valid,24/05/2003 13:36:00,5.0,51.725,0.828
SOL,SOLEA SOLEA ,Sole (dover sole),22,MHS,Solent Bass Trawl  Star,WC,Valid,24/05/2003 13:36:00,5.0,51.725,0.828
SOL,SOLEA SOLEA ,Sole (dover sole),23,BD,Solent Bass Trawl  Port,WC,Valid,24/05/2003 14:16:00,5.0,51.728,0.845
SOL,SOLEA SOLEA ,Sole (dover sole),24,N,Solent Bass Trawl  Port,WC,Valid,25/05/2003 11:28:00,3.0,51.461,0.753
SOL,SOLEA SOLEA ,Sole (dover sole),24,N,Solent Bass Trawl  Star,WC,Valid,25/05/2003 11:28:00,3.0,51.461,0.753
SOL,SOLEA SOLEA ,Sole (dover sole),25,X,Solent Bass Trawl  Port,WC,Valid,25/05/2003 12:20:00,4.0,51.441,0.728
SOL,SOLEA SOLEA ,Sole (dover sole),19,BA,Solent Bass Trawl  Port,WC,Valid,24/05/2003 11:00:00,11.0,51.745,1.005
SOL,SOLEA SOLEA ,Sole (dover sole),19,BA,Solent Bass Trawl  Star,WC,Valid,24/05/2003 11:00:00,11.0,51.745,1.005
SOL,SOLEA SOLEA ,Sole (dover sole),20,BB,Solent Bass Trawl  Port,WC,Valid,24/05/2003 11:53:00,10.0,51.755,0.926
SOL,SOLEA SOLEA ,Sole (dover sole),20,BB,Solent Bass Trawl  Star,WC,Valid,24/05/2003 11:53:00,10.0,51.755,0.926
SOL,SOLEA SOLEA ,Sole (dover sole),21,BC,Solent Bass Trawl  Port,WC,Valid,24/05/2003 12:32:00,11.0,51.748,0.895
SOL,SOLEA SOLEA ,Sole (dover sole),21,BC,Solent Bass Trawl  Star,WC,Valid,24/05/2003 12:32:00,11.0,51.748,0.895
SOL,SOLEA SOLEA ,Sole (dover sole),15,RB,Solent Bass Trawl  Port,WC,Valid,23/05/2003 11:17:00,8.0,51.600,0.870
SOL,SOLEA SOLEA ,Sole (dover sole),15,RB,Solent Bass Trawl  Star,WC,Valid,23/05/2003 11:17:00,8.0,51.600,0.870
SOL,SOLEA SOLEA ,Sole (dover sole),16,RA,Solent Bass Trawl  Star,WC,Valid,23/05/2003 12:22:00,5.0,51.595,0.841
SOL,SOLEA SOLEA ,Sole (dover sole),17,CC,Solent Bass Trawl  Port,WC,Valid,23/05/2003 13:55:00,7.0,51.636,0.770
SOL,SOLEA SOLEA ,Sole (dover sole),18,CB,Solent Bass Trawl  Port,WC,Valid,23/05/2003 14:43:00,6.0,51.633,0.751
SOL,SOLEA SOLEA ,Sole (dover sole),18,CB,Solent Bass Trawl  Star,WC,Valid,23/05/2003 14:43:00,6.0,51.633,0.751
SOL,SOLEA SOLEA ,Sole (dover sole),12,T,Solent Bass Trawl  Port,WC,Valid,22/05/2003 14:53:00,4.0,51.346,0.910
SOL,SOLEA SOLEA ,Sole (dover sole),12,T,Solent Bass Trawl  Star,WC,Valid,22/05/2003 14:53:00,4.0,51.346,0.910
SOL,SOLEA SOLEA ,Sole (dover sole),13,CD,Solent Bass Trawl  Port,WC,Valid,23/05/2003 08:39:00,6.0,51.630,0.963
SOL,SOLEA SOLEA ,Sole (dover sole),13,CD,Solent Bass Trawl  Star,WC,Valid,23/05/2003 08:39:00,6.0,51.630,0.963
SOL,SOLEA SOLEA ,Sole (dover sole),14,CA,Solent Bass Trawl  Port,WC,Valid,23/05/2003 09:37:00,9.0,51.620,0.896
SOL,SOLEA SOLEA ,Sole (dover sole),14,CA,Solent Bass Trawl  Star,WC,Valid,23/05/2003 09:37:00,9.0,51.620,0.896
SOL,SOLEA SOLEA ,Sole (dover sole),7,J,Solent Bass Trawl  Star,WC,Valid,21/05/2003 14:07:00,4.0,51.515,0.665
SOL,SOLEA SOLEA ,Sole (dover sole),8,S,Solent Bass Trawl  Port,WC,Valid,22/05/2003 09:33:00,5.0,51.378,0.968
SOL,SOLEA SOLEA ,Sole (dover sole),8,S,Solent Bass Trawl  Star,WC,Valid,22/05/2003 09:33:00,5.0,51.378,0.968
SOL,SOLEA SOLEA ,Sole (dover sole),10,SA,Solent Bass Trawl  Star,WC,Valid,22/05/2003 13:23:00,1.0,51.365,0.811
SOL,SOLEA SOLEA ,Sole (dover sole),11,U,Solent Bass Trawl  Port,WC,Valid,22/05/2003 14:06:00,1.0,51.360,0.848
SOL,SOLEA SOLEA ,Sole (dover sole),11,U,Solent Bass Trawl  Star,WC,Valid,22/05/2003 14:06:00,1.0,51.360,0.848
SOL,SOLEA SOLEA ,Sole (dover sole),4,P,Solent Bass Trawl  Star,WC,Valid,21/05/2003 11:21:00,6.0,51.510,0.720
SOL,SOLEA SOLEA ,Sole (dover sole),5,J1,Solent Bass Trawl  Port,WC,Valid,21/05/2003 12:28:00,6.0,51.513,0.668
SOL,SOLEA SOLEA ,Sole (dover sole),5,J1,Solent Bass Trawl  Star,WC,Valid,21/05/2003 12:28:00,6.0,51.513,0.668
SOL,SOLEA SOLEA ,Sole (dover sole),6,M,Solent Bass Trawl  Port,WC,Valid,21/05/2003 01:17:00,4.0,51.488,0.683
SOL,SOLEA SOLEA ,Sole (dover sole),6,M,Solent Bass Trawl  Star,WC,Valid,21/05/2003 01:17:00,4.0,51.488,0.683
SOL,SOLEA SOLEA ,Sole (dover sole),7,J,Solent Bass Trawl  Port,WC,Valid,21/05/2003 14:07:00,4.0,51.515,0.665
SPY,SEPIOLIDAE,,14,CA,"Otter Trawl Solent Bass Trawl 5 fm Headline, 6 & 8 metre bridles, 40mm Liner",OB,Valid,23/05/2003 09:37:00,9.0,51.620,0.896
SQZ,LOLIGINIDAE,Squids (nei),1,L,"Otter Trawl Solent Bass Trawl 5 fm Headline, 6 & 8 metre bridles, 40mm Liner",OB,Valid,21/05/2003 08:34:00,7.0,51.506,0.860
SQZ,LOLIGINIDAE,Squids (nei),3,K,"Otter Trawl Solent Bass Trawl 5 fm Headline, 6 & 8 metre bridles, 40mm Liner",OB,Valid,21/05/2003 10:33:00,6.0,51.503,0.775
SQZ,LOLIGINIDAE,Squids (nei),3,K,Solent Bass Trawl  Port,WC,Valid,21/05/2003 10:33:00,6.0,51.503,0.775
SQZ,LOLIGINIDAE,Squids (nei),3,K,Solent Bass Trawl  Star,WC,Valid,21/05/2003 10:33:00,6.0,51.503,0.775
SQZ,LOLIGINIDAE,Squids (nei),4,P,"Otter Trawl Solent Bass Trawl 5 fm Headline, 6 & 8 metre bridles, 40mm Liner",OB,Valid,21/05/2003 11:21:00,6.0,51.510,0.720
SQZ,LOLIGINIDAE,Squids (nei),14,CA,"Otter Trawl Solent Bass Trawl 5 fm Headline, 6 & 8 metre bridles, 40mm Liner",OB,Valid,23/05/2003 09:37:00,9.0,51.620,0.896
SQZ,LOLIGINIDAE,Squids (nei),16,RA,"Otter Trawl Solent Bass Trawl 5 fm Headline, 6 & 8 metre bridles, 40mm Liner",OB,Valid,23/05/2003 12:22:00,5.0,51.595,0.841
SQZ,LOLIGINIDAE,Squids (nei),26,W,"Otter Trawl Solent Bass Trawl 5 fm Headline, 6 & 8 metre bridles, 40mm Liner",OB,Valid,25/05/2003 13:15:00,4.0,51.431,0.666
SQZ,LOLIGINIDAE,Squids (nei),13,CD,"Otter Trawl Solent Bass Trawl 5 fm Headline, 6 & 8 metre bridles, 40mm Liner",OB,Valid,23/05/2003 08:39:00,6.0,51.630,0.963
STF,ASTEROIDEA,Starfishes,15,RB,"Otter Trawl Solent Bass Trawl 5 fm Headline, 6 & 8 metre bridles, 40mm Liner",OB,Valid,23/05/2003 11:17:00,8.0,51.600,0.870
THR,RAJA CLAVATA,Thornback ray (roker),2,O,Solent Bass Trawl  Port,WC,Valid,21/05/2003 09:27:00,7.0,51.480,0.830
THR,RAJA CLAVATA,Thornback ray (roker),2,O,Solent Bass Trawl  Star,WC,Valid,21/05/2003 09:27:00,7.0,51.480,0.830
THR,RAJA CLAVATA,Thornback ray (roker),2,O,Solent Bass Trawl  Port,WC,Valid,21/05/2003 09:27:00,7.0,51.480,0.830
THR,RAJA CLAVATA,Thornback ray (roker),2,O,Solent Bass Trawl  Star,WC,Valid,21/05/2003 09:27:00,7.0,51.480,0.830
THR,RAJA CLAVATA,Thornback ray (roker),3,K,Solent Bass Trawl  Star,WC,Valid,21/05/2003 10:33:00,6.0,51.503,0.775
THR,RAJA CLAVATA,Thornback ray (roker),6,M,Solent Bass Trawl  Port,WC,Valid,21/05/2003 01:17:00,4.0,51.488,0.683
THR,RAJA CLAVATA,Thornback ray (roker),23,BD,Solent Bass Trawl  Port,WC,Valid,24/05/2003 14:16:00,5.0,51.728,0.845
THR,RAJA CLAVATA,Thornback ray (roker),25,X,Solent Bass Trawl  Port,WC,Valid,25/05/2003 12:20:00,4.0,51.441,0.728
THR,RAJA CLAVATA,Thornback ray (roker),25,X,Solent Bass Trawl  Star,WC,Valid,25/05/2003 12:20:00,4.0,51.441,0.728
THR,RAJA CLAVATA,Thornback ray (roker),25,X,Solent Bass Trawl  Port,WC,Valid,25/05/2003 12:20:00,4.0,51.441,0.728
THR,RAJA CLAVATA,Thornback ray (roker),25,X,Solent Bass Trawl  Star,WC,Valid,25/05/2003 12:20:00,4.0,51.441,0.728
THR,RAJA CLAVATA,Thornback ray (roker),19,BA,Solent Bass Trawl  Star,WC,Valid,24/05/2003 11:00:00,11.0,51.745,1.005
THR,RAJA CLAVATA,Thornback ray (roker),19,BA,Solent Bass Trawl  Port,WC,Valid,24/05/2003 11:00:00,11.0,51.745,1.005
THR,RAJA CLAVATA,Thornback ray (roker),20,BB,Solent Bass Trawl  Star,WC,Valid,24/05/2003 11:53:00,10.0,51.755,0.926
THR,RAJA CLAVATA,Thornback ray (roker),20,BB,Solent Bass Trawl  Port,WC,Valid,24/05/2003 11:53:00,10.0,51.755,0.926
THR,RAJA CLAVATA,Thornback ray (roker),20,BB,Solent Bass Trawl  Star,WC,Valid,24/05/2003 11:53:00,10.0,51.755,0.926
THR,RAJA CLAVATA,Thornback ray (roker),21,BC,Solent Bass Trawl  Port,WC,Valid,24/05/2003 12:32:00,11.0,51.748,0.895
THR,RAJA CLAVATA,Thornback ray (roker),12,T,Solent Bass Trawl  Port,WC,Valid,22/05/2003 14:53:00,4.0,51.346,0.910
THR,RAJA CLAVATA,Thornback ray (roker),13,CD,Solent Bass Trawl  Star,WC,Valid,23/05/2003 08:39:00,6.0,51.630,0.963
THR,RAJA CLAVATA,Thornback ray (roker),14,CA,Solent Bass Trawl  Port,WC,Valid,23/05/2003 09:37:00,9.0,51.620,0.896
THR,RAJA CLAVATA,Thornback ray (roker),14,CA,Solent Bass Trawl  Star,WC,Valid,23/05/2003 09:37:00,9.0,51.620,0.896
THR,RAJA CLAVATA,Thornback ray (roker),14,CA,Solent Bass Trawl  Port,WC,Valid,23/05/2003 09:37:00,9.0,51.620,0.896
THR,RAJA CLAVATA,Thornback ray (roker),15,RB,Solent Bass Trawl  Port,WC,Valid,23/05/2003 11:17:00,8.0,51.600,0.870
THR,RAJA CLAVATA,Thornback ray (roker),6,M,Solent Bass Trawl  Star,WC,Valid,21/05/2003 01:17:00,4.0,51.488,0.683
THR,RAJA CLAVATA,Thornback ray (roker),6,M,Solent Bass Trawl  Port,WC,Valid,21/05/2003 01:17:00,4.0,51.488,0.683
THR,RAJA CLAVATA,Thornback ray (roker),6,M,Solent Bass Trawl  Star,WC,Valid,21/05/2003 01:17:00,4.0,51.488,0.683
THR,RAJA CLAVATA,Thornback ray (roker),8,S,Solent Bass Trawl  Port,WC,Valid,22/05/2003 09:33:00,5.0,51.378,0.968
THR,RAJA CLAVATA,Thornback ray (roker),8,S,Solent Bass Trawl  Port,WC,Valid,22/05/2003 09:33:00,5.0,51.378,0.968
THR,RAJA CLAVATA,Thornback ray (roker),8,S,Solent Bass Trawl  Star,WC,Valid,22/05/2003 09:33:00,5.0,51.378,0.968
TUB,TRIGLA (CHELIDONICHTHYS) LUCERNA,Tub gurnard,1,L,Solent Bass Trawl  Port,WC,Valid,21/05/2003 08:34:00,7.0,51.506,0.860
TUB,TRIGLA (CHELIDONICHTHYS) LUCERNA,Tub gurnard,1,L,Solent Bass Trawl  Star,WC,Valid,21/05/2003 08:34:00,7.0,51.506,0.860
TUB,TRIGLA (CHELIDONICHTHYS) LUCERNA,Tub gurnard,2,O,Solent Bass Trawl  Port,WC,Valid,21/05/2003 09:27:00,7.0,51.480,0.830
TUB,TRIGLA (CHELIDONICHTHYS) LUCERNA,Tub gurnard,2,O,Solent Bass Trawl  Star,WC,Valid,21/05/2003 09:27:00,7.0,51.480,0.830
TUB,TRIGLA (CHELIDONICHTHYS) LUCERNA,Tub gurnard,3,K,Solent Bass Trawl  Port,WC,Valid,21/05/2003 10:33:00,6.0,51.503,0.775
TUB,TRIGLA (CHELIDONICHTHYS) LUCERNA,Tub gurnard,3,K,Solent Bass Trawl  Star,WC,Valid,21/05/2003 10:33:00,6.0,51.503,0.775
TUB,TRIGLA (CHELIDONICHTHYS) LUCERNA,Tub gurnard,18,CB,Solent Bass Trawl  Star,WC,Valid,23/05/2003 14:43:00,6.0,51.633,0.751
TUB,TRIGLA (CHELIDONICHTHYS) LUCERNA,Tub gurnard,22,MHS,Solent Bass Trawl  Port,WC,Valid,24/05/2003 13:36:00,5.0,51.725,0.828
TUB,TRIGLA (CHELIDONICHTHYS) LUCERNA,Tub gurnard,24,N,Solent Bass Trawl  Port,WC,Valid,25/05/2003 11:28:00,3.0,51.461,0.753
TUB,TRIGLA (CHELIDONICHTHYS) LUCERNA,Tub gurnard,26,W,Solent Bass Trawl  Star,WC,Valid,25/05/2003 13:15:00,4.0,51.431,0.666
TUB,TRIGLA (CHELIDONICHTHYS) LUCERNA,Tub gurnard,7,J,Solent Bass Trawl  Port,WC,Valid,21/05/2003 14:07:00,4.0,51.515,0.665
TUB,TRIGLA (CHELIDONICHTHYS) LUCERNA,Tub gurnard,7,J,Solent Bass Trawl  Star,WC,Valid,21/05/2003 14:07:00,4.0,51.515,0.665
TUB,TRIGLA (CHELIDONICHTHYS) LUCERNA,Tub gurnard,8,S,Solent Bass Trawl  Port,WC,Valid,22/05/2003 09:33:00,5.0,51.378,0.968
TUB,TRIGLA (CHELIDONICHTHYS) LUCERNA,Tub gurnard,11,U,Solent Bass Trawl  Port,WC,Valid,22/05/2003 14:06:00,1.0,51.360,0.848
TUB,TRIGLA (CHELIDONICHTHYS) LUCERNA,Tub gurnard,11,U,Solent Bass Trawl  Star,WC,Valid,22/05/2003 14:06:00,1.0,51.360,0.848
TUB,TRIGLA (CHELIDONICHTHYS) LUCERNA,Tub gurnard,14,CA,Solent Bass Trawl  Star,WC,Valid,23/05/2003 09:37:00,9.0,51.620,0.896
TUB,TRIGLA (CHELIDONICHTHYS) LUCERNA,Tub gurnard,4,P,Solent Bass Trawl  Port,WC,Valid,21/05/2003 11:21:00,6.0,51.510,0.720
TUB,TRIGLA (CHELIDONICHTHYS) LUCERNA,Tub gurnard,4,P,Solent Bass Trawl  Star,WC,Valid,21/05/2003 11:21:00,6.0,51.510,0.720
TUB,TRIGLA (CHELIDONICHTHYS) LUCERNA,Tub gurnard,5,J1,Solent Bass Trawl  Star,WC,Valid,21/05/2003 12:28:00,6.0,51.513,0.668
TUB,TRIGLA (CHELIDONICHTHYS) LUCERNA,Tub gurnard,6,M,Solent Bass Trawl  Port,WC,Valid,21/05/2003 01:17:00,4.0,51.488,0.683
TUB,TRIGLA (CHELIDONICHTHYS) LUCERNA,Tub gurnard,6,M,Solent Bass Trawl  Star,WC,Valid,21/05/2003 01:17:00,4.0,51.488,0.683
WEL,ECHIICHTHYS (TRACHINUS) VIPERA,Lesser weever fish,1,L,Solent Bass Trawl  Port,WC,Valid,21/05/2003 08:34:00,7.0,51.506,0.860
WEL,ECHIICHTHYS (TRACHINUS) VIPERA,Lesser weever fish,1,L,Solent Bass Trawl  Star,WC,Valid,21/05/2003 08:34:00,7.0,51.506,0.860
WEL,ECHIICHTHYS (TRACHINUS) VIPERA,Lesser weever fish,2,O,Solent Bass Trawl  Star,WC,Valid,21/05/2003 09:27:00,7.0,51.480,0.830
WEL,ECHIICHTHYS (TRACHINUS) VIPERA,Lesser weever fish,3,K,Solent Bass Trawl  Star,WC,Valid,21/05/2003 10:33:00,6.0,51.503,0.775
WEL,ECHIICHTHYS (TRACHINUS) VIPERA,Lesser weever fish,4,P,Solent Bass Trawl  Star,WO,Valid,21/05/2003 11:21:00,6.0,51.510,0.720
WEL,ECHIICHTHYS (TRACHINUS) VIPERA,Lesser weever fish,7,J,Solent Bass Trawl  Port,WC,Valid,21/05/2003 14:07:00,4.0,51.515,0.665
WEL,ECHIICHTHYS (TRACHINUS) VIPERA,Lesser weever fish,24,N,Solent Bass Trawl  Port,WC,Valid,25/05/2003 11:28:00,3.0,51.461,0.753
WEL,ECHIICHTHYS (TRACHINUS) VIPERA,Lesser weever fish,24,N,Solent Bass Trawl  Star,WC,Valid,25/05/2003 11:28:00,3.0,51.461,0.753
WHG,MERLANGIUS MERLANGUS,Whiting,2,O,"Otter Trawl Solent Bass Trawl 5 fm Headline, 6 & 8 metre bridles, 40mm Liner",OB,Valid,21/05/2003 09:27:00,7.0,51.480,0.830
WHG,MERLANGIUS MERLANGUS,Whiting,2,O,Solent Bass Trawl  Port,WC,Valid,21/05/2003 09:27:00,7.0,51.480,0.830
WHG,MERLANGIUS MERLANGUS,Whiting,2,O,Solent Bass Trawl  Star,WC,Valid,21/05/2003 09:27:00,7.0,51.480,0.830
WHG,MERLANGIUS MERLANGUS,Whiting,4,P,Solent Bass Trawl  Star,WC,Valid,21/05/2003 11:21:00,6.0,51.510,0.720
WHG,MERLANGIUS MERLANGUS,Whiting,19,BA,Solent Bass Trawl  Star,WC,Valid,24/05/2003 11:00:00,11.0,51.745,1.005
WHG,MERLANGIUS MERLANGUS,Whiting,20,BB,Solent Bass Trawl  Port,WC,Valid,24/05/2003 11:53:00,10.0,51.755,0.926
WHG,MERLANGIUS MERLANGUS,Whiting,20,BB,Solent Bass Trawl  Star,WC,Valid,24/05/2003 11:53:00,10.0,51.755,0.926
WHG,MERLANGIUS MERLANGUS,Whiting,21,BC,Solent Bass Trawl  Port,WC,Valid,24/05/2003 12:32:00,11.0,51.748,0.895
WHG,MERLANGIUS MERLANGUS,Whiting,21,BC,Solent Bass Trawl  Star,WC,Valid,24/05/2003 12:32:00,11.0,51.748,0.895
WHG,MERLANGIUS MERLANGUS,Whiting,15,RB,Solent Bass Trawl  Port,WC,Valid,23/05/2003 11:17:00,8.0,51.600,0.870
WHG,MERLANGIUS MERLANGUS,Whiting,15,RB,Solent Bass Trawl  Star,WC,Valid,23/05/2003 11:17:00,8.0,51.600,0.870
WHG,MERLANGIUS MERLANGUS,Whiting,16,RA,"Otter Trawl Solent Bass Trawl 5 fm Headline, 6 & 8 metre bridles, 40mm Liner",OB,Valid,23/05/2003 12:22:00,5.0,51.595,0.841
WHG,MERLANGIUS MERLANGUS,Whiting,18,CB,Solent Bass Trawl  Port,WC,Valid,23/05/2003 14:43:00,6.0,51.633,0.751
WHG,MERLANGIUS MERLANGUS,Whiting,19,BA,Solent Bass Trawl  Port,WC,Valid,24/05/2003 11:00:00,11.0,51.745,1.005
WHG,MERLANGIUS MERLANGUS,Whiting,5,J1,Solent Bass Trawl  Port,WC,Valid,21/05/2003 12:28:00,6.0,51.513,0.668
WHG,MERLANGIUS MERLANGUS,Whiting,5,J1,Solent Bass Trawl  Star,WC,Valid,21/05/2003 12:28:00,6.0,51.513,0.668
WHG,MERLANGIUS MERLANGUS,Whiting,13,CD,Solent Bass Trawl  Star,WC,Valid,23/05/2003 08:39:00,6.0,51.630,0.963
WHG,MERLANGIUS MERLANGUS,Whiting,14,CA,Solent Bass Trawl  Star,WC,Valid,23/05/2003 09:37:00,9.0,51.620,0.896
WHG,MERLANGIUS MERLANGUS,Whiting,15,RB,"Otter Trawl Solent Bass Trawl 5 fm Headline, 6 & 8 metre bridles, 40mm Liner",OB,Valid,23/05/2003 11:17:00,8.0,51.600,0.870
