﻿SpeciesCode,ScientificName,CommonName,StationNumber,PrimeStation,GearDescription,ProcessCode,Validity,DeploymentDateTime,DeploymentDepth,DeploymentLatitude,DeploymentLongitude
ESB,DICENTRARCHUS LABRAX,European seabass,1,L,"Otter Trawl Solent Bass Trawl 5 fm Headline, 6 & 8 metre bridles, 40mm Liner",MO,Valid,25/11/2002 07:24:00,6.0,51.506,0.855
ESB,DICENTRARCHUS LABRAX,European seabass,3,k,"Otter Trawl Solent Bass Trawl 5 fm Headline, 6 & 8 metre bridles, 40mm Liner",MO,Valid,25/11/2002 10:14:00,6.0,51.506,0.755
ESB,DICENTRARCHUS LABRAX,European seabass,5,J,"Otter Trawl Solent Bass Trawl 5 fm Headline, 6 & 8 metre bridles, 40mm Liner",MO,Valid,25/11/2002 12:21:00,5.0,51.515,0.665
ESB,DICENTRARCHUS LABRAX,European seabass,6,M,"Otter Trawl Solent Bass Trawl 5 fm Headline, 6 & 8 metre bridles, 40mm Liner",MO,Valid,25/11/2002 13:11:00,5.0,51.490,0.681
ESB,DICENTRARCHUS LABRAX,European seabass,7,J1,"Otter Trawl Solent Bass Trawl 5 fm Headline, 6 & 8 metre bridles, 40mm Liner",MO,Valid,25/11/2002 13:56:00,8.0,51.513,0.666
ESB,DICENTRARCHUS LABRAX,European seabass,8,P,"Otter Trawl Solent Bass Trawl 5 fm Headline, 6 & 8 metre bridles, 40mm Liner",MO,Valid,25/11/2002 14:36:00,9.0,51.515,0.700
ESB,DICENTRARCHUS LABRAX,European seabass,32,BD,"Otter Trawl Solent Bass Trawl 5 fm Headline, 6 & 8 metre bridles, 40mm Liner",MO,Valid,29/11/2002 13:25:00,5.0,51.735,0.870
ESB,DICENTRARCHUS LABRAX,European seabass,33,SA,"Otter Trawl Solent Bass Trawl 5 fm Headline, 6 & 8 metre bridles, 40mm Liner",MO,Valid,30/11/2002 11:59:00,2.0,51.361,0.828
ESB,DICENTRARCHUS LABRAX,European seabass,34,U,"Otter Trawl Solent Bass Trawl 5 fm Headline, 6 & 8 metre bridles, 40mm Liner",MO,Valid,30/11/2002 13:02:00,4.0,51.360,0.858
ESB,DICENTRARCHUS LABRAX,European seabass,35,T,"Otter Trawl Solent Bass Trawl 5 fm Headline, 6 & 8 metre bridles, 40mm Liner",MO,Valid,30/11/2002 14:11:00,4.0,51.351,0.921
ESB,DICENTRARCHUS LABRAX,European seabass,36,S,"Otter Trawl Solent Bass Trawl 5 fm Headline, 6 & 8 metre bridles, 40mm Liner",MO,Valid,30/11/2002 14:52:00,4.0,51.366,0.951
ESB,DICENTRARCHUS LABRAX,European seabass,24,CA,"Otter Trawl Solent Bass Trawl 5 fm Headline, 6 & 8 metre bridles, 40mm Liner",MO,Valid,28/11/2002 09:54:00,9.0,51.618,0.896
ESB,DICENTRARCHUS LABRAX,European seabass,25,RB,"Otter Trawl Solent Bass Trawl 5 fm Headline, 6 & 8 metre bridles, 40mm Liner",MO,Valid,28/11/2002 10:52:00,7.0,51.601,0.870
ESB,DICENTRARCHUS LABRAX,European seabass,26,RA,"Otter Trawl Solent Bass Trawl 5 fm Headline, 6 & 8 metre bridles, 40mm Liner",MO,Valid,28/11/2002 11:54:00,4.0,51.593,0.858
ESB,DICENTRARCHUS LABRAX,European seabass,27,CB,"Otter Trawl Solent Bass Trawl 5 fm Headline, 6 & 8 metre bridles, 40mm Liner",MO,Valid,28/11/2002 13:35:00,4.0,51.633,0.736
ESB,DICENTRARCHUS LABRAX,European seabass,28,CC,"Otter Trawl Solent Bass Trawl 5 fm Headline, 6 & 8 metre bridles, 40mm Liner",MO,Valid,28/11/2002 14:26:00,6.0,51.638,0.768
ESB,DICENTRARCHUS LABRAX,European seabass,31,BC,"Otter Trawl Solent Bass Trawl 5 fm Headline, 6 & 8 metre bridles, 40mm Liner",MO,Valid,29/11/2002 12:26:00,12.0,51.750,0.901
ESB,DICENTRARCHUS LABRAX,European seabass,9,MA,"Otter Trawl Solent Bass Trawl 5 fm Headline, 6 & 8 metre bridles, 40mm Liner",MO,Valid,26/11/2002 07:39:00,5.0,51.411,0.695
ESB,DICENTRARCHUS LABRAX,European seabass,10,HA,"Otter Trawl Solent Bass Trawl 5 fm Headline, 6 & 8 metre bridles, 40mm Liner",MO,Valid,26/11/2002 09:05:00,3.0,51.406,0.650
ESB,DICENTRARCHUS LABRAX,European seabass,11,v,"Otter Trawl Solent Bass Trawl 5 fm Headline, 6 & 8 metre bridles, 40mm Liner",MO,Valid,26/11/2002 10:32:00,2.0,51.421,0.645
ESB,DICENTRARCHUS LABRAX,European seabass,13,x,"Otter Trawl Solent Bass Trawl 5 fm Headline, 6 & 8 metre bridles, 40mm Liner",MO,Valid,26/11/2002 13:01:00,4.0,51.436,0.721
ESB,DICENTRARCHUS LABRAX,European seabass,14,n,"Otter Trawl Solent Bass Trawl 5 fm Headline, 6 & 8 metre bridles, 40mm Liner",MO,Valid,26/11/2002 13:46:00,2.0,51.453,0.740
ESB,DICENTRARCHUS LABRAX,European seabass,16,a1,"Otter Trawl Solent Bass Trawl 5 fm Headline, 6 & 8 metre bridles, 40mm Liner",MO,Valid,27/11/2002 07:44:00,5.0,51.498,0.533
BIB,TRISOPTERUS LUSCUS,Whiting-pout (bib),2,o,Solent Bass Trawl  Port,MO,Valid,25/11/2002 09:12:00,6.0,51.480,0.826
DAB,LIMANDA LIMANDA,Dab,2,o,Solent Bass Trawl  Port,MO,Valid,25/11/2002 09:12:00,6.0,51.480,0.826
FLE,PLATICHTHYS FLESUS,Flounder (european),2,o,Solent Bass Trawl  Port,MO,Valid,25/11/2002 09:12:00,6.0,51.480,0.826
GPF,SYNGNATHUS ACUS,Great pipefish,2,o,Solent Bass Trawl  Port,MO,Valid,25/11/2002 09:12:00,6.0,51.480,0.826
PLE,PLEURONECTES PLATESSA,European plaice,2,o,Solent Bass Trawl  Port,MO,Valid,25/11/2002 09:12:00,6.0,51.480,0.826
POG,AGONUS CATAPHRACTUS,Pogge (armed bullhead),2,o,Solent Bass Trawl  Port,MO,Valid,25/11/2002 09:12:00,6.0,51.480,0.826
WHG,MERLANGIUS MERLANGUS,Whiting,36,S,Solent Bass Trawl  Port,MO,Valid,30/11/2002 14:52:00,4.0,51.366,0.951
FVR,CILIATA MUSTELA,Five-bearded rockling,36,S,Solent Bass Trawl  Port,MO,Valid,30/11/2002 14:52:00,4.0,51.366,0.951
HER,CLUPEA HARENGUS,Herring,36,S,Solent Bass Trawl  Port,MO,Valid,30/11/2002 14:52:00,4.0,51.366,0.951
PLE,PLEURONECTES PLATESSA,European plaice,36,S,Solent Bass Trawl  Port,MO,Valid,30/11/2002 14:52:00,4.0,51.366,0.951
POG,AGONUS CATAPHRACTUS,Pogge (armed bullhead),36,S,Solent Bass Trawl  Port,MO,Valid,30/11/2002 14:52:00,4.0,51.366,0.951
SIL,ATHERINIDAE,Sand-smelts,36,S,Solent Bass Trawl  Port,MO,Valid,30/11/2002 14:52:00,4.0,51.366,0.951
SME,OSMERUS EPERLANUS,Smelt(sparling),36,S,Solent Bass Trawl  Port,MO,Valid,30/11/2002 14:52:00,4.0,51.366,0.951
SME,OSMERUS EPERLANUS,Smelt(sparling),34,U,Solent Bass Trawl  Port,MO,Valid,30/11/2002 13:02:00,4.0,51.360,0.858
TSS,GASTEROSTEUS ACULEATUS,Three-spined stickleback,34,U,Solent Bass Trawl  Port,WC,Valid,30/11/2002 13:02:00,4.0,51.360,0.858
WHG,MERLANGIUS MERLANGUS,Whiting,34,U,Solent Bass Trawl  Port,MO,Valid,30/11/2002 13:02:00,4.0,51.360,0.858
BIB,TRISOPTERUS LUSCUS,Whiting-pout (bib),36,S,Solent Bass Trawl  Port,MO,Valid,30/11/2002 14:52:00,4.0,51.366,0.951
DAB,LIMANDA LIMANDA,Dab,36,S,Solent Bass Trawl  Port,MO,Valid,30/11/2002 14:52:00,4.0,51.366,0.951
FLE,PLATICHTHYS FLESUS,Flounder (european),36,S,Solent Bass Trawl  Port,MO,Valid,30/11/2002 14:52:00,4.0,51.366,0.951
CDT,CALLIONYMUS LYRA,Common dragonet,34,U,Solent Bass Trawl  Port,MO,Valid,30/11/2002 13:02:00,4.0,51.360,0.858
DAB,LIMANDA LIMANDA,Dab,34,U,Solent Bass Trawl  Port,MO,Valid,30/11/2002 13:02:00,4.0,51.360,0.858
FLE,PLATICHTHYS FLESUS,Flounder (european),34,U,Solent Bass Trawl  Port,MO,Valid,30/11/2002 13:02:00,4.0,51.360,0.858
FVR,CILIATA MUSTELA,Five-bearded rockling,34,U,Solent Bass Trawl  Port,MO,Valid,30/11/2002 13:02:00,4.0,51.360,0.858
HER,CLUPEA HARENGUS,Herring,34,U,Solent Bass Trawl  Port,MO,Valid,30/11/2002 13:02:00,4.0,51.360,0.858
POG,AGONUS CATAPHRACTUS,Pogge (armed bullhead),34,U,Solent Bass Trawl  Port,MO,Valid,30/11/2002 13:02:00,4.0,51.360,0.858
FVR,CILIATA MUSTELA,Five-bearded rockling,32,BD,Solent Bass Trawl  Port,MO,Valid,29/11/2002 13:25:00,5.0,51.735,0.870
HER,CLUPEA HARENGUS,Herring,32,BD,Solent Bass Trawl  Port,MO,Valid,29/11/2002 13:25:00,5.0,51.735,0.870
POG,AGONUS CATAPHRACTUS,Pogge (armed bullhead),32,BD,Solent Bass Trawl  Port,MO,Valid,29/11/2002 13:25:00,5.0,51.735,0.870
SME,OSMERUS EPERLANUS,Smelt(sparling),32,BD,Solent Bass Trawl  Port,MO,Valid,29/11/2002 13:25:00,5.0,51.735,0.870
WHG,MERLANGIUS MERLANGUS,Whiting,32,BD,Solent Bass Trawl  Port,MO,Valid,29/11/2002 13:25:00,5.0,51.735,0.870
BRT,MYOXOCEPHALUS SCORPIUS,Bullrout,34,U,Solent Bass Trawl  Port,MO,Valid,30/11/2002 13:02:00,4.0,51.360,0.858
WHG,MERLANGIUS MERLANGUS,Whiting,31,BC,Solent Bass Trawl  Port,MO,Valid,29/11/2002 12:26:00,12.0,51.750,0.901
BRT,MYOXOCEPHALUS SCORPIUS,Bullrout,32,BD,Solent Bass Trawl  Port,MO,Valid,29/11/2002 13:25:00,5.0,51.735,0.870
BTF,PHOLIS GUNNELLUS,Butter fish,32,BD,Solent Bass Trawl  Port,MO,Valid,29/11/2002 13:25:00,5.0,51.735,0.870
CRE,CANCER PAGURUS,Edible crab,32,BD,Solent Bass Trawl  Port,MO,Valid,29/11/2002 13:25:00,5.0,51.735,0.870
DAB,LIMANDA LIMANDA,Dab,32,BD,Solent Bass Trawl  Port,MO,Valid,29/11/2002 13:25:00,5.0,51.735,0.870
FLE,PLATICHTHYS FLESUS,Flounder (european),32,BD,Solent Bass Trawl  Port,MO,Valid,29/11/2002 13:25:00,5.0,51.735,0.870
HER,CLUPEA HARENGUS,Herring,31,BC,Solent Bass Trawl  Port,MO,Valid,29/11/2002 12:26:00,12.0,51.750,0.901
POD,TRISOPTERUS MINUTUS,Poor cod,31,BC,Solent Bass Trawl  Port,MO,Valid,29/11/2002 12:26:00,12.0,51.750,0.901
POG,AGONUS CATAPHRACTUS,Pogge (armed bullhead),31,BC,Solent Bass Trawl  Port,MO,Valid,29/11/2002 12:26:00,12.0,51.750,0.901
SME,OSMERUS EPERLANUS,Smelt(sparling),31,BC,Solent Bass Trawl  Port,MO,Valid,29/11/2002 12:26:00,12.0,51.750,0.901
SOL,SOLEA SOLEA ,Sole (dover sole),31,BC,Solent Bass Trawl  Port,MO,Valid,29/11/2002 12:26:00,12.0,51.750,0.901
TUB,TRIGLA (CHELIDONICHTHYS) LUCERNA,Tub gurnard,31,BC,Solent Bass Trawl  Port,MO,Valid,29/11/2002 12:26:00,12.0,51.750,0.901
TUB,TRIGLA (CHELIDONICHTHYS) LUCERNA,Tub gurnard,30,BB,Solent Bass Trawl  Port,MO,Valid,29/11/2002 11:18:00,13.0,51.755,0.931
WHG,MERLANGIUS MERLANGUS,Whiting,30,BB,Solent Bass Trawl  Port,MO,Valid,29/11/2002 11:18:00,13.0,51.755,0.931
BIB,TRISOPTERUS LUSCUS,Whiting-pout (bib),31,BC,Solent Bass Trawl  Port,MO,Valid,29/11/2002 12:26:00,12.0,51.750,0.901
DAB,LIMANDA LIMANDA,Dab,31,BC,Solent Bass Trawl  Port,MO,Valid,29/11/2002 12:26:00,12.0,51.750,0.901
FLE,PLATICHTHYS FLESUS,Flounder (european),31,BC,Solent Bass Trawl  Port,MO,Valid,29/11/2002 12:26:00,12.0,51.750,0.901
GPF,SYNGNATHUS ACUS,Great pipefish,31,BC,Solent Bass Trawl  Port,MO,Valid,29/11/2002 12:26:00,12.0,51.750,0.901
HER,CLUPEA HARENGUS,Herring,30,BB,Solent Bass Trawl  Port,MO,Valid,29/11/2002 11:18:00,13.0,51.755,0.931
POD,TRISOPTERUS MINUTUS,Poor cod,30,BB,Solent Bass Trawl  Port,MO,Valid,29/11/2002 11:18:00,13.0,51.755,0.931
POG,AGONUS CATAPHRACTUS,Pogge (armed bullhead),30,BB,Solent Bass Trawl  Port,MO,Valid,29/11/2002 11:18:00,13.0,51.755,0.931
SME,OSMERUS EPERLANUS,Smelt(sparling),30,BB,Solent Bass Trawl  Port,MO,Valid,29/11/2002 11:18:00,13.0,51.755,0.931
SPR,SPRATTUS SPRATTUS,Sprat,30,BB,Solent Bass Trawl  Port,MO,Valid,29/11/2002 11:18:00,13.0,51.755,0.931
THR,RAJA CLAVATA,Thornback ray (roker),30,BB,Solent Bass Trawl  Port,MO,Valid,29/11/2002 11:18:00,13.0,51.755,0.931
BIB,TRISOPTERUS LUSCUS,Whiting-pout (bib),30,BB,Solent Bass Trawl  Port,MO,Valid,29/11/2002 11:18:00,13.0,51.755,0.931
COD,GADUS MORHUA,Atlantic cod,30,BB,Solent Bass Trawl  Port,MO,Valid,29/11/2002 11:18:00,13.0,51.755,0.931
DAB,LIMANDA LIMANDA,Dab,30,BB,Solent Bass Trawl  Port,MO,Valid,29/11/2002 11:18:00,13.0,51.755,0.931
ESB,DICENTRARCHUS LABRAX,European seabass,30,BB,Solent Bass Trawl  Port,MO,Valid,29/11/2002 11:18:00,13.0,51.755,0.931
FLE,PLATICHTHYS FLESUS,Flounder (european),30,BB,Solent Bass Trawl  Port,MO,Valid,29/11/2002 11:18:00,13.0,51.755,0.931
GOB,GOBIUS SPP,Gobies,30,BB,Solent Bass Trawl  Port,OB,Valid,29/11/2002 11:18:00,13.0,51.755,0.931
POG,AGONUS CATAPHRACTUS,Pogge (armed bullhead),29,BA,Solent Bass Trawl  Port,MO,Valid,29/11/2002 10:02:00,10.0,51.745,1.000
SOL,SOLEA SOLEA ,Sole (dover sole),29,BA,Solent Bass Trawl  Port,MO,Valid,29/11/2002 10:02:00,10.0,51.745,1.000
SPR,SPRATTUS SPRATTUS,Sprat,29,BA,Solent Bass Trawl  Port,MO,Valid,29/11/2002 10:02:00,10.0,51.745,1.000
THR,RAJA CLAVATA,Thornback ray (roker),29,BA,Solent Bass Trawl  Port,MO,Valid,29/11/2002 10:02:00,10.0,51.745,1.000
THR,RAJA CLAVATA,Thornback ray (roker),29,BA,Solent Bass Trawl  Port,MO,Valid,29/11/2002 10:02:00,10.0,51.745,1.000
WHG,MERLANGIUS MERLANGUS,Whiting,29,BA,Solent Bass Trawl  Port,MO,Valid,29/11/2002 10:02:00,10.0,51.745,1.000
WHG,MERLANGIUS MERLANGUS,Whiting,28,CC,Solent Bass Trawl  Port,MO,Valid,28/11/2002 14:26:00,6.0,51.638,0.768
BIB,TRISOPTERUS LUSCUS,Whiting-pout (bib),29,BA,Solent Bass Trawl  Port,MO,Valid,29/11/2002 10:02:00,10.0,51.745,1.000
COD,GADUS MORHUA,Atlantic cod,29,BA,Solent Bass Trawl  Port,MO,Valid,29/11/2002 10:02:00,10.0,51.745,1.000
FLE,PLATICHTHYS FLESUS,Flounder (european),29,BA,Solent Bass Trawl  Port,MO,Valid,29/11/2002 10:02:00,10.0,51.745,1.000
MTN,LIZA RAMADA,Thin lipped mullet,29,BA,Solent Bass Trawl  Port,MO,Valid,29/11/2002 10:02:00,10.0,51.745,1.000
PLE,PLEURONECTES PLATESSA,European plaice,29,BA,Solent Bass Trawl  Port,MO,Valid,29/11/2002 10:02:00,10.0,51.745,1.000
HOM,TRACHURUS TRACHURUS,Horse-mackerel (scad),28,CC,Solent Bass Trawl  Port,MO,Valid,28/11/2002 14:26:00,6.0,51.638,0.768
LEM,MICROSTOMUS KITT,Lemon sole,28,CC,Solent Bass Trawl  Port,MO,Valid,28/11/2002 14:26:00,6.0,51.638,0.768
POG,AGONUS CATAPHRACTUS,Pogge (armed bullhead),28,CC,Solent Bass Trawl  Port,MO,Valid,28/11/2002 14:26:00,6.0,51.638,0.768
SME,OSMERUS EPERLANUS,Smelt(sparling),28,CC,Solent Bass Trawl  Port,MO,Valid,28/11/2002 14:26:00,6.0,51.638,0.768
SOL,SOLEA SOLEA ,Sole (dover sole),28,CC,Solent Bass Trawl  Port,MO,Valid,28/11/2002 14:26:00,6.0,51.638,0.768
SSL,LIPARIS LIPARIS,Sea snail,28,CC,Solent Bass Trawl  Port,MO,Valid,28/11/2002 14:26:00,6.0,51.638,0.768
EEL,ANGUILLIDAE,Eels,28,CC,Solent Bass Trawl  Port,MO,Valid,28/11/2002 14:26:00,6.0,51.638,0.768
FLE,PLATICHTHYS FLESUS,Flounder (european),28,CC,Solent Bass Trawl  Port,MO,Valid,28/11/2002 14:26:00,6.0,51.638,0.768
FVR,CILIATA MUSTELA,Five-bearded rockling,28,CC,Solent Bass Trawl  Port,MO,Valid,28/11/2002 14:26:00,6.0,51.638,0.768
GPF,SYNGNATHUS ACUS,Great pipefish,28,CC,Solent Bass Trawl  Port,MO,Valid,28/11/2002 14:26:00,6.0,51.638,0.768
GUR,ASPITRIGLA (CHELIDONICHTHYS) CUCULUS,Red gurnard,28,CC,Solent Bass Trawl  Port,MO,Valid,28/11/2002 14:26:00,6.0,51.638,0.768
HER,CLUPEA HARENGUS,Herring,28,CC,Solent Bass Trawl  Port,WC,Valid,28/11/2002 14:26:00,6.0,51.638,0.768
SPR,SPRATTUS SPRATTUS,Sprat,26,RA,Solent Bass Trawl  Port,WC,Valid,28/11/2002 11:54:00,4.0,51.593,0.858
WHG,MERLANGIUS MERLANGUS,Whiting,26,RA,Solent Bass Trawl  Port,MO,Valid,28/11/2002 11:54:00,4.0,51.593,0.858
BIB,TRISOPTERUS LUSCUS,Whiting-pout (bib),28,CC,Solent Bass Trawl  Port,MO,Valid,28/11/2002 14:26:00,6.0,51.638,0.768
CDT,CALLIONYMUS LYRA,Common dragonet,28,CC,Solent Bass Trawl  Port,MO,Valid,28/11/2002 14:26:00,6.0,51.638,0.768
COD,GADUS MORHUA,Atlantic cod,28,CC,Solent Bass Trawl  Port,MO,Valid,28/11/2002 14:26:00,6.0,51.638,0.768
DAB,LIMANDA LIMANDA,Dab,28,CC,Solent Bass Trawl  Port,MO,Valid,28/11/2002 14:26:00,6.0,51.638,0.768
FLE,PLATICHTHYS FLESUS,Flounder (european),26,RA,Solent Bass Trawl  Port,MO,Valid,28/11/2002 11:54:00,4.0,51.593,0.858
FVR,CILIATA MUSTELA,Five-bearded rockling,26,RA,Solent Bass Trawl  Port,MO,Valid,28/11/2002 11:54:00,4.0,51.593,0.858
GOB,GOBIUS SPP,Gobies,26,RA,Solent Bass Trawl  Port,OB,Valid,28/11/2002 11:54:00,4.0,51.593,0.858
HER,CLUPEA HARENGUS,Herring,26,RA,Solent Bass Trawl  Port,WC,Valid,28/11/2002 11:54:00,4.0,51.593,0.858
POG,AGONUS CATAPHRACTUS,Pogge (armed bullhead),26,RA,Solent Bass Trawl  Port,MO,Valid,28/11/2002 11:54:00,4.0,51.593,0.858
SME,OSMERUS EPERLANUS,Smelt(sparling),26,RA,Solent Bass Trawl  Port,MO,Valid,28/11/2002 11:54:00,4.0,51.593,0.858
THR,RAJA CLAVATA,Thornback ray (roker),24,CA,Solent Bass Trawl  Port,MO,Valid,28/11/2002 09:54:00,9.0,51.618,0.896
TUB,TRIGLA (CHELIDONICHTHYS) LUCERNA,Tub gurnard,24,CA,Solent Bass Trawl  Port,MO,Valid,28/11/2002 09:54:00,9.0,51.618,0.896
WHG,MERLANGIUS MERLANGUS,Whiting,24,CA,Solent Bass Trawl  Port,MO,Valid,28/11/2002 09:54:00,9.0,51.618,0.896
BIB,TRISOPTERUS LUSCUS,Whiting-pout (bib),26,RA,Solent Bass Trawl  Port,MO,Valid,28/11/2002 11:54:00,4.0,51.593,0.858
COD,GADUS MORHUA,Atlantic cod,26,RA,Solent Bass Trawl  Port,MO,Valid,28/11/2002 11:54:00,4.0,51.593,0.858
DAB,LIMANDA LIMANDA,Dab,26,RA,Solent Bass Trawl  Port,MO,Valid,28/11/2002 11:54:00,4.0,51.593,0.858
HER,CLUPEA HARENGUS,Herring,24,CA,Solent Bass Trawl  Port,MO,Valid,28/11/2002 09:54:00,9.0,51.618,0.896
POD,TRISOPTERUS MINUTUS,Poor cod,24,CA,Solent Bass Trawl  Port,MO,Valid,28/11/2002 09:54:00,9.0,51.618,0.896
POG,AGONUS CATAPHRACTUS,Pogge (armed bullhead),24,CA,Solent Bass Trawl  Port,MO,Valid,28/11/2002 09:54:00,9.0,51.618,0.896
SDG,POMATOSCHISTUS MINUTUS,Sand goby,24,CA,Solent Bass Trawl  Port,OB,Valid,28/11/2002 09:54:00,9.0,51.618,0.896
SKP,ENTELURUS AEQUOREUS,Snake pipefish,24,CA,Solent Bass Trawl  Port,MO,Valid,28/11/2002 09:54:00,9.0,51.618,0.896
SOL,SOLEA SOLEA ,Sole (dover sole),24,CA,Solent Bass Trawl  Port,MO,Valid,28/11/2002 09:54:00,9.0,51.618,0.896
WHG,MERLANGIUS MERLANGUS,Whiting,23,CD,Solent Bass Trawl  Port,MO,Valid,28/11/2002 09:09:00,6.0,51.628,0.958
BIB,TRISOPTERUS LUSCUS,Whiting-pout (bib),24,CA,Solent Bass Trawl  Port,MO,Valid,28/11/2002 09:54:00,9.0,51.618,0.896
COD,GADUS MORHUA,Atlantic cod,24,CA,Solent Bass Trawl  Port,MO,Valid,28/11/2002 09:54:00,9.0,51.618,0.896
DAB,LIMANDA LIMANDA,Dab,24,CA,Solent Bass Trawl  Port,MO,Valid,28/11/2002 09:54:00,9.0,51.618,0.896
FLE,PLATICHTHYS FLESUS,Flounder (european),24,CA,Solent Bass Trawl  Port,MO,Valid,28/11/2002 09:54:00,9.0,51.618,0.896
FVR,CILIATA MUSTELA,Five-bearded rockling,24,CA,Solent Bass Trawl  Port,MO,Valid,28/11/2002 09:54:00,9.0,51.618,0.896
HER,CLUPEA HARENGUS,Herring,23,CD,Solent Bass Trawl  Port,WC,Valid,28/11/2002 09:09:00,6.0,51.628,0.958
PLE,PLEURONECTES PLATESSA,European plaice,23,CD,Solent Bass Trawl  Port,MO,Valid,28/11/2002 09:09:00,6.0,51.628,0.958
POG,AGONUS CATAPHRACTUS,Pogge (armed bullhead),23,CD,Solent Bass Trawl  Port,MO,Valid,28/11/2002 09:09:00,6.0,51.628,0.958
SME,OSMERUS EPERLANUS,Smelt(sparling),23,CD,Solent Bass Trawl  Port,WC,Valid,28/11/2002 09:09:00,6.0,51.628,0.958
SOL,SOLEA SOLEA ,Sole (dover sole),23,CD,Solent Bass Trawl  Port,MO,Valid,28/11/2002 09:09:00,6.0,51.628,0.958
THR,RAJA CLAVATA,Thornback ray (roker),23,CD,Solent Bass Trawl  Port,MO,Valid,28/11/2002 09:09:00,6.0,51.628,0.958
COD,GADUS MORHUA,Atlantic cod,23,CD,Solent Bass Trawl  Port,MO,Valid,28/11/2002 09:09:00,6.0,51.628,0.958
DAB,LIMANDA LIMANDA,Dab,23,CD,Solent Bass Trawl  Port,MO,Valid,28/11/2002 09:09:00,6.0,51.628,0.958
ESB,DICENTRARCHUS LABRAX,European seabass,23,CD,Solent Bass Trawl  Port,MO,Valid,28/11/2002 09:09:00,6.0,51.628,0.958
FLE,PLATICHTHYS FLESUS,Flounder (european),23,CD,Solent Bass Trawl  Port,MO,Valid,28/11/2002 09:09:00,6.0,51.628,0.958
FVR,CILIATA MUSTELA,Five-bearded rockling,23,CD,Solent Bass Trawl  Port,WC,Valid,28/11/2002 09:09:00,6.0,51.628,0.958
GOB,GOBIUS SPP,Gobies,23,CD,Solent Bass Trawl  Port,OB,Valid,28/11/2002 09:09:00,6.0,51.628,0.958
GOB,GOBIUS SPP,Gobies,22,G1,Solent Bass Trawl  Port,OB,Valid,27/11/2002 13:29:00,5.0,51.513,0.138
MTN,LIZA RAMADA,Thin lipped mullet,22,G1,Solent Bass Trawl  Port,MO,Valid,27/11/2002 13:29:00,5.0,51.513,0.138
SME,OSMERUS EPERLANUS,Smelt(sparling),22,G1,Solent Bass Trawl  Port,MO,Valid,27/11/2002 13:29:00,5.0,51.513,0.138
SPZ,SCAPHOPODA,Tusk shells,22,G1,Solent Bass Trawl  Port,MO,Valid,27/11/2002 13:29:00,5.0,51.513,0.138
BIB,TRISOPTERUS LUSCUS,Whiting-pout (bib),23,CD,Solent Bass Trawl  Port,MO,Valid,28/11/2002 09:09:00,6.0,51.628,0.958
CDT,CALLIONYMUS LYRA,Common dragonet,23,CD,Solent Bass Trawl  Port,MO,Valid,28/11/2002 09:09:00,6.0,51.628,0.958
ESB,DICENTRARCHUS LABRAX,European seabass,21,G,Solent Bass Trawl  Port,MO,Valid,27/11/2002 12:56:00,9.0,51.515,0.140
FLE,PLATICHTHYS FLESUS,Flounder (european),21,G,Solent Bass Trawl  Port,MO,Valid,27/11/2002 12:56:00,9.0,51.515,0.140
SME,OSMERUS EPERLANUS,Smelt(sparling),21,G,Solent Bass Trawl  Port,MO,Valid,27/11/2002 12:56:00,9.0,51.515,0.140
EEL,ANGUILLIDAE,Eels,22,G1,Solent Bass Trawl  Port,WC,Valid,27/11/2002 13:29:00,5.0,51.513,0.138
ESB,DICENTRARCHUS LABRAX,European seabass,22,G1,Solent Bass Trawl  Port,MO,Valid,27/11/2002 13:29:00,5.0,51.513,0.138
FLE,PLATICHTHYS FLESUS,Flounder (european),22,G1,Solent Bass Trawl  Port,MO,Valid,27/11/2002 13:29:00,5.0,51.513,0.138
ESB,DICENTRARCHUS LABRAX,European seabass,20,F,Solent Bass Trawl  Port,MO,Valid,27/11/2002 11:25:00,8.0,51.460,0.300
FLE,PLATICHTHYS FLESUS,Flounder (european),20,F,Solent Bass Trawl  Port,MO,Valid,27/11/2002 11:25:00,8.0,51.460,0.300
SME,OSMERUS EPERLANUS,Smelt(sparling),20,F,Solent Bass Trawl  Port,MO,Valid,27/11/2002 11:25:00,8.0,51.460,0.300
SOL,SOLEA SOLEA ,Sole (dover sole),20,F,Solent Bass Trawl  Port,MO,Valid,27/11/2002 11:25:00,8.0,51.460,0.300
CRC,CANCER PAGURUS (COCK),Male edible crab (hist only),21,G,Solent Bass Trawl  Port,WC,Valid,27/11/2002 12:56:00,9.0,51.515,0.140
EEL,ANGUILLIDAE,Eels,21,G,Solent Bass Trawl  Port,WC,Valid,27/11/2002 12:56:00,9.0,51.515,0.140
GOB,GOBIUS SPP,Gobies,19,e1,Solent Bass Trawl  Port,OB,Valid,27/11/2002 11:06:00,6.0,51.470,0.318
POG,AGONUS CATAPHRACTUS,Pogge (armed bullhead),19,e1,Solent Bass Trawl  Port,MO,Valid,27/11/2002 11:06:00,6.0,51.470,0.318
SME,OSMERUS EPERLANUS,Smelt(sparling),19,e1,Solent Bass Trawl  Port,MO,Valid,27/11/2002 11:06:00,6.0,51.470,0.318
SOL,SOLEA SOLEA ,Sole (dover sole),19,e1,Solent Bass Trawl  Port,MO,Valid,27/11/2002 11:06:00,6.0,51.470,0.318
CRC,CANCER PAGURUS (COCK),Male edible crab (hist only),20,F,Solent Bass Trawl  Port,WC,Valid,27/11/2002 11:25:00,8.0,51.460,0.300
EEL,ANGUILLIDAE,Eels,20,F,Solent Bass Trawl  Port,WC,Valid,27/11/2002 11:25:00,8.0,51.460,0.300
SOL,SOLEA SOLEA ,Sole (dover sole),18,e,Solent Bass Trawl  Port,MO,Valid,27/11/2002 10:00:00,3.0,51.470,0.321
BRT,MYOXOCEPHALUS SCORPIUS,Bullrout,19,e1,Solent Bass Trawl  Port,MO,Valid,27/11/2002 11:06:00,6.0,51.470,0.318
EEL,ANGUILLIDAE,Eels,19,e1,Solent Bass Trawl  Port,WC,Valid,27/11/2002 11:06:00,6.0,51.470,0.318
ESB,DICENTRARCHUS LABRAX,European seabass,19,e1,Solent Bass Trawl  Port,MO,Valid,27/11/2002 11:06:00,6.0,51.470,0.318
FLE,PLATICHTHYS FLESUS,Flounder (european),19,e1,Solent Bass Trawl  Port,MO,Valid,27/11/2002 11:06:00,6.0,51.470,0.318
FVR,CILIATA MUSTELA,Five-bearded rockling,19,e1,Solent Bass Trawl  Port,MO,Valid,27/11/2002 11:06:00,6.0,51.470,0.318
WHG,MERLANGIUS MERLANGUS,Whiting,17,d,Solent Bass Trawl  Port,MO,Valid,27/11/2002 08:17:00,4.0,51.495,0.495
ESB,DICENTRARCHUS LABRAX,European seabass,18,e,Solent Bass Trawl  Port,MO,Valid,27/11/2002 10:00:00,3.0,51.470,0.321
FLE,PLATICHTHYS FLESUS,Flounder (european),18,e,Solent Bass Trawl  Port,MO,Valid,27/11/2002 10:00:00,3.0,51.470,0.321
GPA,GOBIIDAE,Gobies,18,e,Solent Bass Trawl  Port,OB,Valid,27/11/2002 10:00:00,3.0,51.470,0.321
HER,CLUPEA HARENGUS,Herring,18,e,Solent Bass Trawl  Port,MO,Valid,27/11/2002 10:00:00,3.0,51.470,0.321
POG,AGONUS CATAPHRACTUS,Pogge (armed bullhead),18,e,Solent Bass Trawl  Port,MO,Valid,27/11/2002 10:00:00,3.0,51.470,0.321
GPF,SYNGNATHUS ACUS,Great pipefish,17,d,Solent Bass Trawl  Port,MO,Valid,27/11/2002 08:17:00,4.0,51.495,0.495
PLE,PLEURONECTES PLATESSA,European plaice,17,d,Solent Bass Trawl  Port,MO,Valid,27/11/2002 08:17:00,4.0,51.495,0.495
POG,AGONUS CATAPHRACTUS,Pogge (armed bullhead),17,d,Solent Bass Trawl  Port,MO,Valid,27/11/2002 08:17:00,4.0,51.495,0.495
SME,OSMERUS EPERLANUS,Smelt(sparling),17,d,Solent Bass Trawl  Port,MO,Valid,27/11/2002 08:17:00,4.0,51.495,0.495
SOL,SOLEA SOLEA ,Sole (dover sole),17,d,Solent Bass Trawl  Port,MO,Valid,27/11/2002 08:17:00,4.0,51.495,0.495
TUB,TRIGLA (CHELIDONICHTHYS) LUCERNA,Tub gurnard,17,d,Solent Bass Trawl  Port,MO,Valid,27/11/2002 08:17:00,4.0,51.495,0.495
BIB,TRISOPTERUS LUSCUS,Whiting-pout (bib),17,d,Solent Bass Trawl  Port,MO,Valid,27/11/2002 08:17:00,4.0,51.495,0.495
BLL,SCOPHTHALMUS RHOMBUS,Brill,17,d,Solent Bass Trawl  Port,MO,Valid,27/11/2002 08:17:00,4.0,51.495,0.495
DAB,LIMANDA LIMANDA,Dab,17,d,Solent Bass Trawl  Port,MO,Valid,27/11/2002 08:17:00,4.0,51.495,0.495
FLE,PLATICHTHYS FLESUS,Flounder (european),17,d,Solent Bass Trawl  Port,MO,Valid,27/11/2002 08:17:00,4.0,51.495,0.495
FVR,CILIATA MUSTELA,Five-bearded rockling,17,d,Solent Bass Trawl  Port,MO,Valid,27/11/2002 08:17:00,4.0,51.495,0.495
GOB,GOBIUS SPP,Gobies,17,d,Solent Bass Trawl  Port,OB,Valid,27/11/2002 08:17:00,4.0,51.495,0.495
PLE,PLEURONECTES PLATESSA,European plaice,16,a1,Solent Bass Trawl  Port,MO,Valid,27/11/2002 07:44:00,5.0,51.498,0.533
POG,AGONUS CATAPHRACTUS,Pogge (armed bullhead),16,a1,Solent Bass Trawl  Port,MO,Valid,27/11/2002 07:44:00,5.0,51.498,0.533
SIL,ATHERINIDAE,Sand-smelts,16,a1,Solent Bass Trawl  Port,OB,Valid,27/11/2002 07:44:00,5.0,51.498,0.533
SME,OSMERUS EPERLANUS,Smelt(sparling),16,a1,Solent Bass Trawl  Port,MO,Valid,27/11/2002 07:44:00,5.0,51.498,0.533
SOL,SOLEA SOLEA ,Sole (dover sole),16,a1,Solent Bass Trawl  Port,MO,Valid,27/11/2002 07:44:00,5.0,51.498,0.533
WHG,MERLANGIUS MERLANGUS,Whiting,16,a1,Solent Bass Trawl  Port,MO,Valid,27/11/2002 07:44:00,5.0,51.498,0.533
BIB,TRISOPTERUS LUSCUS,Whiting-pout (bib),16,a1,Solent Bass Trawl  Port,MO,Valid,27/11/2002 07:44:00,5.0,51.498,0.533
CLG,CRYSTALLOGOBIUS LINEARIS,Crystal goby,16,a1,Solent Bass Trawl  Port,OB,Valid,27/11/2002 07:44:00,5.0,51.498,0.533
CLU,CLUPEIDAE,Herrings,16,a1,Solent Bass Trawl  Port,OB,Valid,27/11/2002 07:44:00,5.0,51.498,0.533
COD,GADUS MORHUA,Atlantic cod,16,a1,Solent Bass Trawl  Port,MO,Valid,27/11/2002 07:44:00,5.0,51.498,0.533
CRH,CANCER PAGURUS (HEN),Female edible crab (hist only),16,a1,Solent Bass Trawl  Port,WC,Valid,27/11/2002 07:44:00,5.0,51.498,0.533
FLE,PLATICHTHYS FLESUS,Flounder (european),16,a1,Solent Bass Trawl  Port,MO,Valid,27/11/2002 07:44:00,5.0,51.498,0.533
HER,CLUPEA HARENGUS,Herring,14,n,Solent Bass Trawl  Port,MO,Valid,26/11/2002 13:46:00,2.0,51.453,0.740
LBE,HOMARUS GAMMARUS,European lobster,14,n,Solent Bass Trawl  Port,MO,Valid,26/11/2002 13:46:00,2.0,51.453,0.740
PLE,PLEURONECTES PLATESSA,European plaice,14,n,Solent Bass Trawl  Port,MO,Valid,26/11/2002 13:46:00,2.0,51.453,0.740
POG,AGONUS CATAPHRACTUS,Pogge (armed bullhead),14,n,Solent Bass Trawl  Port,MO,Valid,26/11/2002 13:46:00,2.0,51.453,0.740
SPR,SPRATTUS SPRATTUS,Sprat,14,n,Solent Bass Trawl  Port,MO,Valid,26/11/2002 13:46:00,2.0,51.453,0.740
WHG,MERLANGIUS MERLANGUS,Whiting,14,n,Solent Bass Trawl  Port,MO,Valid,26/11/2002 13:46:00,2.0,51.453,0.740
HER,CLUPEA HARENGUS,Herring,12,w,Solent Bass Trawl  Port,MO,Valid,26/11/2002 12:06:00,6.0,51.421,0.651
BIB,TRISOPTERUS LUSCUS,Whiting-pout (bib),14,n,Solent Bass Trawl  Port,MO,Valid,26/11/2002 13:46:00,2.0,51.453,0.740
BLL,SCOPHTHALMUS RHOMBUS,Brill,14,n,Solent Bass Trawl  Port,MO,Valid,26/11/2002 13:46:00,2.0,51.453,0.740
DAB,LIMANDA LIMANDA,Dab,14,n,Solent Bass Trawl  Port,MO,Valid,26/11/2002 13:46:00,2.0,51.453,0.740
FLE,PLATICHTHYS FLESUS,Flounder (european),14,n,Solent Bass Trawl  Port,MO,Valid,26/11/2002 13:46:00,2.0,51.453,0.740
FVR,CILIATA MUSTELA,Five-bearded rockling,14,n,Solent Bass Trawl  Port,MO,Valid,26/11/2002 13:46:00,2.0,51.453,0.740
SOL,SOLEA SOLEA ,Sole (dover sole),10,HA,Solent Bass Trawl  Port,MO,Valid,26/11/2002 09:05:00,3.0,51.406,0.650
SPR,SPRATTUS SPRATTUS,Sprat,10,HA,Solent Bass Trawl  Port,MO,Valid,26/11/2002 09:05:00,3.0,51.406,0.650
WHG,MERLANGIUS MERLANGUS,Whiting,10,HA,Solent Bass Trawl  Port,MO,Valid,26/11/2002 09:05:00,3.0,51.406,0.650
BRT,MYOXOCEPHALUS SCORPIUS,Bullrout,12,w,Solent Bass Trawl  Port,MO,Valid,26/11/2002 12:06:00,6.0,51.421,0.651
ESB,DICENTRARCHUS LABRAX,European seabass,12,w,Solent Bass Trawl  Port,MO,Valid,26/11/2002 12:06:00,6.0,51.421,0.651
FLE,PLATICHTHYS FLESUS,Flounder (european),12,w,Solent Bass Trawl  Port,MO,Valid,26/11/2002 12:06:00,6.0,51.421,0.651
FVR,CILIATA MUSTELA,Five-bearded rockling,10,HA,Solent Bass Trawl  Port,MO,Valid,26/11/2002 09:05:00,3.0,51.406,0.650
HER,CLUPEA HARENGUS,Herring,10,HA,Solent Bass Trawl  Port,MO,Valid,26/11/2002 09:05:00,3.0,51.406,0.650
POG,AGONUS CATAPHRACTUS,Pogge (armed bullhead),10,HA,Solent Bass Trawl  Port,MO,Valid,26/11/2002 09:05:00,3.0,51.406,0.650
RKG,GOBIUS PAGANELLUS,Rock goby,10,HA,Solent Bass Trawl  Port,MO,Valid,26/11/2002 09:05:00,3.0,51.406,0.650
SIL,ATHERINIDAE,Sand-smelts,10,HA,Solent Bass Trawl  Port,MO,Valid,26/11/2002 09:05:00,3.0,51.406,0.650
SME,OSMERUS EPERLANUS,Smelt(sparling),10,HA,Solent Bass Trawl  Port,MO,Valid,26/11/2002 09:05:00,3.0,51.406,0.650
HER,CLUPEA HARENGUS,Herring,8,P,Solent Bass Trawl  Port,WC,Valid,25/11/2002 14:36:00,9.0,51.515,0.700
PLE,PLEURONECTES PLATESSA,European plaice,8,P,Solent Bass Trawl  Port,MO,Valid,25/11/2002 14:36:00,9.0,51.515,0.700
WHG,MERLANGIUS MERLANGUS,Whiting,8,P,Solent Bass Trawl  Port,MO,Valid,25/11/2002 14:36:00,9.0,51.515,0.700
BRT,MYOXOCEPHALUS SCORPIUS,Bullrout,10,HA,Solent Bass Trawl  Port,MO,Valid,26/11/2002 09:05:00,3.0,51.406,0.650
DAB,LIMANDA LIMANDA,Dab,10,HA,Solent Bass Trawl  Port,MO,Valid,26/11/2002 09:05:00,3.0,51.406,0.650
FLE,PLATICHTHYS FLESUS,Flounder (european),10,HA,Solent Bass Trawl  Port,MO,Valid,26/11/2002 09:05:00,3.0,51.406,0.650
WHG,MERLANGIUS MERLANGUS,Whiting,6,M,Solent Bass Trawl  Port,MO,Valid,25/11/2002 13:11:00,5.0,51.490,0.681
BIB,TRISOPTERUS LUSCUS,Whiting-pout (bib),8,P,Solent Bass Trawl  Port,MO,Valid,25/11/2002 14:36:00,9.0,51.515,0.700
BLL,SCOPHTHALMUS RHOMBUS,Brill,8,P,Solent Bass Trawl  Port,MO,Valid,25/11/2002 14:36:00,9.0,51.515,0.700
DAB,LIMANDA LIMANDA,Dab,8,P,Solent Bass Trawl  Port,MO,Valid,25/11/2002 14:36:00,9.0,51.515,0.700
FLE,PLATICHTHYS FLESUS,Flounder (european),8,P,Solent Bass Trawl  Port,MO,Valid,25/11/2002 14:36:00,9.0,51.515,0.700
FVR,CILIATA MUSTELA,Five-bearded rockling,8,P,Solent Bass Trawl  Port,MO,Valid,25/11/2002 14:36:00,9.0,51.515,0.700
GOB,GOBIUS SPP,Gobies,6,M,Solent Bass Trawl  Port,OB,Valid,25/11/2002 13:11:00,5.0,51.490,0.681
GPF,SYNGNATHUS ACUS,Great pipefish,6,M,Solent Bass Trawl  Port,MO,Valid,25/11/2002 13:11:00,5.0,51.490,0.681
POG,AGONUS CATAPHRACTUS,Pogge (armed bullhead),6,M,Solent Bass Trawl  Port,MO,Valid,25/11/2002 13:11:00,5.0,51.490,0.681
SOL,SOLEA SOLEA ,Sole (dover sole),6,M,Solent Bass Trawl  Port,MO,Valid,25/11/2002 13:11:00,5.0,51.490,0.681
THR,RAJA CLAVATA,Thornback ray (roker),6,M,Solent Bass Trawl  Port,MO,Valid,25/11/2002 13:11:00,5.0,51.490,0.681
TUB,TRIGLA (CHELIDONICHTHYS) LUCERNA,Tub gurnard,6,M,Solent Bass Trawl  Port,MO,Valid,25/11/2002 13:11:00,5.0,51.490,0.681
BIB,TRISOPTERUS LUSCUS,Whiting-pout (bib),6,M,Solent Bass Trawl  Port,MO,Valid,25/11/2002 13:11:00,5.0,51.490,0.681
CDT,CALLIONYMUS LYRA,Common dragonet,6,M,Solent Bass Trawl  Port,MO,Valid,25/11/2002 13:11:00,5.0,51.490,0.681
COD,GADUS MORHUA,Atlantic cod,6,M,Solent Bass Trawl  Port,MO,Valid,25/11/2002 13:11:00,5.0,51.490,0.681
DAB,LIMANDA LIMANDA,Dab,6,M,Solent Bass Trawl  Port,MO,Valid,25/11/2002 13:11:00,5.0,51.490,0.681
FLE,PLATICHTHYS FLESUS,Flounder (european),6,M,Solent Bass Trawl  Port,MO,Valid,25/11/2002 13:11:00,5.0,51.490,0.681
FVR,CILIATA MUSTELA,Five-bearded rockling,6,M,Solent Bass Trawl  Port,MO,Valid,25/11/2002 13:11:00,5.0,51.490,0.681
SME,OSMERUS EPERLANUS,Smelt(sparling),2,o,Solent Bass Trawl  Port,MO,Valid,25/11/2002 09:12:00,6.0,51.480,0.826
SOL,SOLEA SOLEA ,Sole (dover sole),2,o,Solent Bass Trawl  Port,MO,Valid,25/11/2002 09:12:00,6.0,51.480,0.826
SOT,BUGLOSSIDIUM LUTEUM,Solenette,2,o,Solent Bass Trawl  Port,MO,Valid,25/11/2002 09:12:00,6.0,51.480,0.826
SPR,SPRATTUS SPRATTUS,Sprat,2,o,Solent Bass Trawl  Port,MO,Valid,25/11/2002 09:12:00,6.0,51.480,0.826
THR,RAJA CLAVATA,Thornback ray (roker),2,o,Solent Bass Trawl  Port,MO,Valid,25/11/2002 09:12:00,6.0,51.480,0.826
WHG,MERLANGIUS MERLANGUS,Whiting,2,o,Solent Bass Trawl  Port,MO,Valid,25/11/2002 09:12:00,6.0,51.480,0.826
BLL,SCOPHTHALMUS RHOMBUS,Brill,1,L,Solent Bass Trawl  Star,MO,Valid,25/11/2002 07:24:00,6.0,51.506,0.855
CDT,CALLIONYMUS LYRA,Common dragonet,1,L,Solent Bass Trawl  Star,MO,Valid,25/11/2002 07:24:00,6.0,51.506,0.855
CLU,CLUPEIDAE,Herrings,1,L,Solent Bass Trawl  Star,OB,Valid,25/11/2002 07:24:00,6.0,51.506,0.855
DAB,LIMANDA LIMANDA,Dab,1,L,Solent Bass Trawl  Star,MO,Valid,25/11/2002 07:24:00,6.0,51.506,0.855
FLE,PLATICHTHYS FLESUS,Flounder (european),1,L,Solent Bass Trawl  Star,MO,Valid,25/11/2002 07:24:00,6.0,51.506,0.855
GOB,GOBIUS SPP,Gobies,1,L,Solent Bass Trawl  Star,OB,Valid,25/11/2002 07:24:00,6.0,51.506,0.855
WHG,MERLANGIUS MERLANGUS,Whiting,37,R,Solent Bass Trawl  Star,MO,Valid,30/11/2002 15:24:00,2.0,51.390,0.983
DAB,LIMANDA LIMANDA,Dab,37,R,Solent Bass Trawl  Star,MO,Valid,30/11/2002 15:24:00,2.0,51.390,0.983
GPA,GOBIIDAE,Gobies,37,R,Solent Bass Trawl  Star,OB,Valid,30/11/2002 15:24:00,2.0,51.390,0.983
HER,CLUPEA HARENGUS,Herring,37,R,Solent Bass Trawl  Star,MO,Valid,30/11/2002 15:24:00,2.0,51.390,0.983
PLE,PLEURONECTES PLATESSA,European plaice,37,R,Solent Bass Trawl  Star,MO,Valid,30/11/2002 15:24:00,2.0,51.390,0.983
POG,AGONUS CATAPHRACTUS,Pogge (armed bullhead),37,R,Solent Bass Trawl  Star,MO,Valid,30/11/2002 15:24:00,2.0,51.390,0.983
SME,OSMERUS EPERLANUS,Smelt(sparling),37,R,Solent Bass Trawl  Star,MO,Valid,30/11/2002 15:24:00,2.0,51.390,0.983
PLE,PLEURONECTES PLATESSA,European plaice,35,T,Solent Bass Trawl  Star,MO,Valid,30/11/2002 14:11:00,4.0,51.351,0.921
POG,AGONUS CATAPHRACTUS,Pogge (armed bullhead),35,T,Solent Bass Trawl  Star,MO,Valid,30/11/2002 14:11:00,4.0,51.351,0.921
POL,POLLACHIUS POLLACHIUS,Pollack,35,T,Solent Bass Trawl  Star,MO,Valid,30/11/2002 14:11:00,4.0,51.351,0.921
SME,OSMERUS EPERLANUS,Smelt(sparling),35,T,Solent Bass Trawl  Star,MO,Valid,30/11/2002 14:11:00,4.0,51.351,0.921
WHG,MERLANGIUS MERLANGUS,Whiting,35,T,Solent Bass Trawl  Star,MO,Valid,30/11/2002 14:11:00,4.0,51.351,0.921
BIB,TRISOPTERUS LUSCUS,Whiting-pout (bib),37,R,Solent Bass Trawl  Star,MO,Valid,30/11/2002 15:24:00,2.0,51.390,0.983
DAB,LIMANDA LIMANDA,Dab,35,T,Solent Bass Trawl  Star,MO,Valid,30/11/2002 14:11:00,4.0,51.351,0.921
ELP,ZOARCES VIVIPARUS,Eelpout/viviparus blenny,35,T,Solent Bass Trawl  Star,MO,Valid,30/11/2002 14:11:00,4.0,51.351,0.921
FLE,PLATICHTHYS FLESUS,Flounder (european),35,T,Solent Bass Trawl  Star,MO,Valid,30/11/2002 14:11:00,4.0,51.351,0.921
FVR,CILIATA MUSTELA,Five-bearded rockling,35,T,Solent Bass Trawl  Star,MO,Valid,30/11/2002 14:11:00,4.0,51.351,0.921
GPA,GOBIIDAE,Gobies,35,T,Solent Bass Trawl  Star,OB,Valid,30/11/2002 14:11:00,4.0,51.351,0.921
HER,CLUPEA HARENGUS,Herring,35,T,Solent Bass Trawl  Star,MO,Valid,30/11/2002 14:11:00,4.0,51.351,0.921
GPA,GOBIIDAE,Gobies,33,SA,Solent Bass Trawl  Star,OB,Valid,30/11/2002 11:59:00,2.0,51.361,0.828
HER,CLUPEA HARENGUS,Herring,33,SA,Solent Bass Trawl  Star,MO,Valid,30/11/2002 11:59:00,2.0,51.361,0.828
POG,AGONUS CATAPHRACTUS,Pogge (armed bullhead),33,SA,Solent Bass Trawl  Star,MO,Valid,30/11/2002 11:59:00,2.0,51.361,0.828
RKG,GOBIUS PAGANELLUS,Rock goby,33,SA,Solent Bass Trawl  Star,OB,Valid,30/11/2002 11:59:00,2.0,51.361,0.828
SME,OSMERUS EPERLANUS,Smelt(sparling),33,SA,Solent Bass Trawl  Star,MO,Valid,30/11/2002 11:59:00,2.0,51.361,0.828
BRT,MYOXOCEPHALUS SCORPIUS,Bullrout,35,T,Solent Bass Trawl  Star,MO,Valid,30/11/2002 14:11:00,4.0,51.351,0.921
POG,AGONUS CATAPHRACTUS,Pogge (armed bullhead),32,BD,Solent Bass Trawl  Star,MO,Valid,29/11/2002 13:25:00,5.0,51.735,0.870
RKG,GOBIUS PAGANELLUS,Rock goby,32,BD,Solent Bass Trawl  Star,MO,Valid,29/11/2002 13:25:00,5.0,51.735,0.870
SME,OSMERUS EPERLANUS,Smelt(sparling),32,BD,Solent Bass Trawl  Star,MO,Valid,29/11/2002 13:25:00,5.0,51.735,0.870
WHG,MERLANGIUS MERLANGUS,Whiting,32,BD,Solent Bass Trawl  Star,MO,Valid,29/11/2002 13:25:00,5.0,51.735,0.870
BRT,MYOXOCEPHALUS SCORPIUS,Bullrout,33,SA,Solent Bass Trawl  Star,MO,Valid,30/11/2002 11:59:00,2.0,51.361,0.828
FLE,PLATICHTHYS FLESUS,Flounder (european),33,SA,Solent Bass Trawl  Star,MO,Valid,30/11/2002 11:59:00,2.0,51.361,0.828
THR,RAJA CLAVATA,Thornback ray (roker),31,BC,Solent Bass Trawl  Star,MO,Valid,29/11/2002 12:26:00,12.0,51.750,0.901
WHG,MERLANGIUS MERLANGUS,Whiting,31,BC,Solent Bass Trawl  Star,MO,Valid,29/11/2002 12:26:00,12.0,51.750,0.901
DAB,LIMANDA LIMANDA,Dab,32,BD,Solent Bass Trawl  Star,MO,Valid,29/11/2002 13:25:00,5.0,51.735,0.870
FLE,PLATICHTHYS FLESUS,Flounder (european),32,BD,Solent Bass Trawl  Star,MO,Valid,29/11/2002 13:25:00,5.0,51.735,0.870
FVR,CILIATA MUSTELA,Five-bearded rockling,32,BD,Solent Bass Trawl  Star,MO,Valid,29/11/2002 13:25:00,5.0,51.735,0.870
HER,CLUPEA HARENGUS,Herring,32,BD,Solent Bass Trawl  Star,MO,Valid,29/11/2002 13:25:00,5.0,51.735,0.870
COD,GADUS MORHUA,Atlantic cod,31,BC,Solent Bass Trawl  Star,MO,Valid,29/11/2002 12:26:00,12.0,51.750,0.901
DAB,LIMANDA LIMANDA,Dab,31,BC,Solent Bass Trawl  Star,MO,Valid,29/11/2002 12:26:00,12.0,51.750,0.901
FLE,PLATICHTHYS FLESUS,Flounder (european),31,BC,Solent Bass Trawl  Star,MO,Valid,29/11/2002 12:26:00,12.0,51.750,0.901
HER,CLUPEA HARENGUS,Herring,31,BC,Solent Bass Trawl  Star,MO,Valid,29/11/2002 12:26:00,12.0,51.750,0.901
POD,TRISOPTERUS MINUTUS,Poor cod,31,BC,Solent Bass Trawl  Star,MO,Valid,29/11/2002 12:26:00,12.0,51.750,0.901
SME,OSMERUS EPERLANUS,Smelt(sparling),31,BC,Solent Bass Trawl  Star,MO,Valid,29/11/2002 12:26:00,12.0,51.750,0.901
POD,TRISOPTERUS MINUTUS,Poor cod,30,BB,Solent Bass Trawl  Star,MO,Valid,29/11/2002 11:18:00,13.0,51.755,0.931
POG,AGONUS CATAPHRACTUS,Pogge (armed bullhead),30,BB,Solent Bass Trawl  Star,MO,Valid,29/11/2002 11:18:00,13.0,51.755,0.931
THR,RAJA CLAVATA,Thornback ray (roker),30,BB,Solent Bass Trawl  Star,MO,Valid,29/11/2002 11:18:00,13.0,51.755,0.931
TUB,TRIGLA (CHELIDONICHTHYS) LUCERNA,Tub gurnard,30,BB,Solent Bass Trawl  Star,MO,Valid,29/11/2002 11:18:00,13.0,51.755,0.931
WHG,MERLANGIUS MERLANGUS,Whiting,30,BB,Solent Bass Trawl  Star,MO,Valid,29/11/2002 11:18:00,13.0,51.755,0.931
BIB,TRISOPTERUS LUSCUS,Whiting-pout (bib),31,BC,Solent Bass Trawl  Star,MO,Valid,29/11/2002 12:26:00,12.0,51.750,0.901
BIB,TRISOPTERUS LUSCUS,Whiting-pout (bib),30,BB,Solent Bass Trawl  Star,MO,Valid,29/11/2002 11:18:00,13.0,51.755,0.931
COD,GADUS MORHUA,Atlantic cod,30,BB,Solent Bass Trawl  Star,MO,Valid,29/11/2002 11:18:00,13.0,51.755,0.931
DAB,LIMANDA LIMANDA,Dab,30,BB,Solent Bass Trawl  Star,MO,Valid,29/11/2002 11:18:00,13.0,51.755,0.931
FLE,PLATICHTHYS FLESUS,Flounder (european),30,BB,Solent Bass Trawl  Star,MO,Valid,29/11/2002 11:18:00,13.0,51.755,0.931
HER,CLUPEA HARENGUS,Herring,30,BB,Solent Bass Trawl  Star,WC,Valid,29/11/2002 11:18:00,13.0,51.755,0.931
HOM,TRACHURUS TRACHURUS,Horse-mackerel (scad),30,BB,Solent Bass Trawl  Star,MO,Valid,29/11/2002 11:18:00,13.0,51.755,0.931
HER,CLUPEA HARENGUS,Herring,29,BA,Solent Bass Trawl  Star,WC,Valid,29/11/2002 10:02:00,10.0,51.745,1.000
PLE,PLEURONECTES PLATESSA,European plaice,29,BA,Solent Bass Trawl  Star,MO,Valid,29/11/2002 10:02:00,10.0,51.745,1.000
POG,AGONUS CATAPHRACTUS,Pogge (armed bullhead),29,BA,Solent Bass Trawl  Star,MO,Valid,29/11/2002 10:02:00,10.0,51.745,1.000
SPR,SPRATTUS SPRATTUS,Sprat,29,BA,Solent Bass Trawl  Star,MO,Valid,29/11/2002 10:02:00,10.0,51.745,1.000
THR,RAJA CLAVATA,Thornback ray (roker),29,BA,Solent Bass Trawl  Star,MO,Valid,29/11/2002 10:02:00,10.0,51.745,1.000
WHG,MERLANGIUS MERLANGUS,Whiting,29,BA,Solent Bass Trawl  Star,MO,Valid,29/11/2002 10:02:00,10.0,51.745,1.000
SSL,LIPARIS LIPARIS,Sea snail,27,CB,Solent Bass Trawl  Star,MO,Valid,28/11/2002 13:35:00,4.0,51.633,0.736
WHG,MERLANGIUS MERLANGUS,Whiting,27,CB,Solent Bass Trawl  Star,MO,Valid,28/11/2002 13:35:00,4.0,51.633,0.736
COD,GADUS MORHUA,Atlantic cod,29,BA,Solent Bass Trawl  Star,MO,Valid,29/11/2002 10:02:00,10.0,51.745,1.000
DAB,LIMANDA LIMANDA,Dab,29,BA,Solent Bass Trawl  Star,MO,Valid,29/11/2002 10:02:00,10.0,51.745,1.000
FLE,PLATICHTHYS FLESUS,Flounder (european),29,BA,Solent Bass Trawl  Star,MO,Valid,29/11/2002 10:02:00,10.0,51.745,1.000
FVR,CILIATA MUSTELA,Five-bearded rockling,29,BA,Solent Bass Trawl  Star,MO,Valid,29/11/2002 10:02:00,10.0,51.745,1.000
GOB,GOBIUS SPP,Gobies,27,CB,Solent Bass Trawl  Star,OB,Valid,28/11/2002 13:35:00,4.0,51.633,0.736
HER,CLUPEA HARENGUS,Herring,27,CB,Solent Bass Trawl  Star,WC,Valid,28/11/2002 13:35:00,4.0,51.633,0.736
HOM,TRACHURUS TRACHURUS,Horse-mackerel (scad),27,CB,Solent Bass Trawl  Star,MO,Valid,28/11/2002 13:35:00,4.0,51.633,0.736
POG,AGONUS CATAPHRACTUS,Pogge (armed bullhead),27,CB,Solent Bass Trawl  Star,MO,Valid,28/11/2002 13:35:00,4.0,51.633,0.736
SME,OSMERUS EPERLANUS,Smelt(sparling),27,CB,Solent Bass Trawl  Star,MO,Valid,28/11/2002 13:35:00,4.0,51.633,0.736
SPR,SPRATTUS SPRATTUS,Sprat,27,CB,Solent Bass Trawl  Star,WC,Valid,28/11/2002 13:35:00,4.0,51.633,0.736
POL,POLLACHIUS POLLACHIUS,Pollack,25,RB,Solent Bass Trawl  Star,MO,Valid,28/11/2002 10:52:00,7.0,51.601,0.870
RKG,GOBIUS PAGANELLUS,Rock goby,25,RB,Solent Bass Trawl  Star,OB,Valid,28/11/2002 10:52:00,7.0,51.601,0.870
SME,OSMERUS EPERLANUS,Smelt(sparling),25,RB,Solent Bass Trawl  Star,WC,Valid,28/11/2002 10:52:00,7.0,51.601,0.870
WHG,MERLANGIUS MERLANGUS,Whiting,25,RB,Solent Bass Trawl  Star,MO,Valid,28/11/2002 10:52:00,7.0,51.601,0.870
CDT,CALLIONYMUS LYRA,Common dragonet,27,CB,Solent Bass Trawl  Star,MO,Valid,28/11/2002 13:35:00,4.0,51.633,0.736
FLE,PLATICHTHYS FLESUS,Flounder (european),27,CB,Solent Bass Trawl  Star,MO,Valid,28/11/2002 13:35:00,4.0,51.633,0.736
DAB,LIMANDA LIMANDA,Dab,25,RB,Solent Bass Trawl  Star,MO,Valid,28/11/2002 10:52:00,7.0,51.601,0.870
FLE,PLATICHTHYS FLESUS,Flounder (european),25,RB,Solent Bass Trawl  Star,MO,Valid,28/11/2002 10:52:00,7.0,51.601,0.870
FVR,CILIATA MUSTELA,Five-bearded rockling,25,RB,Solent Bass Trawl  Star,MO,Valid,28/11/2002 10:52:00,7.0,51.601,0.870
GOB,GOBIUS SPP,Gobies,25,RB,Solent Bass Trawl  Star,OB,Valid,28/11/2002 10:52:00,7.0,51.601,0.870
HER,CLUPEA HARENGUS,Herring,25,RB,Solent Bass Trawl  Star,WC,Valid,28/11/2002 10:52:00,7.0,51.601,0.870
POG,AGONUS CATAPHRACTUS,Pogge (armed bullhead),25,RB,Solent Bass Trawl  Star,MO,Valid,28/11/2002 10:52:00,7.0,51.601,0.870
SME,OSMERUS EPERLANUS,Smelt(sparling),24,CA,Solent Bass Trawl  Star,WC,Valid,28/11/2002 09:54:00,9.0,51.618,0.896
SOL,SOLEA SOLEA ,Sole (dover sole),24,CA,Solent Bass Trawl  Star,WC,Valid,28/11/2002 09:54:00,9.0,51.618,0.896
SSL,LIPARIS LIPARIS,Sea snail,24,CA,Solent Bass Trawl  Star,WC,Valid,28/11/2002 09:54:00,9.0,51.618,0.896
WHG,MERLANGIUS MERLANGUS,Whiting,24,CA,Solent Bass Trawl  Star,WC,Valid,28/11/2002 09:54:00,9.0,51.618,0.896
BIB,TRISOPTERUS LUSCUS,Whiting-pout (bib),25,RB,Solent Bass Trawl  Star,MO,Valid,28/11/2002 10:52:00,7.0,51.601,0.870
BRT,MYOXOCEPHALUS SCORPIUS,Bullrout,25,RB,Solent Bass Trawl  Star,WC,Valid,28/11/2002 10:52:00,7.0,51.601,0.870
BIB,TRISOPTERUS LUSCUS,Whiting-pout (bib),24,CA,Solent Bass Trawl  Star,WC,Valid,28/11/2002 09:54:00,9.0,51.618,0.896
COD,GADUS MORHUA,Atlantic cod,24,CA,Solent Bass Trawl  Star,WC,Valid,28/11/2002 09:54:00,9.0,51.618,0.896
DAB,LIMANDA LIMANDA,Dab,24,CA,Solent Bass Trawl  Star,WC,Valid,28/11/2002 09:54:00,9.0,51.618,0.896
FLE,PLATICHTHYS FLESUS,Flounder (european),24,CA,Solent Bass Trawl  Star,WC,Valid,28/11/2002 09:54:00,9.0,51.618,0.896
FVR,CILIATA MUSTELA,Five-bearded rockling,24,CA,Solent Bass Trawl  Star,WC,Valid,28/11/2002 09:54:00,9.0,51.618,0.896
POG,AGONUS CATAPHRACTUS,Pogge (armed bullhead),24,CA,Solent Bass Trawl  Star,WC,Valid,28/11/2002 09:54:00,9.0,51.618,0.896
PLE,PLEURONECTES PLATESSA,European plaice,23,CD,Solent Bass Trawl  Star,MO,Valid,28/11/2002 09:09:00,6.0,51.628,0.958
POG,AGONUS CATAPHRACTUS,Pogge (armed bullhead),23,CD,Solent Bass Trawl  Star,MO,Valid,28/11/2002 09:09:00,6.0,51.628,0.958
SME,OSMERUS EPERLANUS,Smelt(sparling),23,CD,Solent Bass Trawl  Star,MO,Valid,28/11/2002 09:09:00,6.0,51.628,0.958
SOL,SOLEA SOLEA ,Sole (dover sole),23,CD,Solent Bass Trawl  Star,MO,Valid,28/11/2002 09:09:00,6.0,51.628,0.958
THR,RAJA CLAVATA,Thornback ray (roker),23,CD,Solent Bass Trawl  Star,MO,Valid,28/11/2002 09:09:00,6.0,51.628,0.958
WHG,MERLANGIUS MERLANGUS,Whiting,23,CD,Solent Bass Trawl  Star,MO,Valid,28/11/2002 09:09:00,6.0,51.628,0.958
SME,OSMERUS EPERLANUS,Smelt(sparling),22,G1,Solent Bass Trawl  Star,MO,Valid,27/11/2002 13:29:00,5.0,51.513,0.138
BIB,TRISOPTERUS LUSCUS,Whiting-pout (bib),23,CD,Solent Bass Trawl  Star,MO,Valid,28/11/2002 09:09:00,6.0,51.628,0.958
COD,GADUS MORHUA,Atlantic cod,23,CD,Solent Bass Trawl  Star,MO,Valid,28/11/2002 09:09:00,6.0,51.628,0.958
DAB,LIMANDA LIMANDA,Dab,23,CD,Solent Bass Trawl  Star,MO,Valid,28/11/2002 09:09:00,6.0,51.628,0.958
ESB,DICENTRARCHUS LABRAX,European seabass,23,CD,Solent Bass Trawl  Star,MO,Valid,28/11/2002 09:09:00,6.0,51.628,0.958
FLE,PLATICHTHYS FLESUS,Flounder (european),23,CD,Solent Bass Trawl  Star,MO,Valid,28/11/2002 09:09:00,6.0,51.628,0.958
SME,OSMERUS EPERLANUS,Smelt(sparling),21,G,Solent Bass Trawl  Star,MO,Valid,27/11/2002 12:56:00,9.0,51.515,0.140
CRC,CANCER PAGURUS (COCK),Male edible crab (hist only),22,G1,Solent Bass Trawl  Star,WC,Valid,27/11/2002 13:29:00,5.0,51.513,0.138
ESB,DICENTRARCHUS LABRAX,European seabass,22,G1,Solent Bass Trawl  Star,MO,Valid,27/11/2002 13:29:00,5.0,51.513,0.138
FLE,PLATICHTHYS FLESUS,Flounder (european),22,G1,Solent Bass Trawl  Star,MO,Valid,27/11/2002 13:29:00,5.0,51.513,0.138
GOB,GOBIUS SPP,Gobies,22,G1,Solent Bass Trawl  Star,OB,Valid,27/11/2002 13:29:00,5.0,51.513,0.138
MTN,LIZA RAMADA,Thin lipped mullet,22,G1,Solent Bass Trawl  Star,MO,Valid,27/11/2002 13:29:00,5.0,51.513,0.138
HER,CLUPEA HARENGUS,Herring,20,F,Solent Bass Trawl  Star,MO,Valid,27/11/2002 11:25:00,8.0,51.460,0.300
SME,OSMERUS EPERLANUS,Smelt(sparling),20,F,Solent Bass Trawl  Star,MO,Valid,27/11/2002 11:25:00,8.0,51.460,0.300
SOL,SOLEA SOLEA ,Sole (dover sole),20,F,Solent Bass Trawl  Star,MO,Valid,27/11/2002 11:25:00,8.0,51.460,0.300
EEL,ANGUILLIDAE,Eels,21,G,Solent Bass Trawl  Star,WC,Valid,27/11/2002 12:56:00,9.0,51.515,0.140
ESB,DICENTRARCHUS LABRAX,European seabass,21,G,Solent Bass Trawl  Star,MO,Valid,27/11/2002 12:56:00,9.0,51.515,0.140
FLE,PLATICHTHYS FLESUS,Flounder (european),21,G,Solent Bass Trawl  Star,MO,Valid,27/11/2002 12:56:00,9.0,51.515,0.140
SOL,SOLEA SOLEA ,Sole (dover sole),19,e1,Solent Bass Trawl  Star,MO,Valid,27/11/2002 11:06:00,6.0,51.470,0.318
SPR,SPRATTUS SPRATTUS,Sprat,19,e1,Solent Bass Trawl  Star,WC,Valid,27/11/2002 11:06:00,6.0,51.470,0.318
CRC,CANCER PAGURUS (COCK),Male edible crab (hist only),20,F,Solent Bass Trawl  Star,WC,Valid,27/11/2002 11:25:00,8.0,51.460,0.300
EEL,ANGUILLIDAE,Eels,20,F,Solent Bass Trawl  Star,WC,Valid,27/11/2002 11:25:00,8.0,51.460,0.300
ESB,DICENTRARCHUS LABRAX,European seabass,20,F,Solent Bass Trawl  Star,MO,Valid,27/11/2002 11:25:00,8.0,51.460,0.300
FLE,PLATICHTHYS FLESUS,Flounder (european),20,F,Solent Bass Trawl  Star,MO,Valid,27/11/2002 11:25:00,8.0,51.460,0.300
BRT,MYOXOCEPHALUS SCORPIUS,Bullrout,19,e1,Solent Bass Trawl  Star,MO,Valid,27/11/2002 11:06:00,6.0,51.470,0.318
EEL,ANGUILLIDAE,Eels,19,e1,Solent Bass Trawl  Star,WC,Valid,27/11/2002 11:06:00,6.0,51.470,0.318
ESB,DICENTRARCHUS LABRAX,European seabass,19,e1,Solent Bass Trawl  Star,MO,Valid,27/11/2002 11:06:00,6.0,51.470,0.318
FLE,PLATICHTHYS FLESUS,Flounder (european),19,e1,Solent Bass Trawl  Star,MO,Valid,27/11/2002 11:06:00,6.0,51.470,0.318
GOB,GOBIUS SPP,Gobies,19,e1,Solent Bass Trawl  Star,OB,Valid,27/11/2002 11:06:00,6.0,51.470,0.318
POG,AGONUS CATAPHRACTUS,Pogge (armed bullhead),19,e1,Solent Bass Trawl  Star,MO,Valid,27/11/2002 11:06:00,6.0,51.470,0.318
EEL,ANGUILLIDAE,Eels,18,e,Solent Bass Trawl  Star,MO,Valid,27/11/2002 10:00:00,3.0,51.470,0.321
ESB,DICENTRARCHUS LABRAX,European seabass,18,e,Solent Bass Trawl  Star,MO,Valid,27/11/2002 10:00:00,3.0,51.470,0.321
FLE,PLATICHTHYS FLESUS,Flounder (european),18,e,Solent Bass Trawl  Star,MO,Valid,27/11/2002 10:00:00,3.0,51.470,0.321
POG,AGONUS CATAPHRACTUS,Pogge (armed bullhead),18,e,Solent Bass Trawl  Star,MO,Valid,27/11/2002 10:00:00,3.0,51.470,0.321
SME,OSMERUS EPERLANUS,Smelt(sparling),18,e,Solent Bass Trawl  Star,MO,Valid,27/11/2002 10:00:00,3.0,51.470,0.321
SOL,SOLEA SOLEA ,Sole (dover sole),18,e,Solent Bass Trawl  Star,MO,Valid,27/11/2002 10:00:00,3.0,51.470,0.321
PLE,PLEURONECTES PLATESSA,European plaice,17,d,Solent Bass Trawl  Star,MO,Valid,27/11/2002 08:17:00,4.0,51.495,0.495
POG,AGONUS CATAPHRACTUS,Pogge (armed bullhead),17,d,Solent Bass Trawl  Star,MO,Valid,27/11/2002 08:17:00,4.0,51.495,0.495
SME,OSMERUS EPERLANUS,Smelt(sparling),17,d,Solent Bass Trawl  Star,MO,Valid,27/11/2002 08:17:00,4.0,51.495,0.495
SOL,SOLEA SOLEA ,Sole (dover sole),17,d,Solent Bass Trawl  Star,MO,Valid,27/11/2002 08:17:00,4.0,51.495,0.495
SPR,SPRATTUS SPRATTUS,Sprat,17,d,Solent Bass Trawl  Star,WC,Valid,27/11/2002 08:17:00,4.0,51.495,0.495
WHG,MERLANGIUS MERLANGUS,Whiting,17,d,Solent Bass Trawl  Star,MO,Valid,27/11/2002 08:17:00,4.0,51.495,0.495
WHG,MERLANGIUS MERLANGUS,Whiting,16,a1,Solent Bass Trawl  Star,MO,Valid,27/11/2002 07:44:00,5.0,51.498,0.533
BIB,TRISOPTERUS LUSCUS,Whiting-pout (bib),17,d,Solent Bass Trawl  Star,MO,Valid,27/11/2002 08:17:00,4.0,51.495,0.495
COD,GADUS MORHUA,Atlantic cod,17,d,Solent Bass Trawl  Star,MO,Valid,27/11/2002 08:17:00,4.0,51.495,0.495
ESB,DICENTRARCHUS LABRAX,European seabass,17,d,Solent Bass Trawl  Star,MO,Valid,27/11/2002 08:17:00,4.0,51.495,0.495
FLE,PLATICHTHYS FLESUS,Flounder (european),17,d,Solent Bass Trawl  Star,MO,Valid,27/11/2002 08:17:00,4.0,51.495,0.495
GPF,SYNGNATHUS ACUS,Great pipefish,17,d,Solent Bass Trawl  Star,MO,Valid,27/11/2002 08:17:00,4.0,51.495,0.495
CLU,CLUPEIDAE,Herrings,16,a1,Solent Bass Trawl  Star,OB,Valid,27/11/2002 07:44:00,5.0,51.498,0.533
FLE,PLATICHTHYS FLESUS,Flounder (european),16,a1,Solent Bass Trawl  Star,MO,Valid,27/11/2002 07:44:00,5.0,51.498,0.533
POG,AGONUS CATAPHRACTUS,Pogge (armed bullhead),16,a1,Solent Bass Trawl  Star,MO,Valid,27/11/2002 07:44:00,5.0,51.498,0.533
SME,OSMERUS EPERLANUS,Smelt(sparling),16,a1,Solent Bass Trawl  Star,MO,Valid,27/11/2002 07:44:00,5.0,51.498,0.533
SPR,SPRATTUS SPRATTUS,Sprat,16,a1,Solent Bass Trawl  Star,WC,Valid,27/11/2002 07:44:00,5.0,51.498,0.533
TSS,GASTEROSTEUS ACULEATUS,Three-spined stickleback,16,a1,Solent Bass Trawl  Star,MO,Valid,27/11/2002 07:44:00,5.0,51.498,0.533
HER,CLUPEA HARENGUS,Herring,15,a,Solent Bass Trawl  Star,MO,Valid,26/11/2002 15:03:00,4.0,51.495,0.558
POG,AGONUS CATAPHRACTUS,Pogge (armed bullhead),15,a,Solent Bass Trawl  Star,MO,Valid,26/11/2002 15:03:00,4.0,51.495,0.558
SOL,SOLEA SOLEA ,Sole (dover sole),15,a,Solent Bass Trawl  Star,MO,Valid,26/11/2002 15:03:00,4.0,51.495,0.558
SPR,SPRATTUS SPRATTUS,Sprat,15,a,Solent Bass Trawl  Star,MO,Valid,26/11/2002 15:03:00,4.0,51.495,0.558
WHG,MERLANGIUS MERLANGUS,Whiting,15,a,Solent Bass Trawl  Star,MO,Valid,26/11/2002 15:03:00,4.0,51.495,0.558
BIB,TRISOPTERUS LUSCUS,Whiting-pout (bib),16,a1,Solent Bass Trawl  Star,MO,Valid,27/11/2002 07:44:00,5.0,51.498,0.533
SOL,SOLEA SOLEA ,Sole (dover sole),13,x,Solent Bass Trawl  Star,MO,Valid,26/11/2002 13:01:00,4.0,51.436,0.721
SPR,SPRATTUS SPRATTUS,Sprat,13,x,Solent Bass Trawl  Star,MO,Valid,26/11/2002 13:01:00,4.0,51.436,0.721
BIB,TRISOPTERUS LUSCUS,Whiting-pout (bib),15,a,Solent Bass Trawl  Star,MO,Valid,26/11/2002 15:03:00,4.0,51.495,0.558
COD,GADUS MORHUA,Atlantic cod,15,a,Solent Bass Trawl  Star,MO,Valid,26/11/2002 15:03:00,4.0,51.495,0.558
CRE,CANCER PAGURUS,Edible crab,15,a,Solent Bass Trawl  Star,WC,Valid,26/11/2002 15:03:00,4.0,51.495,0.558
FLE,PLATICHTHYS FLESUS,Flounder (european),15,a,Solent Bass Trawl  Star,MO,Valid,26/11/2002 15:03:00,4.0,51.495,0.558
FLE,PLATICHTHYS FLESUS,Flounder (european),13,x,Solent Bass Trawl  Star,MO,Valid,26/11/2002 13:01:00,4.0,51.436,0.721
FVR,CILIATA MUSTELA,Five-bearded rockling,13,x,Solent Bass Trawl  Star,MO,Valid,26/11/2002 13:01:00,4.0,51.436,0.721
HER,CLUPEA HARENGUS,Herring,13,x,Solent Bass Trawl  Star,MO,Valid,26/11/2002 13:01:00,4.0,51.436,0.721
PLE,PLEURONECTES PLATESSA,European plaice,13,x,Solent Bass Trawl  Star,MO,Valid,26/11/2002 13:01:00,4.0,51.436,0.721
POG,AGONUS CATAPHRACTUS,Pogge (armed bullhead),13,x,Solent Bass Trawl  Star,MO,Valid,26/11/2002 13:01:00,4.0,51.436,0.721
RKG,GOBIUS PAGANELLUS,Rock goby,13,x,Solent Bass Trawl  Star,MO,Valid,26/11/2002 13:01:00,4.0,51.436,0.721
SDG,POMATOSCHISTUS MINUTUS,Sand goby,11,v,Solent Bass Trawl  Star,MO,Valid,26/11/2002 10:32:00,2.0,51.421,0.645
SIL,ATHERINIDAE,Sand-smelts,11,v,Solent Bass Trawl  Star,MO,Valid,26/11/2002 10:32:00,2.0,51.421,0.645
SPR,SPRATTUS SPRATTUS,Sprat,11,v,Solent Bass Trawl  Star,MO,Valid,26/11/2002 10:32:00,2.0,51.421,0.645
TPG,APHIA MINUTA,Transparent goby,11,v,Solent Bass Trawl  Star,MO,Valid,26/11/2002 10:32:00,2.0,51.421,0.645
CRE,CANCER PAGURUS,Edible crab,13,x,Solent Bass Trawl  Star,MO,Valid,26/11/2002 13:01:00,4.0,51.436,0.721
DAB,LIMANDA LIMANDA,Dab,13,x,Solent Bass Trawl  Star,MO,Valid,26/11/2002 13:01:00,4.0,51.436,0.721
WHG,MERLANGIUS MERLANGUS,Whiting,9,MA,Solent Bass Trawl  Star,MO,Valid,26/11/2002 07:39:00,5.0,51.411,0.695
BRT,MYOXOCEPHALUS SCORPIUS,Bullrout,11,v,Solent Bass Trawl  Star,MO,Valid,26/11/2002 10:32:00,2.0,51.421,0.645
FLE,PLATICHTHYS FLESUS,Flounder (european),11,v,Solent Bass Trawl  Star,MO,Valid,26/11/2002 10:32:00,2.0,51.421,0.645
FVR,CILIATA MUSTELA,Five-bearded rockling,11,v,Solent Bass Trawl  Star,MO,Valid,26/11/2002 10:32:00,2.0,51.421,0.645
HER,CLUPEA HARENGUS,Herring,11,v,Solent Bass Trawl  Star,MO,Valid,26/11/2002 10:32:00,2.0,51.421,0.645
RKG,GOBIUS PAGANELLUS,Rock goby,11,v,Solent Bass Trawl  Star,MO,Valid,26/11/2002 10:32:00,2.0,51.421,0.645
DAB,LIMANDA LIMANDA,Dab,9,MA,Solent Bass Trawl  Star,MO,Valid,26/11/2002 07:39:00,5.0,51.411,0.695
FLE,PLATICHTHYS FLESUS,Flounder (european),9,MA,Solent Bass Trawl  Star,MO,Valid,26/11/2002 07:39:00,5.0,51.411,0.695
HER,CLUPEA HARENGUS,Herring,9,MA,Solent Bass Trawl  Star,MO,Valid,26/11/2002 07:39:00,5.0,51.411,0.695
MUR,MULLUS SURMULETUS,Red mullet,9,MA,Solent Bass Trawl  Star,MO,Valid,26/11/2002 07:39:00,5.0,51.411,0.695
RKG,GOBIUS PAGANELLUS,Rock goby,9,MA,Solent Bass Trawl  Star,MO,Valid,26/11/2002 07:39:00,5.0,51.411,0.695
SME,OSMERUS EPERLANUS,Smelt(sparling),9,MA,Solent Bass Trawl  Star,MO,Valid,26/11/2002 07:39:00,5.0,51.411,0.695
PLE,PLEURONECTES PLATESSA,European plaice,7,J1,Solent Bass Trawl  Star,MO,Valid,25/11/2002 13:56:00,8.0,51.513,0.666
SME,OSMERUS EPERLANUS,Smelt(sparling),7,J1,Solent Bass Trawl  Star,MO,Valid,25/11/2002 13:56:00,8.0,51.513,0.666
WHG,MERLANGIUS MERLANGUS,Whiting,7,J1,Solent Bass Trawl  Star,MO,Valid,25/11/2002 13:56:00,8.0,51.513,0.666
BIB,TRISOPTERUS LUSCUS,Whiting-pout (bib),9,MA,Solent Bass Trawl  Star,MO,Valid,26/11/2002 07:39:00,5.0,51.411,0.695
BRT,MYOXOCEPHALUS SCORPIUS,Bullrout,9,MA,Solent Bass Trawl  Star,MO,Valid,26/11/2002 07:39:00,5.0,51.411,0.695
CDT,CALLIONYMUS LYRA,Common dragonet,9,MA,Solent Bass Trawl  Star,MO,Valid,26/11/2002 07:39:00,5.0,51.411,0.695
BIB,TRISOPTERUS LUSCUS,Whiting-pout (bib),7,J1,Solent Bass Trawl  Star,MO,Valid,25/11/2002 13:56:00,8.0,51.513,0.666
CDT,CALLIONYMUS LYRA,Common dragonet,7,J1,Solent Bass Trawl  Star,MO,Valid,25/11/2002 13:56:00,8.0,51.513,0.666
DAB,LIMANDA LIMANDA,Dab,7,J1,Solent Bass Trawl  Star,MO,Valid,25/11/2002 13:56:00,8.0,51.513,0.666
FLE,PLATICHTHYS FLESUS,Flounder (european),7,J1,Solent Bass Trawl  Star,MO,Valid,25/11/2002 13:56:00,8.0,51.513,0.666
HER,CLUPEA HARENGUS,Herring,7,J1,Solent Bass Trawl  Star,MO,Valid,25/11/2002 13:56:00,8.0,51.513,0.666
LEM,MICROSTOMUS KITT,Lemon sole,7,J1,Solent Bass Trawl  Star,MO,Valid,25/11/2002 13:56:00,8.0,51.513,0.666
PLE,PLEURONECTES PLATESSA,European plaice,5,J,Solent Bass Trawl  Star,MO,Valid,25/11/2002 12:21:00,5.0,51.515,0.665
POG,AGONUS CATAPHRACTUS,Pogge (armed bullhead),5,J,Solent Bass Trawl  Star,MO,Valid,25/11/2002 12:21:00,5.0,51.515,0.665
SME,OSMERUS EPERLANUS,Smelt(sparling),5,J,Solent Bass Trawl  Star,MO,Valid,25/11/2002 12:21:00,5.0,51.515,0.665
SOL,SOLEA SOLEA ,Sole (dover sole),5,J,Solent Bass Trawl  Star,MO,Valid,25/11/2002 12:21:00,5.0,51.515,0.665
SPR,SPRATTUS SPRATTUS,Sprat,5,J,Solent Bass Trawl  Star,WC,Valid,25/11/2002 12:21:00,5.0,51.515,0.665
TUB,TRIGLA (CHELIDONICHTHYS) LUCERNA,Tub gurnard,5,J,Solent Bass Trawl  Star,MO,Valid,25/11/2002 12:21:00,5.0,51.515,0.665
BRT,MYOXOCEPHALUS SCORPIUS,Bullrout,5,J,Solent Bass Trawl  Star,MO,Valid,25/11/2002 12:21:00,5.0,51.515,0.665
DAB,LIMANDA LIMANDA,Dab,5,J,Solent Bass Trawl  Star,MO,Valid,25/11/2002 12:21:00,5.0,51.515,0.665
ELP,ZOARCES VIVIPARUS,Eelpout/viviparus blenny,5,J,Solent Bass Trawl  Star,MO,Valid,25/11/2002 12:21:00,5.0,51.515,0.665
FLE,PLATICHTHYS FLESUS,Flounder (european),5,J,Solent Bass Trawl  Star,MO,Valid,25/11/2002 12:21:00,5.0,51.515,0.665
HER,CLUPEA HARENGUS,Herring,5,J,Solent Bass Trawl  Star,WC,Valid,25/11/2002 12:21:00,5.0,51.515,0.665
LEM,MICROSTOMUS KITT,Lemon sole,5,J,Solent Bass Trawl  Star,MO,Valid,25/11/2002 12:21:00,5.0,51.515,0.665
HER,CLUPEA HARENGUS,Herring,3,k,Solent Bass Trawl  Star,WC,Valid,25/11/2002 10:14:00,6.0,51.506,0.755
PLE,PLEURONECTES PLATESSA,European plaice,3,k,Solent Bass Trawl  Star,MO,Valid,25/11/2002 10:14:00,6.0,51.506,0.755
POG,AGONUS CATAPHRACTUS,Pogge (armed bullhead),3,k,Solent Bass Trawl  Star,MO,Valid,25/11/2002 10:14:00,6.0,51.506,0.755
SPR,SPRATTUS SPRATTUS,Sprat,3,k,Solent Bass Trawl  Star,WC,Valid,25/11/2002 10:14:00,6.0,51.506,0.755
WHG,MERLANGIUS MERLANGUS,Whiting,3,k,Solent Bass Trawl  Star,MO,Valid,25/11/2002 10:14:00,6.0,51.506,0.755
BIB,TRISOPTERUS LUSCUS,Whiting-pout (bib),5,J,Solent Bass Trawl  Star,MO,Valid,25/11/2002 12:21:00,5.0,51.515,0.665
SPR,SPRATTUS SPRATTUS,Sprat,1,L,Solent Bass Trawl  Star,WC,Valid,25/11/2002 07:24:00,6.0,51.506,0.855
WHG,MERLANGIUS MERLANGUS,Whiting,1,L,Solent Bass Trawl  Star,MO,Valid,25/11/2002 07:24:00,6.0,51.506,0.855
BRT,MYOXOCEPHALUS SCORPIUS,Bullrout,3,k,Solent Bass Trawl  Star,MO,Valid,25/11/2002 10:14:00,6.0,51.506,0.755
CDT,CALLIONYMUS LYRA,Common dragonet,3,k,Solent Bass Trawl  Star,MO,Valid,25/11/2002 10:14:00,6.0,51.506,0.755
DAB,LIMANDA LIMANDA,Dab,3,k,Solent Bass Trawl  Star,MO,Valid,25/11/2002 10:14:00,6.0,51.506,0.755
FLE,PLATICHTHYS FLESUS,Flounder (european),3,k,Solent Bass Trawl  Star,MO,Valid,25/11/2002 10:14:00,6.0,51.506,0.755
GPF,SYNGNATHUS ACUS,Great pipefish,1,L,Solent Bass Trawl  Star,MO,Valid,25/11/2002 07:24:00,6.0,51.506,0.855
HER,CLUPEA HARENGUS,Herring,1,L,Solent Bass Trawl  Star,WC,Valid,25/11/2002 07:24:00,6.0,51.506,0.855
PLE,PLEURONECTES PLATESSA,European plaice,1,L,Solent Bass Trawl  Star,MO,Valid,25/11/2002 07:24:00,6.0,51.506,0.855
POG,AGONUS CATAPHRACTUS,Pogge (armed bullhead),1,L,Solent Bass Trawl  Star,MO,Valid,25/11/2002 07:24:00,6.0,51.506,0.855
SDF,ARNOGLOSSUS LATERNA,Scald fish,1,L,Solent Bass Trawl  Star,MO,Valid,25/11/2002 07:24:00,6.0,51.506,0.855
SOL,SOLEA SOLEA ,Sole (dover sole),1,L,Solent Bass Trawl  Star,MO,Valid,25/11/2002 07:24:00,6.0,51.506,0.855
